time	time	departures_all	arrivals_all	stuck_all	en-route_all	departures_car	arrivals_car	stuck_car	en-route_car
00:00:00	0	0	0	0	0	0	0	0	0
00:05:00	300	0	0	0	0	0	0	0	0
00:10:00	600	0	0	0	0	0	0	0	0
00:15:00	900	0	0	0	0	0	0	0	0
00:20:00	1200	0	0	0	0	0	0	0	0
00:25:00	1500	0	0	0	0	0	0	0	0
00:30:00	1800	0	0	0	0	0	0	0	0
00:35:00	2100	0	0	0	0	0	0	0	0
00:40:00	2400	0	0	0	0	0	0	0	0
00:45:00	2700	0	0	0	0	0	0	0	0
00:50:00	3000	0	0	0	0	0	0	0	0
00:55:00	3300	0	0	0	0	0	0	0	0
01:00:00	3600	0	0	0	0	0	0	0	0
01:05:00	3900	0	0	0	0	0	0	0	0
01:10:00	4200	0	0	0	0	0	0	0	0
01:15:00	4500	0	0	0	0	0	0	0	0
01:20:00	4800	0	0	0	0	0	0	0	0
01:25:00	5100	0	0	0	0	0	0	0	0
01:30:00	5400	0	0	0	0	0	0	0	0
01:35:00	5700	0	0	0	0	0	0	0	0
01:40:00	6000	0	0	0	0	0	0	0	0
01:45:00	6300	0	0	0	0	0	0	0	0
01:50:00	6600	0	0	0	0	0	0	0	0
01:55:00	6900	0	0	0	0	0	0	0	0
02:00:00	7200	0	0	0	0	0	0	0	0
02:05:00	7500	0	0	0	0	0	0	0	0
02:10:00	7800	0	0	0	0	0	0	0	0
02:15:00	8100	0	0	0	0	0	0	0	0
02:20:00	8400	0	0	0	0	0	0	0	0
02:25:00	8700	0	0	0	0	0	0	0	0
02:30:00	9000	0	0	0	0	0	0	0	0
02:35:00	9300	0	0	0	0	0	0	0	0
02:40:00	9600	0	0	0	0	0	0	0	0
02:45:00	9900	0	0	0	0	0	0	0	0
02:50:00	10200	0	0	0	0	0	0	0	0
02:55:00	10500	1	1	0	0	1	1	0	0
03:00:00	10800	1	0	0	1	1	0	0	1
03:05:00	11100	0	1	0	0	0	1	0	0
03:10:00	11400	0	0	0	0	0	0	0	0
03:15:00	11700	0	0	0	0	0	0	0	0
03:20:00	12000	0	0	0	0	0	0	0	0
03:25:00	12300	0	0	0	0	0	0	0	0
03:30:00	12600	0	0	0	0	0	0	0	0
03:35:00	12900	0	0	0	0	0	0	0	0
03:40:00	13200	2	1	0	1	2	1	0	1
03:45:00	13500	0	1	0	0	0	1	0	0
03:50:00	13800	0	0	0	0	0	0	0	0
03:55:00	14100	0	0	0	0	0	0	0	0
04:00:00	14400	2	1	0	1	2	1	0	1
04:05:00	14700	1	1	0	1	1	1	0	1
04:10:00	15000	3	1	0	3	3	1	0	3
04:15:00	15300	3	5	0	1	3	5	0	1
04:20:00	15600	1	1	0	1	1	1	0	1
04:25:00	15900	7	5	0	3	7	5	0	3
04:30:00	16200	5	6	0	2	5	6	0	2
04:35:00	16500	6	6	0	2	6	6	0	2
04:40:00	16800	13	8	0	7	13	8	0	7
04:45:00	17100	9	12	0	4	9	12	0	4
04:50:00	17400	6	5	0	5	6	5	0	5
04:55:00	17700	13	10	0	8	13	10	0	8
05:00:00	18000	15	16	0	7	15	16	0	7
05:05:00	18300	17	17	0	7	17	17	0	7
05:10:00	18600	27	20	0	14	27	20	0	14
05:15:00	18900	25	26	0	13	25	26	0	13
05:20:00	19200	22	28	0	7	22	28	0	7
05:25:00	19500	39	28	0	18	39	28	0	18
05:30:00	19800	33	33	0	18	33	33	0	18
05:35:00	20100	49	43	0	24	49	43	0	24
05:40:00	20400	47	43	0	28	47	43	0	28
05:45:00	20700	59	56	0	31	59	56	0	31
05:50:00	21000	73	71	0	33	73	71	0	33
05:55:00	21300	79	63	0	49	79	63	0	49
06:00:00	21600	85	89	0	45	85	89	0	45
06:05:00	21900	105	91	0	59	105	91	0	59
06:10:00	22200	81	99	0	41	81	99	0	41
06:15:00	22500	115	94	0	62	115	94	0	62
06:20:00	22800	135	119	0	78	135	119	0	78
06:25:00	23100	171	154	0	95	171	154	0	95
06:30:00	23400	176	163	0	108	176	163	0	108
06:35:00	23700	205	194	0	119	205	194	0	119
06:40:00	24000	232	231	0	120	232	231	0	120
06:45:00	24300	278	241	0	157	278	241	0	157
06:50:00	24600	305	290	0	172	305	290	0	172
06:55:00	24900	440	346	0	266	440	346	0	266
07:00:00	25200	449	409	0	306	449	409	0	306
07:05:00	25500	481	483	0	304	481	483	0	304
07:10:00	25800	481	454	0	331	481	454	0	331
07:15:00	26100	502	465	0	368	502	465	0	368
07:20:00	26400	484	520	0	332	484	520	0	332
07:25:00	26700	550	482	0	400	550	482	0	400
07:30:00	27000	566	517	0	449	566	517	0	449
07:35:00	27300	609	534	0	524	609	534	0	524
07:40:00	27600	627	528	0	623	627	528	0	623
07:45:00	27900	624	570	0	677	624	570	0	677
07:50:00	28200	663	560	0	780	663	560	0	780
07:55:00	28500	699	569	0	910	699	569	0	910
08:00:00	28800	755	640	0	1025	755	640	0	1025
08:05:00	29100	790	625	0	1190	790	625	0	1190
08:10:00	29400	763	682	0	1271	763	682	0	1271
08:15:00	29700	791	662	0	1400	791	662	0	1400
08:20:00	30000	805	631	0	1574	805	631	0	1574
08:25:00	30300	830	638	0	1766	830	638	0	1766
08:30:00	30600	861	660	0	1967	861	660	0	1967
08:35:00	30900	859	678	0	2148	859	678	0	2148
08:40:00	31200	905	698	0	2355	905	698	0	2355
08:45:00	31500	853	684	0	2524	853	684	0	2524
08:50:00	31800	896	661	0	2759	896	661	0	2759
08:55:00	32100	816	677	0	2898	816	677	0	2898
09:00:00	32400	933	641	0	3190	933	641	0	3190
09:05:00	32700	911	704	0	3397	911	704	0	3397
09:10:00	33000	841	658	0	3580	841	658	0	3580
09:15:00	33300	837	694	0	3723	837	694	0	3723
09:20:00	33600	817	621	0	3919	817	621	0	3919
09:25:00	33900	834	630	0	4123	834	630	0	4123
09:30:00	34200	808	671	0	4260	808	671	0	4260
09:35:00	34500	774	667	0	4367	774	667	0	4367
09:40:00	34800	773	626	0	4514	773	626	0	4514
09:45:00	35100	733	648	0	4599	733	648	0	4599
09:50:00	35400	703	616	0	4686	703	616	0	4686
09:55:00	35700	685	627	0	4744	685	627	0	4744
10:00:00	36000	635	589	0	4790	635	589	0	4790
10:05:00	36300	635	590	0	4835	635	590	0	4835
10:10:00	36600	594	565	0	4864	594	565	0	4864
10:15:00	36900	571	572	0	4863	571	572	0	4863
10:20:00	37200	551	528	0	4886	551	528	0	4886
10:25:00	37500	523	531	0	4878	523	531	0	4878
10:30:00	37800	492	505	0	4865	492	505	0	4865
10:35:00	38100	440	499	0	4806	440	499	0	4806
10:40:00	38400	410	493	0	4723	410	493	0	4723
10:45:00	38700	419	469	0	4673	419	469	0	4673
10:50:00	39000	403	480	0	4596	403	480	0	4596
10:55:00	39300	414	522	0	4488	414	522	0	4488
11:00:00	39600	312	550	0	4250	312	550	0	4250
11:05:00	39900	280	482	0	4048	280	482	0	4048
11:10:00	40200	252	435	0	3865	252	435	0	3865
11:15:00	40500	211	342	0	3734	211	342	0	3734
11:20:00	40800	195	362	0	3567	195	362	0	3567
11:25:00	41100	172	367	0	3372	172	367	0	3372
11:30:00	41400	156	297	0	3231	156	297	0	3231
11:35:00	41700	130	251	0	3110	130	251	0	3110
11:40:00	42000	120	247	0	2983	120	247	0	2983
11:45:00	42300	102	202	0	2883	102	202	0	2883
11:50:00	42600	91	186	0	2788	91	186	0	2788
11:55:00	42900	76	203	0	2661	76	203	0	2661
12:00:00	43200	69	190	0	2540	69	190	0	2540
12:05:00	43500	56	207	0	2389	56	207	0	2389
12:10:00	43800	70	184	0	2275	70	184	0	2275
12:15:00	44100	41	195	0	2121	41	195	0	2121
12:20:00	44400	70	164	0	2027	70	164	0	2027
12:25:00	44700	39	186	0	1880	39	186	0	1880
12:30:00	45000	34	164	0	1750	34	164	0	1750
12:35:00	45300	37	195	0	1592	37	195	0	1592
12:40:00	45600	34	124	0	1502	34	124	0	1502
12:45:00	45900	31	102	0	1431	31	102	0	1431
12:50:00	46200	33	99	0	1365	33	99	0	1365
12:55:00	46500	29	102	0	1292	29	102	0	1292
13:00:00	46800	27	492	0	827	27	492	0	827
13:05:00	47100	35	343	0	519	35	343	0	519
13:10:00	47400	29	55	0	493	29	55	0	493
13:15:00	47700	35	58	0	470	35	58	0	470
13:20:00	48000	45	57	0	458	45	57	0	458
13:25:00	48300	31	60	0	429	31	60	0	429
13:30:00	48600	40	62	0	407	40	62	0	407
13:35:00	48900	42	64	0	385	42	64	0	385
13:40:00	49200	45	67	0	363	45	67	0	363
13:45:00	49500	60	83	0	340	60	83	0	340
13:50:00	49800	73	84	0	329	73	84	0	329
13:55:00	50100	84	109	0	304	84	109	0	304
14:00:00	50400	95	112	0	287	95	112	0	287
14:05:00	50700	101	124	0	264	101	124	0	264
14:10:00	51000	117	132	0	249	117	132	0	249
14:15:00	51300	137	148	0	238	137	148	0	238
14:20:00	51600	136	151	0	223	136	151	0	223
14:25:00	51900	156	163	0	216	156	163	0	216
14:30:00	52200	175	176	0	215	175	176	0	215
14:35:00	52500	199	219	0	195	199	219	0	195
14:40:00	52800	217	227	0	185	217	227	0	185
14:45:00	53100	254	242	0	197	254	242	0	197
14:50:00	53400	259	264	0	192	259	264	0	192
14:55:00	53700	304	290	0	206	304	290	0	206
15:00:00	54000	343	325	0	224	343	325	0	224
15:05:00	54300	352	337	0	239	352	337	0	239
15:10:00	54600	393	376	0	256	393	376	0	256
15:15:00	54900	422	390	0	288	422	390	0	288
15:20:00	55200	460	403	0	345	460	403	0	345
15:25:00	55500	533	446	0	432	533	446	0	432
15:30:00	55800	555	459	0	528	555	459	0	528
15:35:00	56100	575	505	0	598	575	505	0	598
15:40:00	56400	654	522	0	730	654	522	0	730
15:45:00	56700	729	565	0	894	729	565	0	894
15:50:00	57000	703	547	0	1050	703	547	0	1050
15:55:00	57300	773	578	0	1245	773	578	0	1245
16:00:00	57600	786	596	0	1435	786	596	0	1435
16:05:00	57900	821	556	0	1700	821	556	0	1700
16:10:00	58200	807	561	0	1946	807	561	0	1946
16:15:00	58500	872	564	0	2254	872	564	0	2254
16:20:00	58800	798	596	0	2456	798	596	0	2456
16:25:00	59100	878	604	0	2730	878	604	0	2730
16:30:00	59400	846	539	0	3037	846	539	0	3037
16:35:00	59700	889	560	0	3366	889	560	0	3366
16:40:00	60000	877	550	0	3693	877	550	0	3693
16:45:00	60300	874	602	0	3965	874	602	0	3965
16:50:00	60600	889	579	0	4275	889	579	0	4275
16:55:00	60900	824	587	0	4512	824	587	0	4512
17:00:00	61200	834	565	0	4781	834	565	0	4781
17:05:00	61500	866	541	0	5106	866	541	0	5106
17:10:00	61800	798	543	0	5361	798	543	0	5361
17:15:00	62100	836	507	0	5690	836	507	0	5690
17:20:00	62400	823	505	0	6008	823	505	0	6008
17:25:00	62700	796	533	0	6271	796	533	0	6271
17:30:00	63000	796	565	0	6502	796	565	0	6502
17:35:00	63300	732	522	0	6712	732	522	0	6712
17:40:00	63600	751	521	0	6942	751	521	0	6942
17:45:00	63900	728	544	0	7126	728	544	0	7126
17:50:00	64200	707	555	0	7278	707	555	0	7278
17:55:00	64500	666	542	0	7402	666	542	0	7402
18:00:00	64800	705	490	0	7617	705	490	0	7617
18:05:00	65100	606	505	0	7718	606	505	0	7718
18:10:00	65400	573	514	0	7777	573	514	0	7777
18:15:00	65700	631	509	0	7899	631	509	0	7899
18:20:00	66000	570	517	0	7952	570	517	0	7952
18:25:00	66300	506	463	0	7995	506	463	0	7995
18:30:00	66600	478	481	0	7992	478	481	0	7992
18:35:00	66900	456	479	0	7969	456	479	0	7969
18:40:00	67200	438	432	0	7975	438	432	0	7975
18:45:00	67500	424	444	0	7955	424	444	0	7955
18:50:00	67800	446	428	0	7973	446	428	0	7973
18:55:00	68100	416	427	0	7962	416	427	0	7962
19:00:00	68400	370	447	0	7885	370	447	0	7885
19:05:00	68700	271	461	0	7695	271	461	0	7695
19:10:00	69000	274	472	0	7497	274	472	0	7497
19:15:00	69300	247	396	0	7348	247	396	0	7348
19:20:00	69600	213	408	0	7153	213	408	0	7153
19:25:00	69900	210	436	0	6927	210	436	0	6927
19:30:00	70200	175	384	0	6718	175	384	0	6718
19:35:00	70500	157	415	0	6460	157	415	0	6460
19:40:00	70800	130	421	0	6169	130	421	0	6169
19:45:00	71100	125	402	0	5892	125	402	0	5892
19:50:00	71400	97	363	0	5626	97	363	0	5626
19:55:00	71700	87	430	0	5283	87	430	0	5283
20:00:00	72000	87	333	0	5037	87	333	0	5037
20:05:00	72300	70	344	0	4763	70	344	0	4763
20:10:00	72600	58	304	0	4517	58	304	0	4517
20:15:00	72900	68	300	0	4285	68	300	0	4285
20:20:00	73200	47	264	0	4068	47	264	0	4068
20:25:00	73500	56	313	0	3811	56	313	0	3811
20:30:00	73800	24	258	0	3577	24	258	0	3577
20:35:00	74100	37	299	0	3315	37	299	0	3315
20:40:00	74400	20	232	0	3103	20	232	0	3103
20:45:00	74700	15	208	0	2910	15	208	0	2910
20:50:00	75000	23	224	0	2709	23	224	0	2709
20:55:00	75300	14	211	0	2512	14	211	0	2512
21:00:00	75600	12	178	0	2346	12	178	0	2346
21:05:00	75900	10	162	0	2194	10	162	0	2194
21:10:00	76200	7	165	0	2036	7	165	0	2036
21:15:00	76500	8	148	0	1896	8	148	0	1896
21:20:00	76800	13	132	0	1777	13	132	0	1777
21:25:00	77100	2	143	0	1636	2	143	0	1636
21:30:00	77400	2	128	0	1510	2	128	0	1510
21:35:00	77700	1	156	0	1355	1	156	0	1355
21:40:00	78000	2	126	0	1231	2	126	0	1231
21:45:00	78300	6	118	0	1119	6	118	0	1119
21:50:00	78600	4	113	0	1010	4	113	0	1010
21:55:00	78900	2	108	0	904	2	108	0	904
22:00:00	79200	0	115	0	789	0	115	0	789
22:05:00	79500	1	95	0	695	1	95	0	695
22:10:00	79800	1	72	0	624	1	72	0	624
22:15:00	80100	0	75	0	549	0	75	0	549
22:20:00	80400	0	72	0	477	0	72	0	477
22:25:00	80700	1	72	0	406	1	72	0	406
22:30:00	81000	0	70	0	336	0	70	0	336
22:35:00	81300	1	75	0	262	1	75	0	262
22:40:00	81600	0	75	0	187	0	75	0	187
22:45:00	81900	0	72	0	115	0	72	0	115
22:50:00	82200	0	58	0	57	0	58	0	57
22:55:00	82500	0	52	0	5	0	52	0	5
23:00:00	82800	0	5	0	0	0	5	0	0
23:05:00	83100	0	0	0	0	0	0	0	0
23:10:00	83400	0	0	0	0	0	0	0	0
23:15:00	83700	0	0	0	0	0	0	0	0
23:20:00	84000	0	0	0	0	0	0	0	0
23:25:00	84300	0	0	0	0	0	0	0	0
23:30:00	84600	0	0	0	0	0	0	0	0
23:35:00	84900	0	0	0	0	0	0	0	0
23:40:00	85200	0	0	0	0	0	0	0	0
23:45:00	85500	0	0	0	0	0	0	0	0
23:50:00	85800	0	0	0	0	0	0	0	0
23:55:00	86100	0	0	0	0	0	0	0	0
24:00:00	86400	0	0	0	0	0	0	0	0
24:05:00	86700	0	0	0	0	0	0	0	0
24:10:00	87000	0	0	0	0	0	0	0	0
24:15:00	87300	0	0	0	0	0	0	0	0
24:20:00	87600	0	0	0	0	0	0	0	0
24:25:00	87900	0	0	0	0	0	0	0	0
24:30:00	88200	0	0	0	0	0	0	0	0
24:35:00	88500	0	0	0	0	0	0	0	0
24:40:00	88800	0	0	0	0	0	0	0	0
24:45:00	89100	0	0	0	0	0	0	0	0
24:50:00	89400	0	0	0	0	0	0	0	0
24:55:00	89700	0	0	0	0	0	0	0	0
25:00:00	90000	0	0	0	0	0	0	0	0
25:05:00	90300	0	0	0	0	0	0	0	0
25:10:00	90600	0	0	0	0	0	0	0	0
25:15:00	90900	0	0	0	0	0	0	0	0
25:20:00	91200	0	0	0	0	0	0	0	0
25:25:00	91500	0	0	0	0	0	0	0	0
25:30:00	91800	0	0	0	0	0	0	0	0
25:35:00	92100	0	0	0	0	0	0	0	0
25:40:00	92400	0	0	0	0	0	0	0	0
25:45:00	92700	0	0	0	0	0	0	0	0
25:50:00	93000	0	0	0	0	0	0	0	0
25:55:00	93300	0	0	0	0	0	0	0	0
26:00:00	93600	0	0	0	0	0	0	0	0
26:05:00	93900	0	0	0	0	0	0	0	0
26:10:00	94200	0	0	0	0	0	0	0	0
26:15:00	94500	0	0	0	0	0	0	0	0
26:20:00	94800	0	0	0	0	0	0	0	0
26:25:00	95100	0	0	0	0	0	0	0	0
26:30:00	95400	0	0	0	0	0	0	0	0
26:35:00	95700	0	0	0	0	0	0	0	0
26:40:00	96000	0	0	0	0	0	0	0	0
26:45:00	96300	0	0	0	0	0	0	0	0
26:50:00	96600	0	0	0	0	0	0	0	0
26:55:00	96900	0	0	0	0	0	0	0	0
27:00:00	97200	0	0	0	0	0	0	0	0
27:05:00	97500	0	0	0	0	0	0	0	0
27:10:00	97800	0	0	0	0	0	0	0	0
27:15:00	98100	0	0	0	0	0	0	0	0
27:20:00	98400	0	0	0	0	0	0	0	0
27:25:00	98700	0	0	0	0	0	0	0	0
27:30:00	99000	0	0	0	0	0	0	0	0
27:35:00	99300	0	0	0	0	0	0	0	0
27:40:00	99600	0	0	0	0	0	0	0	0
27:45:00	99900	0	0	0	0	0	0	0	0
27:50:00	100200	0	0	0	0	0	0	0	0
27:55:00	100500	0	0	0	0	0	0	0	0
28:00:00	100800	0	0	0	0	0	0	0	0
28:05:00	101100	0	0	0	0	0	0	0	0
28:10:00	101400	0	0	0	0	0	0	0	0
28:15:00	101700	0	0	0	0	0	0	0	0
28:20:00	102000	0	0	0	0	0	0	0	0
28:25:00	102300	0	0	0	0	0	0	0	0
28:30:00	102600	0	0	0	0	0	0	0	0
28:35:00	102900	0	0	0	0	0	0	0	0
28:40:00	103200	0	0	0	0	0	0	0	0
28:45:00	103500	0	0	0	0	0	0	0	0
28:50:00	103800	0	0	0	0	0	0	0	0
28:55:00	104100	0	0	0	0	0	0	0	0
29:00:00	104400	0	0	0	0	0	0	0	0
29:05:00	104700	0	0	0	0	0	0	0	0
29:10:00	105000	0	0	0	0	0	0	0	0
29:15:00	105300	0	0	0	0	0	0	0	0
29:20:00	105600	0	0	0	0	0	0	0	0
29:25:00	105900	0	0	0	0	0	0	0	0
29:30:00	106200	0	0	0	0	0	0	0	0
29:35:00	106500	0	0	0	0	0	0	0	0
29:40:00	106800	0	0	0	0	0	0	0	0
29:45:00	107100	0	0	0	0	0	0	0	0
29:50:00	107400	0	0	0	0	0	0	0	0
29:55:00	107700	0	0	0	0	0	0	0	0
30:00:00	108000	0	0	0	0	0	0	0	0
30:05:00	108300	0	0	0	0	0	0	0	0
