pattern	0+	5+	10+	15+	20+	25+	30+	35+	40+	45+	50+	55+	60+
home---work	19665	4715	905	645	614	431	461	433	569	742	469	242	8009
work---home	10108	4063	2173	1305	1153	1004	892	903	779	787	807	838	13088

average leg duration: 3238.110356200528 seconds = 00:53:58
