pattern	0+	5+	10+	15+	20+	25+	30+	35+	40+	45+	50+	55+	60+
home---work	19769	5522	1032	731	639	488	625	605	694	439	349	261	6746
work---home	10633	3508	2163	1708	1434	1211	1004	864	931	893	797	696	12058

average leg duration: 2736.3460026385224 seconds = 00:45:36
