pattern	0+	5+	10+	15+	20+	25+	30+	35+	40+	45+	50+	55+	60+
home---work	20539	6224	1225	693	793	674	493	407	594	210	156	173	5719
work---home	11918	3735	1971	1610	1329	1142	915	811	786	746	690	635	11612

average leg duration: 2380.7469525065962 seconds = 00:39:40
