time	time	departures_all	arrivals_all	stuck_all	en-route_all	departures_car	arrivals_car	stuck_car	en-route_car
00:00:00	0	0	0	0	0	0	0	0	0
00:05:00	300	0	0	0	0	0	0	0	0
00:10:00	600	0	0	0	0	0	0	0	0
00:15:00	900	0	0	0	0	0	0	0	0
00:20:00	1200	0	0	0	0	0	0	0	0
00:25:00	1500	0	0	0	0	0	0	0	0
00:30:00	1800	0	0	0	0	0	0	0	0
00:35:00	2100	0	0	0	0	0	0	0	0
00:40:00	2400	0	0	0	0	0	0	0	0
00:45:00	2700	0	0	0	0	0	0	0	0
00:50:00	3000	0	0	0	0	0	0	0	0
00:55:00	3300	0	0	0	0	0	0	0	0
01:00:00	3600	0	0	0	0	0	0	0	0
01:05:00	3900	0	0	0	0	0	0	0	0
01:10:00	4200	0	0	0	0	0	0	0	0
01:15:00	4500	0	0	0	0	0	0	0	0
01:20:00	4800	0	0	0	0	0	0	0	0
01:25:00	5100	0	0	0	0	0	0	0	0
01:30:00	5400	0	0	0	0	0	0	0	0
01:35:00	5700	0	0	0	0	0	0	0	0
01:40:00	6000	0	0	0	0	0	0	0	0
01:45:00	6300	0	0	0	0	0	0	0	0
01:50:00	6600	0	0	0	0	0	0	0	0
01:55:00	6900	0	0	0	0	0	0	0	0
02:00:00	7200	0	0	0	0	0	0	0	0
02:05:00	7500	0	0	0	0	0	0	0	0
02:10:00	7800	0	0	0	0	0	0	0	0
02:15:00	8100	0	0	0	0	0	0	0	0
02:20:00	8400	0	0	0	0	0	0	0	0
02:25:00	8700	0	0	0	0	0	0	0	0
02:30:00	9000	0	0	0	0	0	0	0	0
02:35:00	9300	0	0	0	0	0	0	0	0
02:40:00	9600	0	0	0	0	0	0	0	0
02:45:00	9900	0	0	0	0	0	0	0	0
02:50:00	10200	0	0	0	0	0	0	0	0
02:55:00	10500	0	0	0	0	0	0	0	0
03:00:00	10800	0	0	0	0	0	0	0	0
03:05:00	11100	0	0	0	0	0	0	0	0
03:10:00	11400	1	1	0	0	1	1	0	0
03:15:00	11700	1	0	0	1	1	0	0	1
03:20:00	12000	0	1	0	0	0	1	0	0
03:25:00	12300	0	0	0	0	0	0	0	0
03:30:00	12600	0	0	0	0	0	0	0	0
03:35:00	12900	0	0	0	0	0	0	0	0
03:40:00	13200	0	0	0	0	0	0	0	0
03:45:00	13500	4	2	0	2	4	2	0	2
03:50:00	13800	0	2	0	0	0	2	0	0
03:55:00	14100	1	1	0	0	1	1	0	0
04:00:00	14400	1	0	0	1	1	0	0	1
04:05:00	14700	1	1	0	1	1	1	0	1
04:10:00	15000	3	2	0	2	3	2	0	2
04:15:00	15300	1	3	0	0	1	3	0	0
04:20:00	15600	3	1	0	2	3	1	0	2
04:25:00	15900	10	5	0	7	10	5	0	7
04:30:00	16200	8	12	0	3	8	12	0	3
04:35:00	16500	10	8	0	5	10	8	0	5
04:40:00	16800	11	14	0	2	11	14	0	2
04:45:00	17100	7	6	0	3	7	6	0	3
04:50:00	17400	8	6	0	5	8	6	0	5
04:55:00	17700	14	12	0	7	14	12	0	7
05:00:00	18000	20	17	0	10	20	17	0	10
05:05:00	18300	20	18	0	12	20	18	0	12
05:10:00	18600	22	22	0	12	22	22	0	12
05:15:00	18900	24	23	0	13	24	23	0	13
05:20:00	19200	38	29	0	22	38	29	0	22
05:25:00	19500	26	36	0	12	26	36	0	12
05:30:00	19800	51	39	0	24	51	39	0	24
05:35:00	20100	37	46	0	15	37	46	0	15
05:40:00	20400	71	52	0	34	71	52	0	34
05:45:00	20700	75	61	0	48	75	61	0	48
05:50:00	21000	82	88	0	42	82	88	0	42
05:55:00	21300	75	77	0	40	75	77	0	40
06:00:00	21600	88	84	0	44	88	84	0	44
06:05:00	21900	117	94	0	67	117	94	0	67
06:10:00	22200	112	110	0	69	112	110	0	69
06:15:00	22500	139	141	0	67	139	141	0	67
06:20:00	22800	142	132	0	77	142	132	0	77
06:25:00	23100	169	150	0	96	169	150	0	96
06:30:00	23400	175	181	0	90	175	181	0	90
06:35:00	23700	227	185	0	132	227	185	0	132
06:40:00	24000	234	251	0	115	234	251	0	115
06:45:00	24300	264	224	0	155	264	224	0	155
06:50:00	24600	300	285	0	170	300	285	0	170
06:55:00	24900	372	317	0	225	372	317	0	225
07:00:00	25200	401	380	0	246	401	380	0	246
07:05:00	25500	399	402	0	243	399	402	0	243
07:10:00	25800	422	398	0	267	422	398	0	267
07:15:00	26100	451	435	0	283	451	435	0	283
07:20:00	26400	475	464	0	294	475	464	0	294
07:25:00	26700	521	465	0	350	521	465	0	350
07:30:00	27000	539	504	0	385	539	504	0	385
07:35:00	27300	550	535	0	400	550	535	0	400
07:40:00	27600	613	513	0	500	613	513	0	500
07:45:00	27900	598	552	0	546	598	552	0	546
07:50:00	28200	627	520	0	653	627	520	0	653
07:55:00	28500	694	584	0	763	694	584	0	763
08:00:00	28800	691	537	0	917	691	537	0	917
08:05:00	29100	716	593	0	1040	716	593	0	1040
08:10:00	29400	763	624	0	1179	763	624	0	1179
08:15:00	29700	771	612	0	1338	771	612	0	1338
08:20:00	30000	823	597	0	1564	823	597	0	1564
08:25:00	30300	869	646	0	1787	869	646	0	1787
08:30:00	30600	885	696	0	1976	885	696	0	1976
08:35:00	30900	858	662	0	2172	858	662	0	2172
08:40:00	31200	929	663	0	2438	929	663	0	2438
08:45:00	31500	878	644	0	2672	878	644	0	2672
08:50:00	31800	888	676	0	2884	888	676	0	2884
08:55:00	32100	891	652	0	3123	891	652	0	3123
09:00:00	32400	905	691	0	3337	905	691	0	3337
09:05:00	32700	830	649	0	3518	830	649	0	3518
09:10:00	33000	857	648	0	3727	857	648	0	3727
09:15:00	33300	838	630	0	3935	838	630	0	3935
09:20:00	33600	875	672	0	4138	875	672	0	4138
09:25:00	33900	854	653	0	4339	854	653	0	4339
09:30:00	34200	813	633	0	4519	813	633	0	4519
09:35:00	34500	778	647	0	4650	778	647	0	4650
09:40:00	34800	736	618	0	4768	736	618	0	4768
09:45:00	35100	771	654	0	4885	771	654	0	4885
09:50:00	35400	714	602	0	4997	714	602	0	4997
09:55:00	35700	684	601	0	5080	684	601	0	5080
10:00:00	36000	649	613	0	5116	649	613	0	5116
10:05:00	36300	661	573	0	5204	661	573	0	5204
10:10:00	36600	596	604	0	5196	596	604	0	5196
10:15:00	36900	629	570	0	5255	629	570	0	5255
10:20:00	37200	589	558	0	5286	589	558	0	5286
10:25:00	37500	516	538	0	5264	516	538	0	5264
10:30:00	37800	519	549	0	5234	519	549	0	5234
10:35:00	38100	394	503	0	5125	394	503	0	5125
10:40:00	38400	438	475	0	5088	438	475	0	5088
10:45:00	38700	414	476	0	5026	414	476	0	5026
10:50:00	39000	382	451	0	4957	382	451	0	4957
10:55:00	39300	389	484	0	4862	389	484	0	4862
11:00:00	39600	331	467	0	4726	331	467	0	4726
11:05:00	39900	286	441	0	4571	286	441	0	4571
11:10:00	40200	251	384	0	4438	251	384	0	4438
11:15:00	40500	224	353	0	4309	224	353	0	4309
11:20:00	40800	198	382	0	4125	198	382	0	4125
11:25:00	41100	214	422	0	3917	214	422	0	3917
11:30:00	41400	167	389	0	3695	167	389	0	3695
11:35:00	41700	149	384	0	3460	149	384	0	3460
11:40:00	42000	150	293	0	3317	150	293	0	3317
11:45:00	42300	115	251	0	3181	115	251	0	3181
11:50:00	42600	123	219	0	3085	123	219	0	3085
11:55:00	42900	79	229	0	2935	79	229	0	2935
12:00:00	43200	74	212	0	2797	74	212	0	2797
12:05:00	43500	56	192	0	2661	56	192	0	2661
12:10:00	43800	67	200	0	2528	67	200	0	2528
12:15:00	44100	57	182	0	2403	57	182	0	2403
12:20:00	44400	64	191	0	2276	64	191	0	2276
12:25:00	44700	39	177	0	2138	39	177	0	2138
12:30:00	45000	37	172	0	2003	37	172	0	2003
12:35:00	45300	40	172	0	1871	40	172	0	1871
12:40:00	45600	40	164	0	1747	40	164	0	1747
12:45:00	45900	34	110	0	1671	34	110	0	1671
12:50:00	46200	34	99	0	1606	34	99	0	1606
12:55:00	46500	34	96	0	1544	34	96	0	1544
13:00:00	46800	39	114	0	1469	39	114	0	1469
13:05:00	47100	32	219	0	1282	32	219	0	1282
13:10:00	47400	36	220	0	1098	36	220	0	1098
13:15:00	47700	35	173	0	960	35	173	0	960
13:20:00	48000	39	217	0	782	39	217	0	782
13:25:00	48300	45	227	0	600	45	227	0	600
13:30:00	48600	58	221	0	437	58	221	0	437
13:35:00	48900	39	81	0	395	39	81	0	395
13:40:00	49200	56	78	0	373	56	78	0	373
13:45:00	49500	64	85	0	352	64	85	0	352
13:50:00	49800	77	84	0	345	77	84	0	345
13:55:00	50100	87	116	0	316	87	116	0	316
14:00:00	50400	102	105	0	313	102	105	0	313
14:05:00	50700	102	137	0	278	102	137	0	278
14:10:00	51000	136	140	0	274	136	140	0	274
14:15:00	51300	140	166	0	248	140	166	0	248
14:20:00	51600	134	148	0	234	134	148	0	234
14:25:00	51900	165	151	0	248	165	151	0	248
14:30:00	52200	198	217	0	229	198	217	0	229
14:35:00	52500	221	230	0	220	221	230	0	220
14:40:00	52800	227	230	0	217	227	230	0	217
14:45:00	53100	275	262	0	230	275	262	0	230
14:50:00	53400	282	283	0	229	282	283	0	229
14:55:00	53700	282	303	0	208	282	303	0	208
15:00:00	54000	320	311	0	217	320	311	0	217
15:05:00	54300	375	355	0	237	375	355	0	237
15:10:00	54600	397	398	0	236	397	398	0	236
15:15:00	54900	448	405	0	279	448	405	0	279
15:20:00	55200	463	427	0	315	463	427	0	315
15:25:00	55500	499	452	0	362	499	452	0	362
15:30:00	55800	547	467	0	442	547	467	0	442
15:35:00	56100	528	489	0	481	528	489	0	481
15:40:00	56400	566	493	0	554	566	493	0	554
15:45:00	56700	653	524	0	683	653	524	0	683
15:50:00	57000	623	574	0	732	623	574	0	732
15:55:00	57300	689	538	0	883	689	538	0	883
16:00:00	57600	713	543	0	1053	713	543	0	1053
16:05:00	57900	777	551	0	1279	777	551	0	1279
16:10:00	58200	742	556	0	1465	742	556	0	1465
16:15:00	58500	843	535	0	1773	843	535	0	1773
16:20:00	58800	801	537	0	2037	801	537	0	2037
16:25:00	59100	860	599	0	2298	860	599	0	2298
16:30:00	59400	839	579	0	2558	839	579	0	2558
16:35:00	59700	842	566	0	2834	842	566	0	2834
16:40:00	60000	884	560	0	3158	884	560	0	3158
16:45:00	60300	869	550	0	3477	869	550	0	3477
16:50:00	60600	915	535	0	3857	915	535	0	3857
16:55:00	60900	900	547	0	4210	900	547	0	4210
17:00:00	61200	945	550	0	4605	945	550	0	4605
17:05:00	61500	917	534	0	4988	917	534	0	4988
17:10:00	61800	859	482	0	5365	859	482	0	5365
17:15:00	62100	874	517	0	5722	874	517	0	5722
17:20:00	62400	811	521	0	6012	811	521	0	6012
17:25:00	62700	817	478	0	6351	817	478	0	6351
17:30:00	63000	886	569	0	6668	886	569	0	6668
17:35:00	63300	783	532	0	6919	783	532	0	6919
17:40:00	63600	730	496	0	7153	730	496	0	7153
17:45:00	63900	735	538	0	7350	735	538	0	7350
17:50:00	64200	688	516	0	7522	688	516	0	7522
17:55:00	64500	682	452	0	7752	682	452	0	7752
18:00:00	64800	695	471	0	7976	695	471	0	7976
18:05:00	65100	676	452	0	8200	676	452	0	8200
18:10:00	65400	636	475	0	8361	636	475	0	8361
18:15:00	65700	608	484	0	8485	608	484	0	8485
18:20:00	66000	557	477	0	8565	557	477	0	8565
18:25:00	66300	513	430	0	8648	513	430	0	8648
18:30:00	66600	486	453	0	8681	486	453	0	8681
18:35:00	66900	436	434	0	8683	436	434	0	8683
18:40:00	67200	406	441	0	8648	406	441	0	8648
18:45:00	67500	401	439	0	8610	401	439	0	8610
18:50:00	67800	382	394	0	8598	382	394	0	8598
18:55:00	68100	383	398	0	8583	383	398	0	8583
19:00:00	68400	358	427	0	8514	358	427	0	8514
19:05:00	68700	294	362	0	8446	294	362	0	8446
19:10:00	69000	293	370	0	8369	293	370	0	8369
19:15:00	69300	230	409	0	8190	230	409	0	8190
19:20:00	69600	222	352	0	8060	222	352	0	8060
19:25:00	69900	181	381	0	7860	181	381	0	7860
19:30:00	70200	181	354	0	7687	181	354	0	7687
19:35:00	70500	174	322	0	7539	174	322	0	7539
19:40:00	70800	144	373	0	7310	144	373	0	7310
19:45:00	71100	111	363	0	7058	111	363	0	7058
19:50:00	71400	96	328	0	6826	96	328	0	6826
19:55:00	71700	102	367	0	6561	102	367	0	6561
20:00:00	72000	94	357	0	6298	94	357	0	6298
20:05:00	72300	79	319	0	6058	79	319	0	6058
20:10:00	72600	69	320	0	5807	69	320	0	5807
20:15:00	72900	66	313	0	5560	66	313	0	5560
20:20:00	73200	48	310	0	5298	48	310	0	5298
20:25:00	73500	48	259	0	5087	48	259	0	5087
20:30:00	73800	31	275	0	4843	31	275	0	4843
20:35:00	74100	38	252	0	4629	38	252	0	4629
20:40:00	74400	30	285	0	4374	30	285	0	4374
20:45:00	74700	16	236	0	4154	16	236	0	4154
20:50:00	75000	25	249	0	3930	25	249	0	3930
20:55:00	75300	16	214	0	3732	16	214	0	3732
21:00:00	75600	12	200	0	3544	12	200	0	3544
21:05:00	75900	10	203	0	3351	10	203	0	3351
21:10:00	76200	12	230	0	3133	12	230	0	3133
21:15:00	76500	7	259	0	2881	7	259	0	2881
21:20:00	76800	6	223	0	2664	6	223	0	2664
21:25:00	77100	7	209	0	2462	7	209	0	2462
21:30:00	77400	3	209	0	2256	3	209	0	2256
21:35:00	77700	1	190	0	2067	1	190	0	2067
21:40:00	78000	5	193	0	1879	5	193	0	1879
21:45:00	78300	1	189	0	1691	1	189	0	1691
21:50:00	78600	0	169	0	1522	0	169	0	1522
21:55:00	78900	3	172	0	1353	3	172	0	1353
22:00:00	79200	0	144	0	1209	0	144	0	1209
22:05:00	79500	1	122	0	1088	1	122	0	1088
22:10:00	79800	3	119	0	972	3	119	0	972
22:15:00	80100	0	119	0	853	0	119	0	853
22:20:00	80400	2	134	0	721	2	134	0	721
22:25:00	80700	1	97	0	625	1	97	0	625
22:30:00	81000	0	72	0	553	0	72	0	553
22:35:00	81300	0	70	0	483	0	70	0	483
22:40:00	81600	0	77	0	406	0	77	0	406
22:45:00	81900	0	76	0	330	0	76	0	330
22:50:00	82200	0	60	0	270	0	60	0	270
22:55:00	82500	0	54	0	216	0	54	0	216
23:00:00	82800	0	51	0	165	0	51	0	165
23:05:00	83100	0	50	0	115	0	50	0	115
23:10:00	83400	0	50	0	65	0	50	0	65
23:15:00	83700	0	51	0	14	0	51	0	14
23:20:00	84000	0	14	0	0	0	14	0	0
23:25:00	84300	0	0	0	0	0	0	0	0
23:30:00	84600	0	0	0	0	0	0	0	0
23:35:00	84900	0	0	0	0	0	0	0	0
23:40:00	85200	0	0	0	0	0	0	0	0
23:45:00	85500	0	0	0	0	0	0	0	0
23:50:00	85800	0	0	0	0	0	0	0	0
23:55:00	86100	0	0	0	0	0	0	0	0
24:00:00	86400	0	0	0	0	0	0	0	0
24:05:00	86700	0	0	0	0	0	0	0	0
24:10:00	87000	0	0	0	0	0	0	0	0
24:15:00	87300	0	0	0	0	0	0	0	0
24:20:00	87600	0	0	0	0	0	0	0	0
24:25:00	87900	0	0	0	0	0	0	0	0
24:30:00	88200	0	0	0	0	0	0	0	0
24:35:00	88500	0	0	0	0	0	0	0	0
24:40:00	88800	0	0	0	0	0	0	0	0
24:45:00	89100	0	0	0	0	0	0	0	0
24:50:00	89400	0	0	0	0	0	0	0	0
24:55:00	89700	0	0	0	0	0	0	0	0
25:00:00	90000	0	0	0	0	0	0	0	0
25:05:00	90300	0	0	0	0	0	0	0	0
25:10:00	90600	0	0	0	0	0	0	0	0
25:15:00	90900	0	0	0	0	0	0	0	0
25:20:00	91200	0	0	0	0	0	0	0	0
25:25:00	91500	0	0	0	0	0	0	0	0
25:30:00	91800	0	0	0	0	0	0	0	0
25:35:00	92100	0	0	0	0	0	0	0	0
25:40:00	92400	0	0	0	0	0	0	0	0
25:45:00	92700	0	0	0	0	0	0	0	0
25:50:00	93000	0	0	0	0	0	0	0	0
25:55:00	93300	0	0	0	0	0	0	0	0
26:00:00	93600	0	0	0	0	0	0	0	0
26:05:00	93900	0	0	0	0	0	0	0	0
26:10:00	94200	0	0	0	0	0	0	0	0
26:15:00	94500	0	0	0	0	0	0	0	0
26:20:00	94800	0	0	0	0	0	0	0	0
26:25:00	95100	0	0	0	0	0	0	0	0
26:30:00	95400	0	0	0	0	0	0	0	0
26:35:00	95700	0	0	0	0	0	0	0	0
26:40:00	96000	0	0	0	0	0	0	0	0
26:45:00	96300	0	0	0	0	0	0	0	0
26:50:00	96600	0	0	0	0	0	0	0	0
26:55:00	96900	0	0	0	0	0	0	0	0
27:00:00	97200	0	0	0	0	0	0	0	0
27:05:00	97500	0	0	0	0	0	0	0	0
27:10:00	97800	0	0	0	0	0	0	0	0
27:15:00	98100	0	0	0	0	0	0	0	0
27:20:00	98400	0	0	0	0	0	0	0	0
27:25:00	98700	0	0	0	0	0	0	0	0
27:30:00	99000	0	0	0	0	0	0	0	0
27:35:00	99300	0	0	0	0	0	0	0	0
27:40:00	99600	0	0	0	0	0	0	0	0
27:45:00	99900	0	0	0	0	0	0	0	0
27:50:00	100200	0	0	0	0	0	0	0	0
27:55:00	100500	0	0	0	0	0	0	0	0
28:00:00	100800	0	0	0	0	0	0	0	0
28:05:00	101100	0	0	0	0	0	0	0	0
28:10:00	101400	0	0	0	0	0	0	0	0
28:15:00	101700	0	0	0	0	0	0	0	0
28:20:00	102000	0	0	0	0	0	0	0	0
28:25:00	102300	0	0	0	0	0	0	0	0
28:30:00	102600	0	0	0	0	0	0	0	0
28:35:00	102900	0	0	0	0	0	0	0	0
28:40:00	103200	0	0	0	0	0	0	0	0
28:45:00	103500	0	0	0	0	0	0	0	0
28:50:00	103800	0	0	0	0	0	0	0	0
28:55:00	104100	0	0	0	0	0	0	0	0
29:00:00	104400	0	0	0	0	0	0	0	0
29:05:00	104700	0	0	0	0	0	0	0	0
29:10:00	105000	0	0	0	0	0	0	0	0
29:15:00	105300	0	0	0	0	0	0	0	0
29:20:00	105600	0	0	0	0	0	0	0	0
29:25:00	105900	0	0	0	0	0	0	0	0
29:30:00	106200	0	0	0	0	0	0	0	0
29:35:00	106500	0	0	0	0	0	0	0	0
29:40:00	106800	0	0	0	0	0	0	0	0
29:45:00	107100	0	0	0	0	0	0	0	0
29:50:00	107400	0	0	0	0	0	0	0	0
29:55:00	107700	0	0	0	0	0	0	0	0
30:00:00	108000	0	0	0	0	0	0	0	0
30:05:00	108300	0	0	0	0	0	0	0	0
