time	time	departures_all	arrivals_all	stuck_all	en-route_all	departures_car	arrivals_car	stuck_car	en-route_car
00:00:00	0	0	0	0	0	0	0	0	0
00:05:00	300	0	0	0	0	0	0	0	0
00:10:00	600	0	0	0	0	0	0	0	0
00:15:00	900	0	0	0	0	0	0	0	0
00:20:00	1200	0	0	0	0	0	0	0	0
00:25:00	1500	0	0	0	0	0	0	0	0
00:30:00	1800	0	0	0	0	0	0	0	0
00:35:00	2100	0	0	0	0	0	0	0	0
00:40:00	2400	0	0	0	0	0	0	0	0
00:45:00	2700	0	0	0	0	0	0	0	0
00:50:00	3000	0	0	0	0	0	0	0	0
00:55:00	3300	0	0	0	0	0	0	0	0
01:00:00	3600	0	0	0	0	0	0	0	0
01:05:00	3900	0	0	0	0	0	0	0	0
01:10:00	4200	0	0	0	0	0	0	0	0
01:15:00	4500	0	0	0	0	0	0	0	0
01:20:00	4800	0	0	0	0	0	0	0	0
01:25:00	5100	0	0	0	0	0	0	0	0
01:30:00	5400	0	0	0	0	0	0	0	0
01:35:00	5700	0	0	0	0	0	0	0	0
01:40:00	6000	0	0	0	0	0	0	0	0
01:45:00	6300	0	0	0	0	0	0	0	0
01:50:00	6600	0	0	0	0	0	0	0	0
01:55:00	6900	0	0	0	0	0	0	0	0
02:00:00	7200	0	0	0	0	0	0	0	0
02:05:00	7500	0	0	0	0	0	0	0	0
02:10:00	7800	0	0	0	0	0	0	0	0
02:15:00	8100	0	0	0	0	0	0	0	0
02:20:00	8400	0	0	0	0	0	0	0	0
02:25:00	8700	0	0	0	0	0	0	0	0
02:30:00	9000	0	0	0	0	0	0	0	0
02:35:00	9300	0	0	0	0	0	0	0	0
02:40:00	9600	0	0	0	0	0	0	0	0
02:45:00	9900	0	0	0	0	0	0	0	0
02:50:00	10200	0	0	0	0	0	0	0	0
02:55:00	10500	1	1	0	0	1	1	0	0
03:00:00	10800	1	0	0	1	1	0	0	1
03:05:00	11100	0	1	0	0	0	1	0	0
03:10:00	11400	0	0	0	0	0	0	0	0
03:15:00	11700	0	0	0	0	0	0	0	0
03:20:00	12000	0	0	0	0	0	0	0	0
03:25:00	12300	0	0	0	0	0	0	0	0
03:30:00	12600	0	0	0	0	0	0	0	0
03:35:00	12900	0	0	0	0	0	0	0	0
03:40:00	13200	1	1	0	0	1	1	0	0
03:45:00	13500	1	0	0	1	1	0	0	1
03:50:00	13800	0	1	0	0	0	1	0	0
03:55:00	14100	0	0	0	0	0	0	0	0
04:00:00	14400	1	0	0	1	1	0	0	1
04:05:00	14700	2	1	0	2	2	1	0	2
04:10:00	15000	3	2	0	3	3	2	0	3
04:15:00	15300	2	4	0	1	2	4	0	1
04:20:00	15600	4	2	0	3	4	2	0	3
04:25:00	15900	9	7	0	5	9	7	0	5
04:30:00	16200	7	10	0	2	7	10	0	2
04:35:00	16500	8	6	0	4	8	6	0	4
04:40:00	16800	11	9	0	6	11	9	0	6
04:45:00	17100	9	12	0	3	9	12	0	3
04:50:00	17400	6	5	0	4	6	5	0	4
04:55:00	17700	15	13	0	6	15	13	0	6
05:00:00	18000	12	11	0	7	12	11	0	7
05:05:00	18300	16	15	0	8	16	15	0	8
05:10:00	18600	24	19	0	13	24	19	0	13
05:15:00	18900	21	23	0	11	21	23	0	11
05:20:00	19200	24	26	0	9	24	26	0	9
05:25:00	19500	39	30	0	18	39	30	0	18
05:30:00	19800	35	37	0	16	35	37	0	16
05:35:00	20100	49	38	0	27	49	38	0	27
05:40:00	20400	48	49	0	26	48	49	0	26
05:45:00	20700	59	56	0	29	59	56	0	29
05:50:00	21000	82	68	0	43	82	68	0	43
05:55:00	21300	81	74	0	50	81	74	0	50
06:00:00	21600	75	84	0	41	75	84	0	41
06:05:00	21900	99	87	0	53	99	87	0	53
06:10:00	22200	95	97	0	51	95	97	0	51
06:15:00	22500	124	109	0	66	124	109	0	66
06:20:00	22800	146	126	0	86	146	126	0	86
06:25:00	23100	158	151	0	93	158	151	0	93
06:30:00	23400	163	161	0	95	163	161	0	95
06:35:00	23700	203	183	0	115	203	183	0	115
06:40:00	24000	237	226	0	126	237	226	0	126
06:45:00	24300	285	236	0	175	285	236	0	175
06:50:00	24600	315	312	0	178	315	312	0	178
06:55:00	24900	437	347	0	268	437	347	0	268
07:00:00	25200	448	426	0	290	448	426	0	290
07:05:00	25500	484	466	0	308	484	466	0	308
07:10:00	25800	478	455	0	331	478	455	0	331
07:15:00	26100	489	468	0	352	489	468	0	352
07:20:00	26400	507	502	0	357	507	502	0	357
07:25:00	26700	547	493	0	411	547	493	0	411
07:30:00	27000	557	534	0	434	557	534	0	434
07:35:00	27300	607	516	0	525	607	516	0	525
07:40:00	27600	618	544	0	599	618	544	0	599
07:45:00	27900	603	555	0	647	603	555	0	647
07:50:00	28200	657	556	0	748	657	556	0	748
07:55:00	28500	701	550	0	899	701	550	0	899
08:00:00	28800	757	636	0	1020	757	636	0	1020
08:05:00	29100	764	626	0	1158	764	626	0	1158
08:10:00	29400	773	646	0	1285	773	646	0	1285
08:15:00	29700	770	662	0	1393	770	662	0	1393
08:20:00	30000	831	613	0	1611	831	613	0	1611
08:25:00	30300	842	658	0	1795	842	658	0	1795
08:30:00	30600	872	657	0	2010	872	657	0	2010
08:35:00	30900	865	698	0	2177	865	698	0	2177
08:40:00	31200	885	737	0	2325	885	737	0	2325
08:45:00	31500	866	649	0	2542	866	649	0	2542
08:50:00	31800	882	685	0	2739	882	685	0	2739
08:55:00	32100	821	649	0	2911	821	649	0	2911
09:00:00	32400	909	647	0	3173	909	647	0	3173
09:05:00	32700	913	662	0	3424	913	662	0	3424
09:10:00	33000	855	677	0	3602	855	677	0	3602
09:15:00	33300	837	683	0	3756	837	683	0	3756
09:20:00	33600	821	649	0	3928	821	649	0	3928
09:25:00	33900	840	665	0	4103	840	665	0	4103
09:30:00	34200	788	640	0	4251	788	640	0	4251
09:35:00	34500	763	647	0	4367	763	647	0	4367
09:40:00	34800	788	619	0	4536	788	619	0	4536
09:45:00	35100	751	691	0	4596	751	691	0	4596
09:50:00	35400	697	643	0	4650	697	643	0	4650
09:55:00	35700	679	631	0	4698	679	631	0	4698
10:00:00	36000	632	623	0	4707	632	623	0	4707
10:05:00	36300	632	608	0	4731	632	608	0	4731
10:10:00	36600	593	584	0	4740	593	584	0	4740
10:15:00	36900	611	541	0	4810	611	541	0	4810
10:20:00	37200	539	547	0	4802	539	547	0	4802
10:25:00	37500	512	528	0	4786	512	528	0	4786
10:30:00	37800	480	522	0	4744	480	522	0	4744
10:35:00	38100	443	497	0	4690	443	497	0	4690
10:40:00	38400	410	495	0	4605	410	495	0	4605
10:45:00	38700	413	458	0	4560	413	458	0	4560
10:50:00	39000	396	522	0	4434	396	522	0	4434
10:55:00	39300	404	559	0	4279	404	559	0	4279
11:00:00	39600	329	565	0	4043	329	565	0	4043
11:05:00	39900	283	447	0	3879	283	447	0	3879
11:10:00	40200	242	364	0	3757	242	364	0	3757
11:15:00	40500	217	353	0	3621	217	353	0	3621
11:20:00	40800	200	355	0	3466	200	355	0	3466
11:25:00	41100	178	366	0	3278	178	366	0	3278
11:30:00	41400	163	309	0	3132	163	309	0	3132
11:35:00	41700	123	238	0	3017	123	238	0	3017
11:40:00	42000	127	237	0	2907	127	237	0	2907
11:45:00	42300	98	209	0	2796	98	209	0	2796
11:50:00	42600	91	197	0	2690	91	197	0	2690
11:55:00	42900	81	200	0	2571	81	200	0	2571
12:00:00	43200	74	188	0	2457	74	188	0	2457
12:05:00	43500	57	200	0	2314	57	200	0	2314
12:10:00	43800	74	198	0	2190	74	198	0	2190
12:15:00	44100	42	195	0	2037	42	195	0	2037
12:20:00	44400	68	165	0	1940	68	165	0	1940
12:25:00	44700	43	187	0	1796	43	187	0	1796
12:30:00	45000	34	163	0	1667	34	163	0	1667
12:35:00	45300	38	195	0	1510	38	195	0	1510
12:40:00	45600	34	130	0	1414	34	130	0	1414
12:45:00	45900	26	95	0	1345	26	95	0	1345
12:50:00	46200	32	515	0	862	32	515	0	862
12:55:00	46500	22	319	0	565	22	319	0	565
13:00:00	46800	27	53	0	539	27	53	0	539
13:05:00	47100	34	55	0	518	34	55	0	518
13:10:00	47400	35	59	0	494	35	59	0	494
13:15:00	47700	37	58	0	473	37	58	0	473
13:20:00	48000	45	57	0	461	45	57	0	461
13:25:00	48300	32	61	0	432	32	61	0	432
13:30:00	48600	38	67	0	403	38	67	0	403
13:35:00	48900	44	59	0	388	44	59	0	388
13:40:00	49200	44	70	0	362	44	70	0	362
13:45:00	49500	62	80	0	344	62	80	0	344
13:50:00	49800	79	93	0	330	79	93	0	330
13:55:00	50100	86	105	0	311	86	105	0	311
14:00:00	50400	87	116	0	282	87	116	0	282
14:05:00	50700	93	110	0	265	93	110	0	265
14:10:00	51000	110	127	0	248	110	127	0	248
14:15:00	51300	127	140	0	235	127	140	0	235
14:20:00	51600	139	153	0	221	139	153	0	221
14:25:00	51900	163	169	0	215	163	169	0	215
14:30:00	52200	192	185	0	222	192	185	0	222
14:35:00	52500	200	221	0	201	200	221	0	201
14:40:00	52800	217	232	0	186	217	232	0	186
14:45:00	53100	254	241	0	199	254	241	0	199
14:50:00	53400	266	267	0	198	266	267	0	198
14:55:00	53700	311	303	0	206	311	303	0	206
15:00:00	54000	337	324	0	219	337	324	0	219
15:05:00	54300	349	340	0	228	349	340	0	228
15:10:00	54600	394	361	0	261	394	361	0	261
15:15:00	54900	409	366	0	304	409	366	0	304
15:20:00	55200	484	410	0	378	484	410	0	378
15:25:00	55500	515	435	0	458	515	435	0	458
15:30:00	55800	547	471	0	534	547	471	0	534
15:35:00	56100	568	508	0	594	568	508	0	594
15:40:00	56400	641	479	0	756	641	479	0	756
15:45:00	56700	724	556	0	924	724	556	0	924
15:50:00	57000	693	557	0	1060	693	557	0	1060
15:55:00	57300	806	572	0	1294	806	572	0	1294
16:00:00	57600	772	625	0	1441	772	625	0	1441
16:05:00	57900	812	627	0	1626	812	627	0	1626
16:10:00	58200	824	572	0	1878	824	572	0	1878
16:15:00	58500	839	583	0	2134	839	583	0	2134
16:20:00	58800	815	604	0	2345	815	604	0	2345
16:25:00	59100	848	592	0	2601	848	592	0	2601
16:30:00	59400	858	594	0	2865	858	594	0	2865
16:35:00	59700	877	546	0	3196	877	546	0	3196
16:40:00	60000	871	554	0	3513	871	554	0	3513
16:45:00	60300	840	507	0	3846	840	507	0	3846
16:50:00	60600	911	560	0	4197	911	560	0	4197
16:55:00	60900	833	573	0	4457	833	573	0	4457
17:00:00	61200	823	599	0	4681	823	599	0	4681
17:05:00	61500	906	515	0	5072	906	515	0	5072
17:10:00	61800	808	540	0	5340	808	540	0	5340
17:15:00	62100	848	510	0	5678	848	510	0	5678
17:20:00	62400	800	521	0	5957	800	521	0	5957
17:25:00	62700	790	544	0	6203	790	544	0	6203
17:30:00	63000	800	531	0	6472	800	531	0	6472
17:35:00	63300	757	541	0	6688	757	541	0	6688
17:40:00	63600	744	468	0	6964	744	468	0	6964
17:45:00	63900	749	524	0	7189	749	524	0	7189
17:50:00	64200	705	535	0	7359	705	535	0	7359
17:55:00	64500	704	526	0	7537	704	526	0	7537
18:00:00	64800	669	501	0	7705	669	501	0	7705
18:05:00	65100	627	483	0	7849	627	483	0	7849
18:10:00	65400	597	498	0	7948	597	498	0	7948
18:15:00	65700	602	509	0	8041	602	509	0	8041
18:20:00	66000	558	524	0	8075	558	524	0	8075
18:25:00	66300	510	488	0	8097	510	488	0	8097
18:30:00	66600	478	444	0	8131	478	444	0	8131
18:35:00	66900	472	480	0	8123	472	480	0	8123
18:40:00	67200	444	496	0	8071	444	496	0	8071
18:45:00	67500	420	479	0	8012	420	479	0	8012
18:50:00	67800	434	451	0	7995	434	451	0	7995
18:55:00	68100	388	476	0	7907	388	476	0	7907
19:00:00	68400	370	456	0	7821	370	456	0	7821
19:05:00	68700	282	433	0	7670	282	433	0	7670
19:10:00	69000	287	448	0	7509	287	448	0	7509
19:15:00	69300	244	433	0	7320	244	433	0	7320
19:20:00	69600	214	455	0	7079	214	455	0	7079
19:25:00	69900	186	414	0	6851	186	414	0	6851
19:30:00	70200	177	373	0	6655	177	373	0	6655
19:35:00	70500	162	367	0	6450	162	367	0	6450
19:40:00	70800	141	348	0	6243	141	348	0	6243
19:45:00	71100	125	342	0	6026	125	342	0	6026
19:50:00	71400	98	345	0	5779	98	345	0	5779
19:55:00	71700	81	349	0	5511	81	349	0	5511
20:00:00	72000	89	345	0	5255	89	345	0	5255
20:05:00	72300	63	279	0	5039	63	279	0	5039
20:10:00	72600	61	291	0	4809	61	291	0	4809
20:15:00	72900	64	261	0	4612	64	261	0	4612
20:20:00	73200	55	258	0	4409	55	258	0	4409
20:25:00	73500	52	259	0	4202	52	259	0	4202
20:30:00	73800	30	273	0	3959	30	273	0	3959
20:35:00	74100	34	252	0	3741	34	252	0	3741
20:40:00	74400	24	284	0	3481	24	284	0	3481
20:45:00	74700	12	264	0	3229	12	264	0	3229
20:50:00	75000	20	249	0	3000	20	249	0	3000
20:55:00	75300	14	217	0	2797	14	217	0	2797
21:00:00	75600	13	179	0	2631	13	179	0	2631
21:05:00	75900	12	193	0	2450	12	193	0	2450
21:10:00	76200	8	199	0	2259	8	199	0	2259
21:15:00	76500	9	201	0	2067	9	201	0	2067
21:20:00	76800	14	176	0	1905	14	176	0	1905
21:25:00	77100	1	168	0	1738	1	168	0	1738
21:30:00	77400	2	160	0	1580	2	160	0	1580
21:35:00	77700	3	152	0	1431	3	152	0	1431
21:40:00	78000	2	143	0	1290	2	143	0	1290
21:45:00	78300	4	153	0	1141	4	153	0	1141
21:50:00	78600	2	125	0	1018	2	125	0	1018
21:55:00	78900	2	120	0	900	2	120	0	900
22:00:00	79200	0	104	0	796	0	104	0	796
22:05:00	79500	2	83	0	715	2	83	0	715
22:10:00	79800	1	68	0	648	1	68	0	648
22:15:00	80100	1	78	0	571	1	78	0	571
22:20:00	80400	0	72	0	499	0	72	0	499
22:25:00	80700	1	71	0	429	1	71	0	429
22:30:00	81000	0	75	0	354	0	75	0	354
22:35:00	81300	2	71	0	285	2	71	0	285
22:40:00	81600	0	78	0	207	0	78	0	207
22:45:00	81900	0	71	0	136	0	71	0	136
22:50:00	82200	0	62	0	74	0	62	0	74
22:55:00	82500	0	52	0	22	0	52	0	22
23:00:00	82800	0	22	0	0	0	22	0	0
23:05:00	83100	0	0	0	0	0	0	0	0
23:10:00	83400	0	0	0	0	0	0	0	0
23:15:00	83700	0	0	0	0	0	0	0	0
23:20:00	84000	0	0	0	0	0	0	0	0
23:25:00	84300	0	0	0	0	0	0	0	0
23:30:00	84600	0	0	0	0	0	0	0	0
23:35:00	84900	0	0	0	0	0	0	0	0
23:40:00	85200	0	0	0	0	0	0	0	0
23:45:00	85500	0	0	0	0	0	0	0	0
23:50:00	85800	0	0	0	0	0	0	0	0
23:55:00	86100	0	0	0	0	0	0	0	0
24:00:00	86400	0	0	0	0	0	0	0	0
24:05:00	86700	0	0	0	0	0	0	0	0
24:10:00	87000	0	0	0	0	0	0	0	0
24:15:00	87300	0	0	0	0	0	0	0	0
24:20:00	87600	0	0	0	0	0	0	0	0
24:25:00	87900	0	0	0	0	0	0	0	0
24:30:00	88200	0	0	0	0	0	0	0	0
24:35:00	88500	0	0	0	0	0	0	0	0
24:40:00	88800	0	0	0	0	0	0	0	0
24:45:00	89100	0	0	0	0	0	0	0	0
24:50:00	89400	0	0	0	0	0	0	0	0
24:55:00	89700	0	0	0	0	0	0	0	0
25:00:00	90000	0	0	0	0	0	0	0	0
25:05:00	90300	0	0	0	0	0	0	0	0
25:10:00	90600	0	0	0	0	0	0	0	0
25:15:00	90900	0	0	0	0	0	0	0	0
25:20:00	91200	0	0	0	0	0	0	0	0
25:25:00	91500	0	0	0	0	0	0	0	0
25:30:00	91800	0	0	0	0	0	0	0	0
25:35:00	92100	0	0	0	0	0	0	0	0
25:40:00	92400	0	0	0	0	0	0	0	0
25:45:00	92700	0	0	0	0	0	0	0	0
25:50:00	93000	0	0	0	0	0	0	0	0
25:55:00	93300	0	0	0	0	0	0	0	0
26:00:00	93600	0	0	0	0	0	0	0	0
26:05:00	93900	0	0	0	0	0	0	0	0
26:10:00	94200	0	0	0	0	0	0	0	0
26:15:00	94500	0	0	0	0	0	0	0	0
26:20:00	94800	0	0	0	0	0	0	0	0
26:25:00	95100	0	0	0	0	0	0	0	0
26:30:00	95400	0	0	0	0	0	0	0	0
26:35:00	95700	0	0	0	0	0	0	0	0
26:40:00	96000	0	0	0	0	0	0	0	0
26:45:00	96300	0	0	0	0	0	0	0	0
26:50:00	96600	0	0	0	0	0	0	0	0
26:55:00	96900	0	0	0	0	0	0	0	0
27:00:00	97200	0	0	0	0	0	0	0	0
27:05:00	97500	0	0	0	0	0	0	0	0
27:10:00	97800	0	0	0	0	0	0	0	0
27:15:00	98100	0	0	0	0	0	0	0	0
27:20:00	98400	0	0	0	0	0	0	0	0
27:25:00	98700	0	0	0	0	0	0	0	0
27:30:00	99000	0	0	0	0	0	0	0	0
27:35:00	99300	0	0	0	0	0	0	0	0
27:40:00	99600	0	0	0	0	0	0	0	0
27:45:00	99900	0	0	0	0	0	0	0	0
27:50:00	100200	0	0	0	0	0	0	0	0
27:55:00	100500	0	0	0	0	0	0	0	0
28:00:00	100800	0	0	0	0	0	0	0	0
28:05:00	101100	0	0	0	0	0	0	0	0
28:10:00	101400	0	0	0	0	0	0	0	0
28:15:00	101700	0	0	0	0	0	0	0	0
28:20:00	102000	0	0	0	0	0	0	0	0
28:25:00	102300	0	0	0	0	0	0	0	0
28:30:00	102600	0	0	0	0	0	0	0	0
28:35:00	102900	0	0	0	0	0	0	0	0
28:40:00	103200	0	0	0	0	0	0	0	0
28:45:00	103500	0	0	0	0	0	0	0	0
28:50:00	103800	0	0	0	0	0	0	0	0
28:55:00	104100	0	0	0	0	0	0	0	0
29:00:00	104400	0	0	0	0	0	0	0	0
29:05:00	104700	0	0	0	0	0	0	0	0
29:10:00	105000	0	0	0	0	0	0	0	0
29:15:00	105300	0	0	0	0	0	0	0	0
29:20:00	105600	0	0	0	0	0	0	0	0
29:25:00	105900	0	0	0	0	0	0	0	0
29:30:00	106200	0	0	0	0	0	0	0	0
29:35:00	106500	0	0	0	0	0	0	0	0
29:40:00	106800	0	0	0	0	0	0	0	0
29:45:00	107100	0	0	0	0	0	0	0	0
29:50:00	107400	0	0	0	0	0	0	0	0
29:55:00	107700	0	0	0	0	0	0	0	0
30:00:00	108000	0	0	0	0	0	0	0	0
30:05:00	108300	0	0	0	0	0	0	0	0
