pattern	0+	5+	10+	15+	20+	25+	30+	35+	40+	45+	50+	55+	60+
home---work	20011	6915	1581	843	733	505	312	421	573	237	165	141	5463
work---home	11221	4209	2166	1656	1543	1479	1140	902	956	900	796	801	10131

average leg duration: 2175.510356200528 seconds = 00:36:15
