pattern	0+	5+	10+	15+	20+	25+	30+	35+	40+	45+	50+	55+	60+
home---work	20185	6351	1341	1015	897	487	368	358	565	213	137	158	5825
work---home	11069	3804	1900	1653	1319	1267	1181	1106	960	943	872	830	10996

average leg duration: 2397.643060686016 seconds = 00:39:57
