time	time	departures_all	arrivals_all	stuck_all	en-route_all	departures_car	arrivals_car	stuck_car	en-route_car
00:00:00	0	0	0	0	0	0	0	0	0
00:05:00	300	0	0	0	0	0	0	0	0
00:10:00	600	0	0	0	0	0	0	0	0
00:15:00	900	0	0	0	0	0	0	0	0
00:20:00	1200	0	0	0	0	0	0	0	0
00:25:00	1500	0	0	0	0	0	0	0	0
00:30:00	1800	0	0	0	0	0	0	0	0
00:35:00	2100	0	0	0	0	0	0	0	0
00:40:00	2400	0	0	0	0	0	0	0	0
00:45:00	2700	0	0	0	0	0	0	0	0
00:50:00	3000	0	0	0	0	0	0	0	0
00:55:00	3300	0	0	0	0	0	0	0	0
01:00:00	3600	0	0	0	0	0	0	0	0
01:05:00	3900	0	0	0	0	0	0	0	0
01:10:00	4200	0	0	0	0	0	0	0	0
01:15:00	4500	0	0	0	0	0	0	0	0
01:20:00	4800	0	0	0	0	0	0	0	0
01:25:00	5100	0	0	0	0	0	0	0	0
01:30:00	5400	0	0	0	0	0	0	0	0
01:35:00	5700	0	0	0	0	0	0	0	0
01:40:00	6000	0	0	0	0	0	0	0	0
01:45:00	6300	0	0	0	0	0	0	0	0
01:50:00	6600	0	0	0	0	0	0	0	0
01:55:00	6900	0	0	0	0	0	0	0	0
02:00:00	7200	0	0	0	0	0	0	0	0
02:05:00	7500	0	0	0	0	0	0	0	0
02:10:00	7800	0	0	0	0	0	0	0	0
02:15:00	8100	0	0	0	0	0	0	0	0
02:20:00	8400	0	0	0	0	0	0	0	0
02:25:00	8700	0	0	0	0	0	0	0	0
02:30:00	9000	0	0	0	0	0	0	0	0
02:35:00	9300	0	0	0	0	0	0	0	0
02:40:00	9600	0	0	0	0	0	0	0	0
02:45:00	9900	0	0	0	0	0	0	0	0
02:50:00	10200	1	1	0	0	1	1	0	0
02:55:00	10500	1	0	0	1	1	0	0	1
03:00:00	10800	0	1	0	0	0	1	0	0
03:05:00	11100	0	0	0	0	0	0	0	0
03:10:00	11400	0	0	0	0	0	0	0	0
03:15:00	11700	0	0	0	0	0	0	0	0
03:20:00	12000	0	0	0	0	0	0	0	0
03:25:00	12300	0	0	0	0	0	0	0	0
03:30:00	12600	0	0	0	0	0	0	0	0
03:35:00	12900	0	0	0	0	0	0	0	0
03:40:00	13200	0	0	0	0	0	0	0	0
03:45:00	13500	3	2	0	1	3	2	0	1
03:50:00	13800	0	1	0	0	0	1	0	0
03:55:00	14100	0	0	0	0	0	0	0	0
04:00:00	14400	1	0	0	1	1	0	0	1
04:05:00	14700	2	3	0	0	2	3	0	0
04:10:00	15000	3	1	0	2	3	1	0	2
04:15:00	15300	2	3	0	1	2	3	0	1
04:20:00	15600	1	1	0	1	1	1	0	1
04:25:00	15900	5	4	0	2	5	4	0	2
04:30:00	16200	11	9	0	4	11	9	0	4
04:35:00	16500	7	7	0	4	7	7	0	4
04:40:00	16800	9	12	0	1	9	12	0	1
04:45:00	17100	13	7	0	7	13	7	0	7
04:50:00	17400	7	10	0	4	7	10	0	4
04:55:00	17700	11	8	0	7	11	8	0	7
05:00:00	18000	16	13	0	10	16	13	0	10
05:05:00	18300	23	23	0	10	23	23	0	10
05:10:00	18600	35	21	0	24	35	21	0	24
05:15:00	18900	23	29	0	18	23	29	0	18
05:20:00	19200	29	27	0	20	29	27	0	20
05:25:00	19500	33	33	0	20	33	33	0	20
05:30:00	19800	48	44	0	24	48	44	0	24
05:35:00	20100	42	49	0	17	42	49	0	17
05:40:00	20400	60	46	0	31	60	46	0	31
05:45:00	20700	77	63	0	45	77	63	0	45
05:50:00	21000	80	90	0	35	80	90	0	35
05:55:00	21300	76	69	0	42	76	69	0	42
06:00:00	21600	91	84	0	49	91	84	0	49
06:05:00	21900	114	96	0	67	114	96	0	67
06:10:00	22200	117	114	0	70	117	114	0	70
06:15:00	22500	142	147	0	65	142	147	0	65
06:20:00	22800	149	129	0	85	149	129	0	85
06:25:00	23100	162	153	0	94	162	153	0	94
06:30:00	23400	151	156	0	89	151	156	0	89
06:35:00	23700	219	187	0	121	219	187	0	121
06:40:00	24000	225	224	0	122	225	224	0	122
06:45:00	24300	280	237	0	165	280	237	0	165
06:50:00	24600	308	293	0	180	308	293	0	180
06:55:00	24900	376	344	0	212	376	344	0	212
07:00:00	25200	402	379	0	235	402	379	0	235
07:05:00	25500	442	393	0	284	442	393	0	284
07:10:00	25800	442	427	0	299	442	427	0	299
07:15:00	26100	419	441	0	277	419	441	0	277
07:20:00	26400	456	448	0	285	456	448	0	285
07:25:00	26700	522	455	0	352	522	455	0	352
07:30:00	27000	544	508	0	388	544	508	0	388
07:35:00	27300	558	509	0	437	558	509	0	437
07:40:00	27600	660	526	0	571	660	526	0	571
07:45:00	27900	589	570	0	590	589	570	0	590
07:50:00	28200	653	552	0	691	653	552	0	691
07:55:00	28500	742	602	0	831	742	602	0	831
08:00:00	28800	661	610	0	882	661	610	0	882
08:05:00	29100	709	572	0	1019	709	572	0	1019
08:10:00	29400	763	605	0	1177	763	605	0	1177
08:15:00	29700	774	624	0	1327	774	624	0	1327
08:20:00	30000	831	608	0	1550	831	608	0	1550
08:25:00	30300	814	665	0	1699	814	665	0	1699
08:30:00	30600	852	633	0	1918	852	633	0	1918
08:35:00	30900	866	693	0	2091	866	693	0	2091
08:40:00	31200	918	658	0	2351	918	658	0	2351
08:45:00	31500	877	706	0	2522	877	706	0	2522
08:50:00	31800	897	631	0	2788	897	631	0	2788
08:55:00	32100	864	632	0	3020	864	632	0	3020
09:00:00	32400	881	678	0	3223	881	678	0	3223
09:05:00	32700	826	674	0	3375	826	674	0	3375
09:10:00	33000	893	660	0	3608	893	660	0	3608
09:15:00	33300	839	656	0	3791	839	656	0	3791
09:20:00	33600	870	708	0	3953	870	708	0	3953
09:25:00	33900	839	654	0	4138	839	654	0	4138
09:30:00	34200	824	650	0	4312	824	650	0	4312
09:35:00	34500	788	628	0	4472	788	628	0	4472
09:40:00	34800	746	670	0	4548	746	670	0	4548
09:45:00	35100	785	656	0	4677	785	656	0	4677
09:50:00	35400	722	664	0	4735	722	664	0	4735
09:55:00	35700	652	627	0	4760	652	627	0	4760
10:00:00	36000	670	664	0	4766	670	664	0	4766
10:05:00	36300	628	587	0	4807	628	587	0	4807
10:10:00	36600	628	600	0	4835	628	600	0	4835
10:15:00	36900	598	533	0	4900	598	533	0	4900
10:20:00	37200	603	528	0	4975	603	528	0	4975
10:25:00	37500	528	545	0	4958	528	545	0	4958
10:30:00	37800	494	505	0	4947	494	505	0	4947
10:35:00	38100	442	502	0	4887	442	502	0	4887
10:40:00	38400	466	494	0	4859	466	494	0	4859
10:45:00	38700	418	515	0	4762	418	515	0	4762
10:50:00	39000	383	449	0	4696	383	449	0	4696
10:55:00	39300	382	499	0	4579	382	499	0	4579
11:00:00	39600	299	521	0	4357	299	521	0	4357
11:05:00	39900	293	411	0	4239	293	411	0	4239
11:10:00	40200	247	408	0	4078	247	408	0	4078
11:15:00	40500	222	378	0	3922	222	378	0	3922
11:20:00	40800	201	350	0	3773	201	350	0	3773
11:25:00	41100	206	324	0	3655	206	324	0	3655
11:30:00	41400	176	344	0	3487	176	344	0	3487
11:35:00	41700	139	326	0	3300	139	326	0	3300
11:40:00	42000	142	261	0	3181	142	261	0	3181
11:45:00	42300	91	213	0	3059	91	213	0	3059
11:50:00	42600	115	203	0	2971	115	203	0	2971
11:55:00	42900	88	238	0	2821	88	238	0	2821
12:00:00	43200	73	210	0	2684	73	210	0	2684
12:05:00	43500	57	203	0	2538	57	203	0	2538
12:10:00	43800	82	200	0	2420	82	200	0	2420
12:15:00	44100	55	190	0	2285	55	190	0	2285
12:20:00	44400	61	190	0	2156	61	190	0	2156
12:25:00	44700	34	171	0	2019	34	171	0	2019
12:30:00	45000	33	175	0	1877	33	175	0	1877
12:35:00	45300	50	183	0	1744	50	183	0	1744
12:40:00	45600	27	148	0	1623	27	148	0	1623
12:45:00	45900	33	105	0	1551	33	105	0	1551
12:50:00	46200	32	99	0	1484	32	99	0	1484
12:55:00	46500	39	159	0	1364	39	159	0	1364
13:00:00	46800	41	232	0	1173	41	232	0	1173
13:05:00	47100	43	210	0	1006	43	210	0	1006
13:10:00	47400	27	263	0	770	27	263	0	770
13:15:00	47700	28	282	0	516	28	282	0	516
13:20:00	48000	38	96	0	458	38	96	0	458
13:25:00	48300	45	69	0	434	45	69	0	434
13:30:00	48600	44	63	0	415	44	63	0	415
13:35:00	48900	41	65	0	391	41	65	0	391
13:40:00	49200	65	83	0	373	65	83	0	373
13:45:00	49500	64	85	0	352	64	85	0	352
13:50:00	49800	72	91	0	333	72	91	0	333
13:55:00	50100	91	109	0	315	91	109	0	315
14:00:00	50400	95	105	0	305	95	105	0	305
14:05:00	50700	109	133	0	281	109	133	0	281
14:10:00	51000	126	137	0	270	126	137	0	270
14:15:00	51300	145	168	0	247	145	168	0	247
14:20:00	51600	151	149	0	249	151	149	0	249
14:25:00	51900	181	181	0	249	181	181	0	249
14:30:00	52200	200	222	0	227	200	222	0	227
14:35:00	52500	200	211	0	216	200	211	0	216
14:40:00	52800	210	224	0	202	210	224	0	202
14:45:00	53100	253	240	0	215	253	240	0	215
14:50:00	53400	281	274	0	222	281	274	0	222
14:55:00	53700	318	304	0	236	318	304	0	236
15:00:00	54000	323	334	0	225	323	334	0	225
15:05:00	54300	387	355	0	257	387	355	0	257
15:10:00	54600	399	398	0	258	399	398	0	258
15:15:00	54900	441	408	0	291	441	408	0	291
15:20:00	55200	459	420	0	330	459	420	0	330
15:25:00	55500	487	431	0	386	487	431	0	386
15:30:00	55800	524	448	0	462	524	448	0	462
15:35:00	56100	545	501	0	506	545	501	0	506
15:40:00	56400	558	490	0	574	558	490	0	574
15:45:00	56700	670	535	0	709	670	535	0	709
15:50:00	57000	641	577	0	773	641	577	0	773
15:55:00	57300	681	544	0	910	681	544	0	910
16:00:00	57600	696	561	0	1045	696	561	0	1045
16:05:00	57900	749	570	0	1224	749	570	0	1224
16:10:00	58200	762	574	0	1412	762	574	0	1412
16:15:00	58500	860	561	0	1711	860	561	0	1711
16:20:00	58800	824	614	0	1921	824	614	0	1921
16:25:00	59100	885	589	0	2217	885	589	0	2217
16:30:00	59400	879	559	0	2537	879	559	0	2537
16:35:00	59700	845	572	0	2810	845	572	0	2810
16:40:00	60000	867	468	0	3209	867	468	0	3209
16:45:00	60300	881	569	0	3521	881	569	0	3521
16:50:00	60600	924	529	0	3916	924	529	0	3916
16:55:00	60900	913	533	0	4296	913	533	0	4296
17:00:00	61200	867	524	0	4639	867	524	0	4639
17:05:00	61500	899	528	0	5010	899	528	0	5010
17:10:00	61800	869	488	0	5391	869	488	0	5391
17:15:00	62100	861	521	0	5731	861	521	0	5731
17:20:00	62400	825	497	0	6059	825	497	0	6059
17:25:00	62700	831	499	0	6391	831	499	0	6391
17:30:00	63000	859	497	0	6753	859	497	0	6753
17:35:00	63300	767	517	0	7003	767	517	0	7003
17:40:00	63600	759	490	0	7272	759	490	0	7272
17:45:00	63900	768	496	0	7544	768	496	0	7544
17:50:00	64200	703	501	0	7746	703	501	0	7746
17:55:00	64500	655	529	0	7872	655	529	0	7872
18:00:00	64800	691	496	0	8067	691	496	0	8067
18:05:00	65100	673	477	0	8263	673	477	0	8263
18:10:00	65400	642	483	0	8422	642	483	0	8422
18:15:00	65700	606	482	0	8546	606	482	0	8546
18:20:00	66000	585	486	0	8645	585	486	0	8645
18:25:00	66300	517	476	0	8686	517	476	0	8686
18:30:00	66600	478	471	0	8693	478	471	0	8693
18:35:00	66900	431	477	0	8647	431	477	0	8647
18:40:00	67200	405	429	0	8623	405	429	0	8623
18:45:00	67500	400	415	0	8608	400	415	0	8608
18:50:00	67800	378	390	0	8596	378	390	0	8596
18:55:00	68100	358	436	0	8518	358	436	0	8518
19:00:00	68400	349	417	0	8450	349	417	0	8450
19:05:00	68700	299	419	0	8330	299	419	0	8330
19:10:00	69000	272	406	0	8196	272	406	0	8196
19:15:00	69300	237	428	0	8005	237	428	0	8005
19:20:00	69600	213	437	0	7781	213	437	0	7781
19:25:00	69900	203	389	0	7595	203	389	0	7595
19:30:00	70200	200	359	0	7436	200	359	0	7436
19:35:00	70500	170	396	0	7210	170	396	0	7210
19:40:00	70800	132	433	0	6909	132	433	0	6909
19:45:00	71100	114	410	0	6613	114	410	0	6613
19:50:00	71400	97	373	0	6337	97	373	0	6337
19:55:00	71700	99	383	0	6053	99	383	0	6053
20:00:00	72000	88	305	0	5836	88	305	0	5836
20:05:00	72300	64	346	0	5554	64	346	0	5554
20:10:00	72600	64	303	0	5315	64	303	0	5315
20:15:00	72900	65	297	0	5083	65	297	0	5083
20:20:00	73200	54	282	0	4855	54	282	0	4855
20:25:00	73500	50	284	0	4621	50	284	0	4621
20:30:00	73800	36	292	0	4365	36	292	0	4365
20:35:00	74100	35	273	0	4127	35	273	0	4127
20:40:00	74400	25	304	0	3848	25	304	0	3848
20:45:00	74700	17	318	0	3547	17	318	0	3547
20:50:00	75000	27	278	0	3296	27	278	0	3296
20:55:00	75300	12	277	0	3031	12	277	0	3031
21:00:00	75600	12	238	0	2805	12	238	0	2805
21:05:00	75900	11	232	0	2584	11	232	0	2584
21:10:00	76200	9	240	0	2353	9	240	0	2353
21:15:00	76500	7	253	0	2107	7	253	0	2107
21:20:00	76800	6	223	0	1890	6	223	0	1890
21:25:00	77100	9	213	0	1686	9	213	0	1686
21:30:00	77400	2	171	0	1517	2	171	0	1517
21:35:00	77700	2	140	0	1379	2	140	0	1379
21:40:00	78000	4	122	0	1261	4	122	0	1261
21:45:00	78300	2	91	0	1172	2	91	0	1172
21:50:00	78600	1	86	0	1087	1	86	0	1087
21:55:00	78900	3	73	0	1017	3	73	0	1017
22:00:00	79200	2	78	0	941	2	78	0	941
22:05:00	79500	2	78	0	865	2	78	0	865
22:10:00	79800	1	73	0	793	1	73	0	793
22:15:00	80100	0	68	0	725	0	68	0	725
22:20:00	80400	1	78	0	648	1	78	0	648
22:25:00	80700	1	73	0	576	1	73	0	576
22:30:00	81000	0	72	0	504	0	72	0	504
22:35:00	81300	0	76	0	428	0	76	0	428
22:40:00	81600	0	73	0	355	0	73	0	355
22:45:00	81900	0	76	0	279	0	76	0	279
22:50:00	82200	0	56	0	223	0	56	0	223
22:55:00	82500	0	49	0	174	0	49	0	174
23:00:00	82800	0	52	0	122	0	52	0	122
23:05:00	83100	0	50	0	72	0	50	0	72
23:10:00	83400	0	50	0	22	0	50	0	22
23:15:00	83700	0	22	0	0	0	22	0	0
23:20:00	84000	0	0	0	0	0	0	0	0
23:25:00	84300	0	0	0	0	0	0	0	0
23:30:00	84600	0	0	0	0	0	0	0	0
23:35:00	84900	0	0	0	0	0	0	0	0
23:40:00	85200	0	0	0	0	0	0	0	0
23:45:00	85500	0	0	0	0	0	0	0	0
23:50:00	85800	0	0	0	0	0	0	0	0
23:55:00	86100	0	0	0	0	0	0	0	0
24:00:00	86400	0	0	0	0	0	0	0	0
24:05:00	86700	0	0	0	0	0	0	0	0
24:10:00	87000	0	0	0	0	0	0	0	0
24:15:00	87300	0	0	0	0	0	0	0	0
24:20:00	87600	0	0	0	0	0	0	0	0
24:25:00	87900	0	0	0	0	0	0	0	0
24:30:00	88200	0	0	0	0	0	0	0	0
24:35:00	88500	0	0	0	0	0	0	0	0
24:40:00	88800	0	0	0	0	0	0	0	0
24:45:00	89100	0	0	0	0	0	0	0	0
24:50:00	89400	0	0	0	0	0	0	0	0
24:55:00	89700	0	0	0	0	0	0	0	0
25:00:00	90000	0	0	0	0	0	0	0	0
25:05:00	90300	0	0	0	0	0	0	0	0
25:10:00	90600	0	0	0	0	0	0	0	0
25:15:00	90900	0	0	0	0	0	0	0	0
25:20:00	91200	0	0	0	0	0	0	0	0
25:25:00	91500	0	0	0	0	0	0	0	0
25:30:00	91800	0	0	0	0	0	0	0	0
25:35:00	92100	0	0	0	0	0	0	0	0
25:40:00	92400	0	0	0	0	0	0	0	0
25:45:00	92700	0	0	0	0	0	0	0	0
25:50:00	93000	0	0	0	0	0	0	0	0
25:55:00	93300	0	0	0	0	0	0	0	0
26:00:00	93600	0	0	0	0	0	0	0	0
26:05:00	93900	0	0	0	0	0	0	0	0
26:10:00	94200	0	0	0	0	0	0	0	0
26:15:00	94500	0	0	0	0	0	0	0	0
26:20:00	94800	0	0	0	0	0	0	0	0
26:25:00	95100	0	0	0	0	0	0	0	0
26:30:00	95400	0	0	0	0	0	0	0	0
26:35:00	95700	0	0	0	0	0	0	0	0
26:40:00	96000	0	0	0	0	0	0	0	0
26:45:00	96300	0	0	0	0	0	0	0	0
26:50:00	96600	0	0	0	0	0	0	0	0
26:55:00	96900	0	0	0	0	0	0	0	0
27:00:00	97200	0	0	0	0	0	0	0	0
27:05:00	97500	0	0	0	0	0	0	0	0
27:10:00	97800	0	0	0	0	0	0	0	0
27:15:00	98100	0	0	0	0	0	0	0	0
27:20:00	98400	0	0	0	0	0	0	0	0
27:25:00	98700	0	0	0	0	0	0	0	0
27:30:00	99000	0	0	0	0	0	0	0	0
27:35:00	99300	0	0	0	0	0	0	0	0
27:40:00	99600	0	0	0	0	0	0	0	0
27:45:00	99900	0	0	0	0	0	0	0	0
27:50:00	100200	0	0	0	0	0	0	0	0
27:55:00	100500	0	0	0	0	0	0	0	0
28:00:00	100800	0	0	0	0	0	0	0	0
28:05:00	101100	0	0	0	0	0	0	0	0
28:10:00	101400	0	0	0	0	0	0	0	0
28:15:00	101700	0	0	0	0	0	0	0	0
28:20:00	102000	0	0	0	0	0	0	0	0
28:25:00	102300	0	0	0	0	0	0	0	0
28:30:00	102600	0	0	0	0	0	0	0	0
28:35:00	102900	0	0	0	0	0	0	0	0
28:40:00	103200	0	0	0	0	0	0	0	0
28:45:00	103500	0	0	0	0	0	0	0	0
28:50:00	103800	0	0	0	0	0	0	0	0
28:55:00	104100	0	0	0	0	0	0	0	0
29:00:00	104400	0	0	0	0	0	0	0	0
29:05:00	104700	0	0	0	0	0	0	0	0
29:10:00	105000	0	0	0	0	0	0	0	0
29:15:00	105300	0	0	0	0	0	0	0	0
29:20:00	105600	0	0	0	0	0	0	0	0
29:25:00	105900	0	0	0	0	0	0	0	0
29:30:00	106200	0	0	0	0	0	0	0	0
29:35:00	106500	0	0	0	0	0	0	0	0
29:40:00	106800	0	0	0	0	0	0	0	0
29:45:00	107100	0	0	0	0	0	0	0	0
29:50:00	107400	0	0	0	0	0	0	0	0
29:55:00	107700	0	0	0	0	0	0	0	0
30:00:00	108000	0	0	0	0	0	0	0	0
30:05:00	108300	0	0	0	0	0	0	0	0
