pattern	0+	5+	10+	15+	20+	25+	30+	35+	40+	45+	50+	55+	60+
home---work	19136	5797	1854	1153	742	548	479	556	625	385	206	179	6240
work---home	11471	4105	2035	1380	1157	963	897	882	906	884	832	787	11601

average leg duration: 2590.347757255937 seconds = 00:43:10
