time	time	departures_all	arrivals_all	stuck_all	en-route_all	departures_car	arrivals_car	stuck_car	en-route_car
00:00:00	0	0	0	0	0	0	0	0	0
00:05:00	300	0	0	0	0	0	0	0	0
00:10:00	600	0	0	0	0	0	0	0	0
00:15:00	900	0	0	0	0	0	0	0	0
00:20:00	1200	0	0	0	0	0	0	0	0
00:25:00	1500	0	0	0	0	0	0	0	0
00:30:00	1800	0	0	0	0	0	0	0	0
00:35:00	2100	0	0	0	0	0	0	0	0
00:40:00	2400	0	0	0	0	0	0	0	0
00:45:00	2700	0	0	0	0	0	0	0	0
00:50:00	3000	0	0	0	0	0	0	0	0
00:55:00	3300	0	0	0	0	0	0	0	0
01:00:00	3600	0	0	0	0	0	0	0	0
01:05:00	3900	0	0	0	0	0	0	0	0
01:10:00	4200	0	0	0	0	0	0	0	0
01:15:00	4500	0	0	0	0	0	0	0	0
01:20:00	4800	0	0	0	0	0	0	0	0
01:25:00	5100	0	0	0	0	0	0	0	0
01:30:00	5400	0	0	0	0	0	0	0	0
01:35:00	5700	0	0	0	0	0	0	0	0
01:40:00	6000	0	0	0	0	0	0	0	0
01:45:00	6300	0	0	0	0	0	0	0	0
01:50:00	6600	0	0	0	0	0	0	0	0
01:55:00	6900	0	0	0	0	0	0	0	0
02:00:00	7200	0	0	0	0	0	0	0	0
02:05:00	7500	0	0	0	0	0	0	0	0
02:10:00	7800	0	0	0	0	0	0	0	0
02:15:00	8100	0	0	0	0	0	0	0	0
02:20:00	8400	0	0	0	0	0	0	0	0
02:25:00	8700	0	0	0	0	0	0	0	0
02:30:00	9000	0	0	0	0	0	0	0	0
02:35:00	9300	0	0	0	0	0	0	0	0
02:40:00	9600	0	0	0	0	0	0	0	0
02:45:00	9900	0	0	0	0	0	0	0	0
02:50:00	10200	0	0	0	0	0	0	0	0
02:55:00	10500	1	0	0	1	1	0	0	1
03:00:00	10800	1	1	0	1	1	1	0	1
03:05:00	11100	0	1	0	0	0	1	0	0
03:10:00	11400	0	0	0	0	0	0	0	0
03:15:00	11700	0	0	0	0	0	0	0	0
03:20:00	12000	0	0	0	0	0	0	0	0
03:25:00	12300	0	0	0	0	0	0	0	0
03:30:00	12600	0	0	0	0	0	0	0	0
03:35:00	12900	0	0	0	0	0	0	0	0
03:40:00	13200	1	0	0	1	1	0	0	1
03:45:00	13500	3	2	0	2	3	2	0	2
03:50:00	13800	2	4	0	0	2	4	0	0
03:55:00	14100	0	0	0	0	0	0	0	0
04:00:00	14400	0	0	0	0	0	0	0	0
04:05:00	14700	1	1	0	0	1	1	0	0
04:10:00	15000	1	0	0	1	1	0	0	1
04:15:00	15300	4	1	0	4	4	1	0	4
04:20:00	15600	5	6	0	3	5	6	0	3
04:25:00	15900	4	4	0	3	4	4	0	3
04:30:00	16200	6	8	0	1	6	8	0	1
04:35:00	16500	10	8	0	3	10	8	0	3
04:40:00	16800	7	6	0	4	7	6	0	4
04:45:00	17100	12	9	0	7	12	9	0	7
04:50:00	17400	4	10	0	1	4	10	0	1
04:55:00	17700	18	10	0	9	18	10	0	9
05:00:00	18000	25	21	0	13	25	21	0	13
05:05:00	18300	18	24	0	7	18	24	0	7
05:10:00	18600	26	20	0	13	26	20	0	13
05:15:00	18900	25	22	0	16	25	22	0	16
05:20:00	19200	27	31	0	12	27	31	0	12
05:25:00	19500	25	27	0	10	25	27	0	10
05:30:00	19800	37	29	0	18	37	29	0	18
05:35:00	20100	46	41	0	23	46	41	0	23
05:40:00	20400	54	51	0	26	54	51	0	26
05:45:00	20700	54	51	0	29	54	51	0	29
05:50:00	21000	69	65	0	33	69	65	0	33
05:55:00	21300	95	72	0	56	95	72	0	56
06:00:00	21600	84	95	0	45	84	95	0	45
06:05:00	21900	105	97	0	53	105	97	0	53
06:10:00	22200	105	106	0	52	105	106	0	52
06:15:00	22500	134	116	0	70	134	116	0	70
06:20:00	22800	151	136	0	85	151	136	0	85
06:25:00	23100	144	145	0	84	144	145	0	84
06:30:00	23400	157	148	0	93	157	148	0	93
06:35:00	23700	208	185	0	116	208	185	0	116
06:40:00	24000	243	218	0	141	243	218	0	141
06:45:00	24300	279	259	0	161	279	259	0	161
06:50:00	24600	329	295	0	195	329	295	0	195
06:55:00	24900	412	359	0	248	412	359	0	248
07:00:00	25200	389	389	0	248	389	389	0	248
07:05:00	25500	445	434	0	259	445	434	0	259
07:10:00	25800	457	431	0	285	457	431	0	285
07:15:00	26100	488	470	0	303	488	470	0	303
07:20:00	26400	498	475	0	326	498	475	0	326
07:25:00	26700	553	471	0	408	553	471	0	408
07:30:00	27000	579	532	0	455	579	532	0	455
07:35:00	27300	581	531	0	505	581	531	0	505
07:40:00	27600	612	555	0	562	612	555	0	562
07:45:00	27900	603	557	0	608	603	557	0	608
07:50:00	28200	658	551	0	715	658	551	0	715
07:55:00	28500	695	543	0	867	695	543	0	867
08:00:00	28800	704	615	0	956	704	615	0	956
08:05:00	29100	766	584	0	1138	766	584	0	1138
08:10:00	29400	772	672	0	1238	772	672	0	1238
08:15:00	29700	756	611	0	1383	756	611	0	1383
08:20:00	30000	844	640	0	1587	844	640	0	1587
08:25:00	30300	862	659	0	1790	862	659	0	1790
08:30:00	30600	874	663	0	2001	874	663	0	2001
08:35:00	30900	872	680	0	2193	872	680	0	2193
08:40:00	31200	898	660	0	2431	898	660	0	2431
08:45:00	31500	862	679	0	2614	862	679	0	2614
08:50:00	31800	850	661	0	2803	850	661	0	2803
08:55:00	32100	820	647	0	2976	820	647	0	2976
09:00:00	32400	922	663	0	3235	922	663	0	3235
09:05:00	32700	888	625	0	3498	888	625	0	3498
09:10:00	33000	838	700	0	3636	838	700	0	3636
09:15:00	33300	860	672	0	3824	860	672	0	3824
09:20:00	33600	848	647	0	4025	848	647	0	4025
09:25:00	33900	816	645	0	4196	816	645	0	4196
09:30:00	34200	821	639	0	4378	821	639	0	4378
09:35:00	34500	802	635	0	4545	802	635	0	4545
09:40:00	34800	792	672	0	4665	792	672	0	4665
09:45:00	35100	762	661	0	4766	762	661	0	4766
09:50:00	35400	736	644	0	4858	736	644	0	4858
09:55:00	35700	637	608	0	4887	637	608	0	4887
10:00:00	36000	652	564	0	4975	652	564	0	4975
10:05:00	36300	648	561	0	5062	648	561	0	5062
10:10:00	36600	609	579	0	5092	609	579	0	5092
10:15:00	36900	598	587	0	5103	598	587	0	5103
10:20:00	37200	545	524	0	5124	545	524	0	5124
10:25:00	37500	519	528	0	5115	519	528	0	5115
10:30:00	37800	479	526	0	5068	479	526	0	5068
10:35:00	38100	416	506	0	4978	416	506	0	4978
10:40:00	38400	439	481	0	4936	439	481	0	4936
10:45:00	38700	409	512	0	4833	409	512	0	4833
10:50:00	39000	409	448	0	4794	409	448	0	4794
10:55:00	39300	398	461	0	4731	398	461	0	4731
11:00:00	39600	325	484	0	4572	325	484	0	4572
11:05:00	39900	258	423	0	4407	258	423	0	4407
11:10:00	40200	250	462	0	4195	250	462	0	4195
11:15:00	40500	227	451	0	3971	227	451	0	3971
11:20:00	40800	195	440	0	3726	195	440	0	3726
11:25:00	41100	169	383	0	3512	169	383	0	3512
11:30:00	41400	167	339	0	3340	167	339	0	3340
11:35:00	41700	135	320	0	3155	135	320	0	3155
11:40:00	42000	130	242	0	3043	130	242	0	3043
11:45:00	42300	101	198	0	2946	101	198	0	2946
11:50:00	42600	114	212	0	2848	114	212	0	2848
11:55:00	42900	72	204	0	2716	72	204	0	2716
12:00:00	43200	71	188	0	2599	71	188	0	2599
12:05:00	43500	55	189	0	2465	55	189	0	2465
12:10:00	43800	72	189	0	2348	72	189	0	2348
12:15:00	44100	53	201	0	2200	53	201	0	2200
12:20:00	44400	62	193	0	2069	62	193	0	2069
12:25:00	44700	39	171	0	1937	39	171	0	1937
12:30:00	45000	38	187	0	1788	38	187	0	1788
12:35:00	45300	42	188	0	1642	42	188	0	1642
12:40:00	45600	28	100	0	1570	28	100	0	1570
12:45:00	45900	33	99	0	1504	33	99	0	1504
12:50:00	46200	28	101	0	1431	28	101	0	1431
12:55:00	46500	30	91	0	1370	30	91	0	1370
13:00:00	46800	40	247	0	1163	40	247	0	1163
13:05:00	47100	28	284	0	907	28	284	0	907
13:10:00	47400	31	430	0	508	31	430	0	508
13:15:00	47700	41	66	0	483	41	66	0	483
13:20:00	48000	43	66	0	460	43	66	0	460
13:25:00	48300	38	64	0	434	38	64	0	434
13:30:00	48600	39	59	0	414	39	59	0	414
13:35:00	48900	44	65	0	393	44	65	0	393
13:40:00	49200	53	81	0	365	53	81	0	365
13:45:00	49500	65	80	0	350	65	80	0	350
13:50:00	49800	90	95	0	345	90	95	0	345
13:55:00	50100	76	122	0	299	76	122	0	299
14:00:00	50400	97	102	0	294	97	102	0	294
14:05:00	50700	104	119	0	279	104	119	0	279
14:10:00	51000	110	140	0	249	110	140	0	249
14:15:00	51300	136	140	0	245	136	140	0	245
14:20:00	51600	133	141	0	237	133	141	0	237
14:25:00	51900	156	165	0	228	156	165	0	228
14:30:00	52200	196	204	0	220	196	204	0	220
14:35:00	52500	208	205	0	223	208	205	0	223
14:40:00	52800	207	226	0	204	207	226	0	204
14:45:00	53100	263	256	0	211	263	256	0	211
14:50:00	53400	268	293	0	186	268	293	0	186
14:55:00	53700	313	288	0	211	313	288	0	211
15:00:00	54000	330	333	0	208	330	333	0	208
15:05:00	54300	342	343	0	207	342	343	0	207
15:10:00	54600	415	369	0	253	415	369	0	253
15:15:00	54900	422	376	0	299	422	376	0	299
15:20:00	55200	471	404	0	366	471	404	0	366
15:25:00	55500	488	450	0	404	488	450	0	404
15:30:00	55800	539	465	0	478	539	465	0	478
15:35:00	56100	539	504	0	513	539	504	0	513
15:40:00	56400	602	508	0	607	602	508	0	607
15:45:00	56700	668	533	0	742	668	533	0	742
15:50:00	57000	679	556	0	865	679	556	0	865
15:55:00	57300	789	556	0	1098	789	556	0	1098
16:00:00	57600	789	500	0	1387	789	500	0	1387
16:05:00	57900	794	580	0	1601	794	580	0	1601
16:10:00	58200	798	527	0	1872	798	527	0	1872
16:15:00	58500	819	546	0	2145	819	546	0	2145
16:20:00	58800	864	567	0	2442	864	567	0	2442
16:25:00	59100	887	581	0	2748	887	581	0	2748
16:30:00	59400	931	524	0	3155	931	524	0	3155
16:35:00	59700	841	564	0	3432	841	564	0	3432
16:40:00	60000	926	551	0	3807	926	551	0	3807
16:45:00	60300	799	597	0	4009	799	597	0	4009
16:50:00	60600	877	570	0	4316	877	570	0	4316
16:55:00	60900	843	614	0	4545	843	614	0	4545
17:00:00	61200	835	609	0	4771	835	609	0	4771
17:05:00	61500	889	586	0	5074	889	586	0	5074
17:10:00	61800	840	555	0	5359	840	555	0	5359
17:15:00	62100	898	558	0	5699	898	558	0	5699
17:20:00	62400	811	552	0	5958	811	552	0	5958
17:25:00	62700	807	576	0	6189	807	576	0	6189
17:30:00	63000	809	578	0	6420	809	578	0	6420
17:35:00	63300	827	585	0	6662	827	585	0	6662
17:40:00	63600	736	533	0	6865	736	533	0	6865
17:45:00	63900	711	536	0	7040	711	536	0	7040
17:50:00	64200	722	562	0	7200	722	562	0	7200
17:55:00	64500	664	524	0	7340	664	524	0	7340
18:00:00	64800	675	466	0	7549	675	466	0	7549
18:05:00	65100	610	506	0	7653	610	506	0	7653
18:10:00	65400	573	508	0	7718	573	508	0	7718
18:15:00	65700	616	483	0	7851	616	483	0	7851
18:20:00	66000	587	479	0	7959	587	479	0	7959
18:25:00	66300	512	435	0	8036	512	435	0	8036
18:30:00	66600	467	475	0	8028	467	475	0	8028
18:35:00	66900	469	473	0	8024	469	473	0	8024
18:40:00	67200	439	448	0	8015	439	448	0	8015
18:45:00	67500	411	489	0	7937	411	489	0	7937
18:50:00	67800	386	449	0	7874	386	449	0	7874
18:55:00	68100	392	447	0	7819	392	447	0	7819
19:00:00	68400	365	515	0	7669	365	515	0	7669
19:05:00	68700	279	424	0	7524	279	424	0	7524
19:10:00	69000	297	442	0	7379	297	442	0	7379
19:15:00	69300	247	417	0	7209	247	417	0	7209
19:20:00	69600	223	403	0	7029	223	403	0	7029
19:25:00	69900	179	447	0	6761	179	447	0	6761
19:30:00	70200	187	403	0	6545	187	403	0	6545
19:35:00	70500	156	429	0	6272	156	429	0	6272
19:40:00	70800	131	399	0	6004	131	399	0	6004
19:45:00	71100	114	395	0	5723	114	395	0	5723
19:50:00	71400	104	391	0	5436	104	391	0	5436
19:55:00	71700	97	343	0	5190	97	343	0	5190
20:00:00	72000	82	352	0	4920	82	352	0	4920
20:05:00	72300	66	319	0	4667	66	319	0	4667
20:10:00	72600	65	292	0	4440	65	292	0	4440
20:15:00	72900	65	282	0	4223	65	282	0	4223
20:20:00	73200	51	301	0	3973	51	301	0	3973
20:25:00	73500	45	316	0	3702	45	316	0	3702
20:30:00	73800	33	283	0	3452	33	283	0	3452
20:35:00	74100	39	313	0	3178	39	313	0	3178
20:40:00	74400	26	324	0	2880	26	324	0	2880
20:45:00	74700	12	275	0	2617	12	275	0	2617
20:50:00	75000	24	290	0	2351	24	290	0	2351
20:55:00	75300	16	240	0	2127	16	240	0	2127
21:00:00	75600	14	170	0	1971	14	170	0	1971
21:05:00	75900	10	160	0	1821	10	160	0	1821
21:10:00	76200	9	145	0	1685	9	145	0	1685
21:15:00	76500	8	121	0	1572	8	121	0	1572
21:20:00	76800	12	122	0	1462	12	122	0	1462
21:25:00	77100	2	95	0	1369	2	95	0	1369
21:30:00	77400	3	104	0	1268	3	104	0	1268
21:35:00	77700	3	89	0	1182	3	89	0	1182
21:40:00	78000	2	74	0	1110	2	74	0	1110
21:45:00	78300	1	74	0	1037	1	74	0	1037
21:50:00	78600	1	79	0	959	1	79	0	959
21:55:00	78900	1	71	0	889	1	71	0	889
22:00:00	79200	0	72	0	817	0	72	0	817
22:05:00	79500	3	74	0	746	3	74	0	746
22:10:00	79800	1	76	0	671	1	76	0	671
22:15:00	80100	2	73	0	600	2	73	0	600
22:20:00	80400	0	76	0	524	0	76	0	524
22:25:00	80700	1	71	0	454	1	71	0	454
22:30:00	81000	0	75	0	379	0	75	0	379
22:35:00	81300	0	67	0	312	0	67	0	312
22:40:00	81600	0	75	0	237	0	75	0	237
22:45:00	81900	0	71	0	166	0	71	0	166
22:50:00	82200	0	70	0	96	0	70	0	96
22:55:00	82500	0	52	0	44	0	52	0	44
23:00:00	82800	0	44	0	0	0	44	0	0
23:05:00	83100	0	0	0	0	0	0	0	0
23:10:00	83400	0	0	0	0	0	0	0	0
23:15:00	83700	0	0	0	0	0	0	0	0
23:20:00	84000	0	0	0	0	0	0	0	0
23:25:00	84300	0	0	0	0	0	0	0	0
23:30:00	84600	0	0	0	0	0	0	0	0
23:35:00	84900	0	0	0	0	0	0	0	0
23:40:00	85200	0	0	0	0	0	0	0	0
23:45:00	85500	0	0	0	0	0	0	0	0
23:50:00	85800	0	0	0	0	0	0	0	0
23:55:00	86100	0	0	0	0	0	0	0	0
24:00:00	86400	0	0	0	0	0	0	0	0
24:05:00	86700	0	0	0	0	0	0	0	0
24:10:00	87000	0	0	0	0	0	0	0	0
24:15:00	87300	0	0	0	0	0	0	0	0
24:20:00	87600	0	0	0	0	0	0	0	0
24:25:00	87900	0	0	0	0	0	0	0	0
24:30:00	88200	0	0	0	0	0	0	0	0
24:35:00	88500	0	0	0	0	0	0	0	0
24:40:00	88800	0	0	0	0	0	0	0	0
24:45:00	89100	0	0	0	0	0	0	0	0
24:50:00	89400	0	0	0	0	0	0	0	0
24:55:00	89700	0	0	0	0	0	0	0	0
25:00:00	90000	0	0	0	0	0	0	0	0
25:05:00	90300	0	0	0	0	0	0	0	0
25:10:00	90600	0	0	0	0	0	0	0	0
25:15:00	90900	0	0	0	0	0	0	0	0
25:20:00	91200	0	0	0	0	0	0	0	0
25:25:00	91500	0	0	0	0	0	0	0	0
25:30:00	91800	0	0	0	0	0	0	0	0
25:35:00	92100	0	0	0	0	0	0	0	0
25:40:00	92400	0	0	0	0	0	0	0	0
25:45:00	92700	0	0	0	0	0	0	0	0
25:50:00	93000	0	0	0	0	0	0	0	0
25:55:00	93300	0	0	0	0	0	0	0	0
26:00:00	93600	0	0	0	0	0	0	0	0
26:05:00	93900	0	0	0	0	0	0	0	0
26:10:00	94200	0	0	0	0	0	0	0	0
26:15:00	94500	0	0	0	0	0	0	0	0
26:20:00	94800	0	0	0	0	0	0	0	0
26:25:00	95100	0	0	0	0	0	0	0	0
26:30:00	95400	0	0	0	0	0	0	0	0
26:35:00	95700	0	0	0	0	0	0	0	0
26:40:00	96000	0	0	0	0	0	0	0	0
26:45:00	96300	0	0	0	0	0	0	0	0
26:50:00	96600	0	0	0	0	0	0	0	0
26:55:00	96900	0	0	0	0	0	0	0	0
27:00:00	97200	0	0	0	0	0	0	0	0
27:05:00	97500	0	0	0	0	0	0	0	0
27:10:00	97800	0	0	0	0	0	0	0	0
27:15:00	98100	0	0	0	0	0	0	0	0
27:20:00	98400	0	0	0	0	0	0	0	0
27:25:00	98700	0	0	0	0	0	0	0	0
27:30:00	99000	0	0	0	0	0	0	0	0
27:35:00	99300	0	0	0	0	0	0	0	0
27:40:00	99600	0	0	0	0	0	0	0	0
27:45:00	99900	0	0	0	0	0	0	0	0
27:50:00	100200	0	0	0	0	0	0	0	0
27:55:00	100500	0	0	0	0	0	0	0	0
28:00:00	100800	0	0	0	0	0	0	0	0
28:05:00	101100	0	0	0	0	0	0	0	0
28:10:00	101400	0	0	0	0	0	0	0	0
28:15:00	101700	0	0	0	0	0	0	0	0
28:20:00	102000	0	0	0	0	0	0	0	0
28:25:00	102300	0	0	0	0	0	0	0	0
28:30:00	102600	0	0	0	0	0	0	0	0
28:35:00	102900	0	0	0	0	0	0	0	0
28:40:00	103200	0	0	0	0	0	0	0	0
28:45:00	103500	0	0	0	0	0	0	0	0
28:50:00	103800	0	0	0	0	0	0	0	0
28:55:00	104100	0	0	0	0	0	0	0	0
29:00:00	104400	0	0	0	0	0	0	0	0
29:05:00	104700	0	0	0	0	0	0	0	0
29:10:00	105000	0	0	0	0	0	0	0	0
29:15:00	105300	0	0	0	0	0	0	0	0
29:20:00	105600	0	0	0	0	0	0	0	0
29:25:00	105900	0	0	0	0	0	0	0	0
29:30:00	106200	0	0	0	0	0	0	0	0
29:35:00	106500	0	0	0	0	0	0	0	0
29:40:00	106800	0	0	0	0	0	0	0	0
29:45:00	107100	0	0	0	0	0	0	0	0
29:50:00	107400	0	0	0	0	0	0	0	0
29:55:00	107700	0	0	0	0	0	0	0	0
30:00:00	108000	0	0	0	0	0	0	0	0
30:05:00	108300	0	0	0	0	0	0	0	0
