pattern	0+	5+	10+	15+	20+	25+	30+	35+	40+	45+	50+	55+	60+
home---work	20063	6994	1669	780	592	432	270	379	634	178	161	157	5591
work---home	11379	4153	2144	1757	1565	1332	1140	1142	1049	876	922	702	9739

average leg duration: 2155.673654353562 seconds = 00:35:55
