time	time	departures_all	arrivals_all	stuck_all	en-route_all	departures_car	arrivals_car	stuck_car	en-route_car
00:00:00	0	0	0	0	0	0	0	0	0
00:05:00	300	0	0	0	0	0	0	0	0
00:10:00	600	0	0	0	0	0	0	0	0
00:15:00	900	0	0	0	0	0	0	0	0
00:20:00	1200	0	0	0	0	0	0	0	0
00:25:00	1500	0	0	0	0	0	0	0	0
00:30:00	1800	0	0	0	0	0	0	0	0
00:35:00	2100	0	0	0	0	0	0	0	0
00:40:00	2400	0	0	0	0	0	0	0	0
00:45:00	2700	0	0	0	0	0	0	0	0
00:50:00	3000	0	0	0	0	0	0	0	0
00:55:00	3300	0	0	0	0	0	0	0	0
01:00:00	3600	0	0	0	0	0	0	0	0
01:05:00	3900	0	0	0	0	0	0	0	0
01:10:00	4200	0	0	0	0	0	0	0	0
01:15:00	4500	0	0	0	0	0	0	0	0
01:20:00	4800	0	0	0	0	0	0	0	0
01:25:00	5100	0	0	0	0	0	0	0	0
01:30:00	5400	0	0	0	0	0	0	0	0
01:35:00	5700	0	0	0	0	0	0	0	0
01:40:00	6000	0	0	0	0	0	0	0	0
01:45:00	6300	0	0	0	0	0	0	0	0
01:50:00	6600	0	0	0	0	0	0	0	0
01:55:00	6900	0	0	0	0	0	0	0	0
02:00:00	7200	0	0	0	0	0	0	0	0
02:05:00	7500	0	0	0	0	0	0	0	0
02:10:00	7800	0	0	0	0	0	0	0	0
02:15:00	8100	0	0	0	0	0	0	0	0
02:20:00	8400	0	0	0	0	0	0	0	0
02:25:00	8700	0	0	0	0	0	0	0	0
02:30:00	9000	0	0	0	0	0	0	0	0
02:35:00	9300	0	0	0	0	0	0	0	0
02:40:00	9600	0	0	0	0	0	0	0	0
02:45:00	9900	0	0	0	0	0	0	0	0
02:50:00	10200	0	0	0	0	0	0	0	0
02:55:00	10500	1	0	0	1	1	0	0	1
03:00:00	10800	0	1	0	0	0	1	0	0
03:05:00	11100	0	0	0	0	0	0	0	0
03:10:00	11400	1	1	0	0	1	1	0	0
03:15:00	11700	0	0	0	0	0	0	0	0
03:20:00	12000	0	0	0	0	0	0	0	0
03:25:00	12300	0	0	0	0	0	0	0	0
03:30:00	12600	0	0	0	0	0	0	0	0
03:35:00	12900	0	0	0	0	0	0	0	0
03:40:00	13200	0	0	0	0	0	0	0	0
03:45:00	13500	2	2	0	0	2	2	0	0
03:50:00	13800	0	0	0	0	0	0	0	0
03:55:00	14100	1	0	0	1	1	0	0	1
04:00:00	14400	3	2	0	2	3	2	0	2
04:05:00	14700	2	2	0	2	2	2	0	2
04:10:00	15000	1	3	0	0	1	3	0	0
04:15:00	15300	0	0	0	0	0	0	0	0
04:20:00	15600	6	2	0	4	6	2	0	4
04:25:00	15900	9	8	0	5	9	8	0	5
04:30:00	16200	9	11	0	3	9	11	0	3
04:35:00	16500	7	6	0	4	7	6	0	4
04:40:00	16800	12	11	0	5	12	11	0	5
04:45:00	17100	7	9	0	3	7	9	0	3
04:50:00	17400	10	6	0	7	10	6	0	7
04:55:00	17700	12	11	0	8	12	11	0	8
05:00:00	18000	20	20	0	8	20	20	0	8
05:05:00	18300	24	21	0	11	24	21	0	11
05:10:00	18600	23	20	0	14	23	20	0	14
05:15:00	18900	24	27	0	11	24	27	0	11
05:20:00	19200	26	22	0	15	26	22	0	15
05:25:00	19500	35	27	0	23	35	27	0	23
05:30:00	19800	48	51	0	20	48	51	0	20
05:35:00	20100	37	38	0	19	37	38	0	19
05:40:00	20400	59	55	0	23	59	55	0	23
05:45:00	20700	79	55	0	47	79	55	0	47
05:50:00	21000	97	98	0	46	97	98	0	46
05:55:00	21300	67	78	0	35	67	78	0	35
06:00:00	21600	83	80	0	38	83	80	0	38
06:05:00	21900	118	92	0	64	118	92	0	64
06:10:00	22200	119	117	0	66	119	117	0	66
06:15:00	22500	144	141	0	69	144	141	0	69
06:20:00	22800	160	150	0	79	160	150	0	79
06:25:00	23100	164	154	0	89	164	154	0	89
06:30:00	23400	192	177	0	104	192	177	0	104
06:35:00	23700	247	212	0	139	247	212	0	139
06:40:00	24000	228	249	0	118	228	249	0	118
06:45:00	24300	270	239	0	149	270	239	0	149
06:50:00	24600	293	261	0	181	293	261	0	181
06:55:00	24900	340	308	0	213	340	308	0	213
07:00:00	25200	357	353	0	217	357	353	0	217
07:05:00	25500	416	386	0	247	416	386	0	247
07:10:00	25800	405	398	0	254	405	398	0	254
07:15:00	26100	434	421	0	267	434	421	0	267
07:20:00	26400	489	435	0	321	489	435	0	321
07:25:00	26700	521	492	0	350	521	492	0	350
07:30:00	27000	532	519	0	363	532	519	0	363
07:35:00	27300	527	505	0	385	527	505	0	385
07:40:00	27600	597	498	0	484	597	498	0	484
07:45:00	27900	600	579	0	505	600	579	0	505
07:50:00	28200	633	497	0	641	633	497	0	641
07:55:00	28500	677	532	0	786	677	532	0	786
08:00:00	28800	698	557	0	927	698	557	0	927
08:05:00	29100	703	594	0	1036	703	594	0	1036
08:10:00	29400	760	622	0	1174	760	622	0	1174
08:15:00	29700	809	603	0	1380	809	603	0	1380
08:20:00	30000	798	602	0	1576	798	602	0	1576
08:25:00	30300	857	633	0	1800	857	633	0	1800
08:30:00	30600	875	647	0	2028	875	647	0	2028
08:35:00	30900	879	697	0	2210	879	697	0	2210
08:40:00	31200	932	652	0	2490	932	652	0	2490
08:45:00	31500	866	659	0	2697	866	659	0	2697
08:50:00	31800	893	649	0	2941	893	649	0	2941
08:55:00	32100	837	654	0	3124	837	654	0	3124
09:00:00	32400	904	662	0	3366	904	662	0	3366
09:05:00	32700	867	640	0	3593	867	640	0	3593
09:10:00	33000	871	643	0	3821	871	643	0	3821
09:15:00	33300	820	624	0	4017	820	624	0	4017
09:20:00	33600	853	649	0	4221	853	649	0	4221
09:25:00	33900	844	633	0	4432	844	633	0	4432
09:30:00	34200	845	633	0	4644	845	633	0	4644
09:35:00	34500	845	639	0	4850	845	639	0	4850
09:40:00	34800	773	673	0	4950	773	673	0	4950
09:45:00	35100	756	629	0	5077	756	629	0	5077
09:50:00	35400	716	612	0	5181	716	612	0	5181
09:55:00	35700	738	602	0	5317	738	602	0	5317
10:00:00	36000	642	629	0	5330	642	629	0	5330
10:05:00	36300	690	590	0	5430	690	590	0	5430
10:10:00	36600	574	558	0	5446	574	558	0	5446
10:15:00	36900	601	575	0	5472	601	575	0	5472
10:20:00	37200	564	520	0	5516	564	520	0	5516
10:25:00	37500	514	530	0	5500	514	530	0	5500
10:30:00	37800	507	527	0	5480	507	527	0	5480
10:35:00	38100	428	491	0	5417	428	491	0	5417
10:40:00	38400	453	463	0	5407	453	463	0	5407
10:45:00	38700	405	480	0	5332	405	480	0	5332
10:50:00	39000	372	484	0	5220	372	484	0	5220
10:55:00	39300	376	437	0	5159	376	437	0	5159
11:00:00	39600	310	459	0	5010	310	459	0	5010
11:05:00	39900	276	389	0	4897	276	389	0	4897
11:10:00	40200	261	368	0	4790	261	368	0	4790
11:15:00	40500	247	372	0	4665	247	372	0	4665
11:20:00	40800	199	354	0	4510	199	354	0	4510
11:25:00	41100	188	376	0	4322	188	376	0	4322
11:30:00	41400	168	379	0	4111	168	379	0	4111
11:35:00	41700	144	362	0	3893	144	362	0	3893
11:40:00	42000	155	336	0	3712	155	336	0	3712
11:45:00	42300	121	325	0	3508	121	325	0	3508
11:50:00	42600	134	307	0	3335	134	307	0	3335
11:55:00	42900	88	289	0	3134	88	289	0	3134
12:00:00	43200	80	247	0	2967	80	247	0	2967
12:05:00	43500	60	197	0	2830	60	197	0	2830
12:10:00	43800	70	187	0	2713	70	187	0	2713
12:15:00	44100	58	200	0	2571	58	200	0	2571
12:20:00	44400	48	179	0	2440	48	179	0	2440
12:25:00	44700	41	176	0	2305	41	176	0	2305
12:30:00	45000	44	183	0	2166	44	183	0	2166
12:35:00	45300	41	181	0	2026	41	181	0	2026
12:40:00	45600	44	158	0	1912	44	158	0	1912
12:45:00	45900	34	123	0	1823	34	123	0	1823
12:50:00	46200	37	99	0	1761	37	99	0	1761
12:55:00	46500	29	99	0	1691	29	99	0	1691
13:00:00	46800	30	102	0	1619	30	102	0	1619
13:05:00	47100	32	101	0	1550	32	101	0	1550
13:10:00	47400	39	190	0	1399	39	190	0	1399
13:15:00	47700	35	180	0	1254	35	180	0	1254
13:20:00	48000	35	143	0	1146	35	143	0	1146
13:25:00	48300	42	176	0	1012	42	176	0	1012
13:30:00	48600	57	159	0	910	57	159	0	910
13:35:00	48900	51	242	0	719	51	242	0	719
13:40:00	49200	66	220	0	565	66	220	0	565
13:45:00	49500	67	204	0	428	67	204	0	428
13:50:00	49800	72	158	0	342	72	158	0	342
13:55:00	50100	87	109	0	320	87	109	0	320
14:00:00	50400	95	112	0	303	95	112	0	303
14:05:00	50700	109	132	0	280	109	132	0	280
14:10:00	51000	133	135	0	278	133	135	0	278
14:15:00	51300	142	163	0	257	142	163	0	257
14:20:00	51600	157	172	0	242	157	172	0	242
14:25:00	51900	162	169	0	235	162	169	0	235
14:30:00	52200	208	211	0	232	208	211	0	232
14:35:00	52500	199	216	0	215	199	216	0	215
14:40:00	52800	216	208	0	223	216	208	0	223
14:45:00	53100	249	256	0	216	249	256	0	216
14:50:00	53400	295	291	0	220	295	291	0	220
14:55:00	53700	308	298	0	230	308	298	0	230
15:00:00	54000	354	333	0	251	354	333	0	251
15:05:00	54300	361	372	0	240	361	372	0	240
15:10:00	54600	392	384	0	248	392	384	0	248
15:15:00	54900	406	382	0	272	406	382	0	272
15:20:00	55200	471	412	0	331	471	412	0	331
15:25:00	55500	468	427	0	372	468	427	0	372
15:30:00	55800	526	446	0	452	526	446	0	452
15:35:00	56100	518	498	0	472	518	498	0	472
15:40:00	56400	578	491	0	559	578	491	0	559
15:45:00	56700	682	538	0	703	682	538	0	703
15:50:00	57000	598	570	0	731	598	570	0	731
15:55:00	57300	693	551	0	873	693	551	0	873
16:00:00	57600	709	525	0	1057	709	525	0	1057
16:05:00	57900	760	588	0	1229	760	588	0	1229
16:10:00	58200	728	529	0	1428	728	529	0	1428
16:15:00	58500	822	521	0	1729	822	521	0	1729
16:20:00	58800	826	527	0	2028	826	527	0	2028
16:25:00	59100	866	581	0	2313	866	581	0	2313
16:30:00	59400	847	527	0	2633	847	527	0	2633
16:35:00	59700	852	561	0	2924	852	561	0	2924
16:40:00	60000	915	569	0	3270	915	569	0	3270
16:45:00	60300	914	566	0	3618	914	566	0	3618
16:50:00	60600	904	562	0	3960	904	562	0	3960
16:55:00	60900	858	542	0	4276	858	542	0	4276
17:00:00	61200	888	523	0	4641	888	523	0	4641
17:05:00	61500	943	537	0	5047	943	537	0	5047
17:10:00	61800	855	537	0	5365	855	537	0	5365
17:15:00	62100	885	537	0	5713	885	537	0	5713
17:20:00	62400	865	536	0	6042	865	536	0	6042
17:25:00	62700	855	517	0	6380	855	517	0	6380
17:30:00	63000	853	508	0	6725	853	508	0	6725
17:35:00	63300	808	536	0	6997	808	536	0	6997
17:40:00	63600	755	522	0	7230	755	522	0	7230
17:45:00	63900	739	498	0	7471	739	498	0	7471
17:50:00	64200	693	513	0	7651	693	513	0	7651
17:55:00	64500	686	533	0	7804	686	533	0	7804
18:00:00	64800	683	548	0	7939	683	548	0	7939
18:05:00	65100	651	487	0	8103	651	487	0	8103
18:10:00	65400	645	478	0	8270	645	478	0	8270
18:15:00	65700	595	519	0	8346	595	519	0	8346
18:20:00	66000	583	497	0	8432	583	497	0	8432
18:25:00	66300	541	494	0	8479	541	494	0	8479
18:30:00	66600	448	439	0	8488	448	439	0	8488
18:35:00	66900	465	471	0	8482	465	471	0	8482
18:40:00	67200	401	426	0	8457	401	426	0	8457
18:45:00	67500	385	397	0	8445	385	397	0	8445
18:50:00	67800	345	411	0	8379	345	411	0	8379
18:55:00	68100	362	405	0	8336	362	405	0	8336
19:00:00	68400	341	399	0	8278	341	399	0	8278
19:05:00	68700	289	430	0	8137	289	430	0	8137
19:10:00	69000	300	399	0	8038	300	399	0	8038
19:15:00	69300	245	395	0	7888	245	395	0	7888
19:20:00	69600	238	435	0	7691	238	435	0	7691
19:25:00	69900	187	384	0	7494	187	384	0	7494
19:30:00	70200	159	374	0	7279	159	374	0	7279
19:35:00	70500	174	364	0	7089	174	364	0	7089
19:40:00	70800	145	416	0	6818	145	416	0	6818
19:45:00	71100	124	417	0	6525	124	417	0	6525
19:50:00	71400	105	401	0	6229	105	401	0	6229
19:55:00	71700	85	385	0	5929	85	385	0	5929
20:00:00	72000	99	391	0	5637	99	391	0	5637
20:05:00	72300	74	353	0	5358	74	353	0	5358
20:10:00	72600	72	314	0	5116	72	314	0	5116
20:15:00	72900	72	282	0	4906	72	282	0	4906
20:20:00	73200	48	275	0	4679	48	275	0	4679
20:25:00	73500	48	278	0	4449	48	278	0	4449
20:30:00	73800	25	227	0	4247	25	227	0	4247
20:35:00	74100	29	267	0	4009	29	267	0	4009
20:40:00	74400	29	241	0	3797	29	241	0	3797
20:45:00	74700	19	264	0	3552	19	264	0	3552
20:50:00	75000	26	244	0	3334	26	244	0	3334
20:55:00	75300	12	213	0	3133	12	213	0	3133
21:00:00	75600	12	202	0	2943	12	202	0	2943
21:05:00	75900	13	231	0	2725	13	231	0	2725
21:10:00	76200	13	204	0	2534	13	204	0	2534
21:15:00	76500	9	205	0	2338	9	205	0	2338
21:20:00	76800	7	223	0	2122	7	223	0	2122
21:25:00	77100	5	207	0	1920	5	207	0	1920
21:30:00	77400	4	185	0	1739	4	185	0	1739
21:35:00	77700	2	156	0	1585	2	156	0	1585
21:40:00	78000	3	106	0	1482	3	106	0	1482
21:45:00	78300	1	103	0	1380	1	103	0	1380
21:50:00	78600	2	88	0	1294	2	88	0	1294
21:55:00	78900	3	75	0	1222	3	75	0	1222
22:00:00	79200	0	91	0	1131	0	91	0	1131
22:05:00	79500	4	79	0	1056	4	79	0	1056
22:10:00	79800	2	91	0	967	2	91	0	967
22:15:00	80100	1	73	0	895	1	73	0	895
22:20:00	80400	0	79	0	816	0	79	0	816
22:25:00	80700	1	70	0	747	1	70	0	747
22:30:00	81000	0	74	0	673	0	74	0	673
22:35:00	81300	0	72	0	601	0	72	0	601
22:40:00	81600	0	75	0	526	0	75	0	526
22:45:00	81900	0	74	0	452	0	74	0	452
22:50:00	82200	0	62	0	390	0	62	0	390
22:55:00	82500	0	49	0	341	0	49	0	341
23:00:00	82800	0	52	0	289	0	52	0	289
23:05:00	83100	0	51	0	238	0	51	0	238
23:10:00	83400	0	52	0	186	0	52	0	186
23:15:00	83700	0	52	0	134	0	52	0	134
23:20:00	84000	0	50	0	84	0	50	0	84
23:25:00	84300	0	51	0	33	0	51	0	33
23:30:00	84600	0	33	0	0	0	33	0	0
23:35:00	84900	0	0	0	0	0	0	0	0
23:40:00	85200	0	0	0	0	0	0	0	0
23:45:00	85500	0	0	0	0	0	0	0	0
23:50:00	85800	0	0	0	0	0	0	0	0
23:55:00	86100	0	0	0	0	0	0	0	0
24:00:00	86400	0	0	0	0	0	0	0	0
24:05:00	86700	0	0	0	0	0	0	0	0
24:10:00	87000	0	0	0	0	0	0	0	0
24:15:00	87300	0	0	0	0	0	0	0	0
24:20:00	87600	0	0	0	0	0	0	0	0
24:25:00	87900	0	0	0	0	0	0	0	0
24:30:00	88200	0	0	0	0	0	0	0	0
24:35:00	88500	0	0	0	0	0	0	0	0
24:40:00	88800	0	0	0	0	0	0	0	0
24:45:00	89100	0	0	0	0	0	0	0	0
24:50:00	89400	0	0	0	0	0	0	0	0
24:55:00	89700	0	0	0	0	0	0	0	0
25:00:00	90000	0	0	0	0	0	0	0	0
25:05:00	90300	0	0	0	0	0	0	0	0
25:10:00	90600	0	0	0	0	0	0	0	0
25:15:00	90900	0	0	0	0	0	0	0	0
25:20:00	91200	0	0	0	0	0	0	0	0
25:25:00	91500	0	0	0	0	0	0	0	0
25:30:00	91800	0	0	0	0	0	0	0	0
25:35:00	92100	0	0	0	0	0	0	0	0
25:40:00	92400	0	0	0	0	0	0	0	0
25:45:00	92700	0	0	0	0	0	0	0	0
25:50:00	93000	0	0	0	0	0	0	0	0
25:55:00	93300	0	0	0	0	0	0	0	0
26:00:00	93600	0	0	0	0	0	0	0	0
26:05:00	93900	0	0	0	0	0	0	0	0
26:10:00	94200	0	0	0	0	0	0	0	0
26:15:00	94500	0	0	0	0	0	0	0	0
26:20:00	94800	0	0	0	0	0	0	0	0
26:25:00	95100	0	0	0	0	0	0	0	0
26:30:00	95400	0	0	0	0	0	0	0	0
26:35:00	95700	0	0	0	0	0	0	0	0
26:40:00	96000	0	0	0	0	0	0	0	0
26:45:00	96300	0	0	0	0	0	0	0	0
26:50:00	96600	0	0	0	0	0	0	0	0
26:55:00	96900	0	0	0	0	0	0	0	0
27:00:00	97200	0	0	0	0	0	0	0	0
27:05:00	97500	0	0	0	0	0	0	0	0
27:10:00	97800	0	0	0	0	0	0	0	0
27:15:00	98100	0	0	0	0	0	0	0	0
27:20:00	98400	0	0	0	0	0	0	0	0
27:25:00	98700	0	0	0	0	0	0	0	0
27:30:00	99000	0	0	0	0	0	0	0	0
27:35:00	99300	0	0	0	0	0	0	0	0
27:40:00	99600	0	0	0	0	0	0	0	0
27:45:00	99900	0	0	0	0	0	0	0	0
27:50:00	100200	0	0	0	0	0	0	0	0
27:55:00	100500	0	0	0	0	0	0	0	0
28:00:00	100800	0	0	0	0	0	0	0	0
28:05:00	101100	0	0	0	0	0	0	0	0
28:10:00	101400	0	0	0	0	0	0	0	0
28:15:00	101700	0	0	0	0	0	0	0	0
28:20:00	102000	0	0	0	0	0	0	0	0
28:25:00	102300	0	0	0	0	0	0	0	0
28:30:00	102600	0	0	0	0	0	0	0	0
28:35:00	102900	0	0	0	0	0	0	0	0
28:40:00	103200	0	0	0	0	0	0	0	0
28:45:00	103500	0	0	0	0	0	0	0	0
28:50:00	103800	0	0	0	0	0	0	0	0
28:55:00	104100	0	0	0	0	0	0	0	0
29:00:00	104400	0	0	0	0	0	0	0	0
29:05:00	104700	0	0	0	0	0	0	0	0
29:10:00	105000	0	0	0	0	0	0	0	0
29:15:00	105300	0	0	0	0	0	0	0	0
29:20:00	105600	0	0	0	0	0	0	0	0
29:25:00	105900	0	0	0	0	0	0	0	0
29:30:00	106200	0	0	0	0	0	0	0	0
29:35:00	106500	0	0	0	0	0	0	0	0
29:40:00	106800	0	0	0	0	0	0	0	0
29:45:00	107100	0	0	0	0	0	0	0	0
29:50:00	107400	0	0	0	0	0	0	0	0
29:55:00	107700	0	0	0	0	0	0	0	0
30:00:00	108000	0	0	0	0	0	0	0	0
30:05:00	108300	0	0	0	0	0	0	0	0
