pattern	0+	5+	10+	15+	20+	25+	30+	35+	40+	45+	50+	55+	60+
home---work	20742	6688	1284	604	624	585	323	336	603	260	182	141	5528
work---home	11726	4024	2332	1925	1514	1353	1169	1083	1008	912	979	824	9051

average leg duration: 2119.8146965699207 seconds = 00:35:19
