time	time	departures_all	arrivals_all	stuck_all	en-route_all	departures_car	arrivals_car	stuck_car	en-route_car
00:00:00	0	0	0	0	0	0	0	0	0
00:05:00	300	0	0	0	0	0	0	0	0
00:10:00	600	0	0	0	0	0	0	0	0
00:15:00	900	0	0	0	0	0	0	0	0
00:20:00	1200	0	0	0	0	0	0	0	0
00:25:00	1500	0	0	0	0	0	0	0	0
00:30:00	1800	0	0	0	0	0	0	0	0
00:35:00	2100	0	0	0	0	0	0	0	0
00:40:00	2400	0	0	0	0	0	0	0	0
00:45:00	2700	0	0	0	0	0	0	0	0
00:50:00	3000	0	0	0	0	0	0	0	0
00:55:00	3300	0	0	0	0	0	0	0	0
01:00:00	3600	0	0	0	0	0	0	0	0
01:05:00	3900	0	0	0	0	0	0	0	0
01:10:00	4200	0	0	0	0	0	0	0	0
01:15:00	4500	0	0	0	0	0	0	0	0
01:20:00	4800	0	0	0	0	0	0	0	0
01:25:00	5100	0	0	0	0	0	0	0	0
01:30:00	5400	0	0	0	0	0	0	0	0
01:35:00	5700	0	0	0	0	0	0	0	0
01:40:00	6000	0	0	0	0	0	0	0	0
01:45:00	6300	0	0	0	0	0	0	0	0
01:50:00	6600	0	0	0	0	0	0	0	0
01:55:00	6900	0	0	0	0	0	0	0	0
02:00:00	7200	0	0	0	0	0	0	0	0
02:05:00	7500	0	0	0	0	0	0	0	0
02:10:00	7800	0	0	0	0	0	0	0	0
02:15:00	8100	0	0	0	0	0	0	0	0
02:20:00	8400	0	0	0	0	0	0	0	0
02:25:00	8700	0	0	0	0	0	0	0	0
02:30:00	9000	0	0	0	0	0	0	0	0
02:35:00	9300	0	0	0	0	0	0	0	0
02:40:00	9600	0	0	0	0	0	0	0	0
02:45:00	9900	0	0	0	0	0	0	0	0
02:50:00	10200	1	1	0	0	1	1	0	0
02:55:00	10500	1	0	0	1	1	0	0	1
03:00:00	10800	0	1	0	0	0	1	0	0
03:05:00	11100	0	0	0	0	0	0	0	0
03:10:00	11400	0	0	0	0	0	0	0	0
03:15:00	11700	0	0	0	0	0	0	0	0
03:20:00	12000	0	0	0	0	0	0	0	0
03:25:00	12300	0	0	0	0	0	0	0	0
03:30:00	12600	0	0	0	0	0	0	0	0
03:35:00	12900	0	0	0	0	0	0	0	0
03:40:00	13200	0	0	0	0	0	0	0	0
03:45:00	13500	2	1	0	1	2	1	0	1
03:50:00	13800	0	1	0	0	0	1	0	0
03:55:00	14100	0	0	0	0	0	0	0	0
04:00:00	14400	1	0	0	1	1	0	0	1
04:05:00	14700	3	2	0	2	3	2	0	2
04:10:00	15000	2	2	0	2	2	2	0	2
04:15:00	15300	2	4	0	0	2	4	0	0
04:20:00	15600	1	0	0	1	1	0	0	1
04:25:00	15900	7	4	0	4	7	4	0	4
04:30:00	16200	4	8	0	0	4	8	0	0
04:35:00	16500	7	3	0	4	7	3	0	4
04:40:00	16800	8	7	0	5	8	7	0	5
04:45:00	17100	10	9	0	6	10	9	0	6
04:50:00	17400	10	8	0	8	10	8	0	8
04:55:00	17700	14	17	0	5	14	17	0	5
05:00:00	18000	23	18	0	10	23	18	0	10
05:05:00	18300	16	17	0	9	16	17	0	9
05:10:00	18600	29	21	0	17	29	21	0	17
05:15:00	18900	20	25	0	12	20	25	0	12
05:20:00	19200	21	26	0	7	21	26	0	7
05:25:00	19500	23	17	0	13	23	17	0	13
05:30:00	19800	30	32	0	11	30	32	0	11
05:35:00	20100	51	35	0	27	51	35	0	27
05:40:00	20400	43	46	0	24	43	46	0	24
05:45:00	20700	51	41	0	34	51	41	0	34
05:50:00	21000	63	66	0	31	63	66	0	31
05:55:00	21300	79	64	0	46	79	64	0	46
06:00:00	21600	78	96	0	28	78	96	0	28
06:05:00	21900	82	67	0	43	82	67	0	43
06:10:00	22200	92	75	0	60	92	75	0	60
06:15:00	22500	130	119	0	71	130	119	0	71
06:20:00	22800	133	145	0	59	133	145	0	59
06:25:00	23100	158	123	0	94	158	123	0	94
06:30:00	23400	154	169	0	79	154	169	0	79
06:35:00	23700	187	161	0	105	187	161	0	105
06:40:00	24000	214	202	0	117	214	202	0	117
06:45:00	24300	282	240	0	159	282	240	0	159
06:50:00	24600	323	277	0	205	323	277	0	205
06:55:00	24900	439	380	0	264	439	380	0	264
07:00:00	25200	455	443	0	276	455	443	0	276
07:05:00	25500	516	469	0	323	516	469	0	323
07:10:00	25800	539	483	0	379	539	483	0	379
07:15:00	26100	533	497	0	415	533	497	0	415
07:20:00	26400	543	532	0	426	543	532	0	426
07:25:00	26700	566	540	0	452	566	540	0	452
07:30:00	27000	572	538	0	486	572	538	0	486
07:35:00	27300	596	547	0	535	596	547	0	535
07:40:00	27600	640	530	0	645	640	530	0	645
07:45:00	27900	653	577	0	721	653	577	0	721
07:50:00	28200	667	564	0	824	667	564	0	824
07:55:00	28500	708	614	0	918	708	614	0	918
08:00:00	28800	754	593	0	1079	754	593	0	1079
08:05:00	29100	783	650	0	1212	783	650	0	1212
08:10:00	29400	799	643	0	1368	799	643	0	1368
08:15:00	29700	795	701	0	1462	795	701	0	1462
08:20:00	30000	809	661	0	1610	809	661	0	1610
08:25:00	30300	865	633	0	1842	865	633	0	1842
08:30:00	30600	858	631	0	2069	858	631	0	2069
08:35:00	30900	834	691	0	2212	834	691	0	2212
08:40:00	31200	899	697	0	2414	899	697	0	2414
08:45:00	31500	864	684	0	2594	864	684	0	2594
08:50:00	31800	879	646	0	2827	879	646	0	2827
08:55:00	32100	839	689	0	2977	839	689	0	2977
09:00:00	32400	884	640	0	3221	884	640	0	3221
09:05:00	32700	862	697	0	3386	862	697	0	3386
09:10:00	33000	876	661	0	3601	876	661	0	3601
09:15:00	33300	851	683	0	3769	851	683	0	3769
09:20:00	33600	835	671	0	3933	835	671	0	3933
09:25:00	33900	795	607	0	4121	795	607	0	4121
09:30:00	34200	834	701	0	4254	834	701	0	4254
09:35:00	34500	761	657	0	4358	761	657	0	4358
09:40:00	34800	751	661	0	4448	751	661	0	4448
09:45:00	35100	740	644	0	4544	740	644	0	4544
09:50:00	35400	681	618	0	4607	681	618	0	4607
09:55:00	35700	637	632	0	4612	637	632	0	4612
10:00:00	36000	627	550	0	4689	627	550	0	4689
10:05:00	36300	609	605	0	4693	609	605	0	4693
10:10:00	36600	586	585	0	4694	586	585	0	4694
10:15:00	36900	582	570	0	4706	582	570	0	4706
10:20:00	37200	554	561	0	4699	554	561	0	4699
10:25:00	37500	462	568	0	4593	462	568	0	4593
10:30:00	37800	533	634	0	4492	533	634	0	4492
10:35:00	38100	460	620	0	4332	460	620	0	4332
10:40:00	38400	418	496	0	4254	418	496	0	4254
10:45:00	38700	410	464	0	4200	410	464	0	4200
10:50:00	39000	405	415	0	4190	405	415	0	4190
10:55:00	39300	409	434	0	4165	409	434	0	4165
11:00:00	39600	330	423	0	4072	330	423	0	4072
11:05:00	39900	281	426	0	3927	281	426	0	3927
11:10:00	40200	225	357	0	3795	225	357	0	3795
11:15:00	40500	219	337	0	3677	219	337	0	3677
11:20:00	40800	193	378	0	3492	193	378	0	3492
11:25:00	41100	179	345	0	3326	179	345	0	3326
11:30:00	41400	166	323	0	3169	166	323	0	3169
11:35:00	41700	116	268	0	3017	116	268	0	3017
11:40:00	42000	118	229	0	2906	118	229	0	2906
11:45:00	42300	109	217	0	2798	109	217	0	2798
11:50:00	42600	81	191	0	2688	81	191	0	2688
11:55:00	42900	75	212	0	2551	75	212	0	2551
12:00:00	43200	74	194	0	2431	74	194	0	2431
12:05:00	43500	45	195	0	2281	45	195	0	2281
12:10:00	43800	57	170	0	2168	57	170	0	2168
12:15:00	44100	45	174	0	2039	45	174	0	2039
12:20:00	44400	56	187	0	1908	56	187	0	1908
12:25:00	44700	44	181	0	1771	44	181	0	1771
12:30:00	45000	32	173	0	1630	32	173	0	1630
12:35:00	45300	35	171	0	1494	35	171	0	1494
12:40:00	45600	26	97	0	1423	26	97	0	1423
12:45:00	45900	32	99	0	1356	32	99	0	1356
12:50:00	46200	31	223	0	1164	31	223	0	1164
12:55:00	46500	27	615	0	576	27	615	0	576
13:00:00	46800	33	61	0	548	33	61	0	548
13:05:00	47100	26	45	0	529	26	45	0	529
13:10:00	47400	28	54	0	503	28	54	0	503
13:15:00	47700	35	54	0	484	35	54	0	484
13:20:00	48000	37	61	0	460	37	61	0	460
13:25:00	48300	30	61	0	429	30	61	0	429
13:30:00	48600	44	60	0	413	44	60	0	413
13:35:00	48900	38	63	0	388	38	63	0	388
13:40:00	49200	66	73	0	381	66	73	0	381
13:45:00	49500	59	95	0	345	59	95	0	345
13:50:00	49800	60	75	0	330	60	75	0	330
13:55:00	50100	84	103	0	311	84	103	0	311
14:00:00	50400	75	94	0	292	75	94	0	292
14:05:00	50700	98	110	0	280	98	110	0	280
14:10:00	51000	100	131	0	249	100	131	0	249
14:15:00	51300	131	136	0	244	131	136	0	244
14:20:00	51600	137	154	0	227	137	154	0	227
14:25:00	51900	157	165	0	219	157	165	0	219
14:30:00	52200	184	193	0	210	184	193	0	210
14:35:00	52500	177	190	0	197	177	190	0	197
14:40:00	52800	200	216	0	181	200	216	0	181
14:45:00	53100	247	232	0	196	247	232	0	196
14:50:00	53400	246	256	0	186	246	256	0	186
14:55:00	53700	294	283	0	197	294	283	0	197
15:00:00	54000	349	315	0	231	349	315	0	231
15:05:00	54300	366	359	0	238	366	359	0	238
15:10:00	54600	395	362	0	271	395	362	0	271
15:15:00	54900	423	382	0	312	423	382	0	312
15:20:00	55200	483	431	0	364	483	431	0	364
15:25:00	55500	519	413	0	470	519	413	0	470
15:30:00	55800	580	479	0	571	580	479	0	571
15:35:00	56100	593	533	0	631	593	533	0	631
15:40:00	56400	623	499	0	755	623	499	0	755
15:45:00	56700	692	577	0	870	692	577	0	870
15:50:00	57000	771	604	0	1037	771	604	0	1037
15:55:00	57300	789	592	0	1234	789	592	0	1234
16:00:00	57600	790	595	0	1429	790	595	0	1429
16:05:00	57900	806	637	0	1598	806	637	0	1598
16:10:00	58200	853	614	0	1837	853	614	0	1837
16:15:00	58500	874	617	0	2094	874	617	0	2094
16:20:00	58800	851	561	0	2384	851	561	0	2384
16:25:00	59100	885	573	0	2696	885	573	0	2696
16:30:00	59400	873	585	0	2984	873	585	0	2984
16:35:00	59700	831	614	0	3201	831	614	0	3201
16:40:00	60000	899	583	0	3517	899	583	0	3517
16:45:00	60300	880	578	0	3819	880	578	0	3819
16:50:00	60600	838	568	0	4089	838	568	0	4089
16:55:00	60900	876	554	0	4411	876	554	0	4411
17:00:00	61200	856	599	0	4668	856	599	0	4668
17:05:00	61500	842	535	0	4975	842	535	0	4975
17:10:00	61800	798	545	0	5228	798	545	0	5228
17:15:00	62100	854	543	0	5539	854	543	0	5539
17:20:00	62400	785	572	0	5752	785	572	0	5752
17:25:00	62700	763	577	0	5938	763	577	0	5938
17:30:00	63000	809	515	0	6232	809	515	0	6232
17:35:00	63300	741	533	0	6440	741	533	0	6440
17:40:00	63600	718	561	0	6597	718	561	0	6597
17:45:00	63900	713	558	0	6752	713	558	0	6752
17:50:00	64200	666	571	0	6847	666	571	0	6847
17:55:00	64500	667	546	0	6968	667	546	0	6968
18:00:00	64800	680	539	0	7109	680	539	0	7109
18:05:00	65100	606	536	0	7179	606	536	0	7179
18:10:00	65400	593	536	0	7236	593	536	0	7236
18:15:00	65700	599	534	0	7301	599	534	0	7301
18:20:00	66000	543	541	0	7303	543	541	0	7303
18:25:00	66300	533	489	0	7347	533	489	0	7347
18:30:00	66600	492	469	0	7370	492	469	0	7370
18:35:00	66900	479	490	0	7359	479	490	0	7359
18:40:00	67200	438	505	0	7292	438	505	0	7292
18:45:00	67500	427	460	0	7259	427	460	0	7259
18:50:00	67800	427	477	0	7209	427	477	0	7209
18:55:00	68100	447	447	0	7209	447	447	0	7209
19:00:00	68400	378	475	0	7112	378	475	0	7112
19:05:00	68700	321	476	0	6957	321	476	0	6957
19:10:00	69000	271	437	0	6791	271	437	0	6791
19:15:00	69300	252	452	0	6591	252	452	0	6591
19:20:00	69600	206	428	0	6369	206	428	0	6369
19:25:00	69900	190	391	0	6168	190	391	0	6168
19:30:00	70200	187	434	0	5921	187	434	0	5921
19:35:00	70500	166	424	0	5663	166	424	0	5663
19:40:00	70800	121	390	0	5394	121	390	0	5394
19:45:00	71100	125	349	0	5170	125	349	0	5170
19:50:00	71400	108	303	0	4975	108	303	0	4975
19:55:00	71700	91	355	0	4711	91	355	0	4711
20:00:00	72000	77	325	0	4463	77	325	0	4463
20:05:00	72300	79	291	0	4251	79	291	0	4251
20:10:00	72600	53	315	0	3989	53	315	0	3989
20:15:00	72900	54	270	0	3773	54	270	0	3773
20:20:00	73200	50	267	0	3556	50	267	0	3556
20:25:00	73500	47	248	0	3355	47	248	0	3355
20:30:00	73800	23	234	0	3144	23	234	0	3144
20:35:00	74100	35	203	0	2976	35	203	0	2976
20:40:00	74400	25	187	0	2814	25	187	0	2814
20:45:00	74700	23	149	0	2688	23	149	0	2688
20:50:00	75000	18	168	0	2538	18	168	0	2538
20:55:00	75300	13	164	0	2387	13	164	0	2387
21:00:00	75600	14	138	0	2263	14	138	0	2263
21:05:00	75900	10	143	0	2130	10	143	0	2130
21:10:00	76200	8	167	0	1971	8	167	0	1971
21:15:00	76500	9	173	0	1807	9	173	0	1807
21:20:00	76800	6	148	0	1665	6	148	0	1665
21:25:00	77100	2	139	0	1528	2	139	0	1528
21:30:00	77400	4	149	0	1383	4	149	0	1383
21:35:00	77700	0	124	0	1259	0	124	0	1259
21:40:00	78000	1	98	0	1162	1	98	0	1162
21:45:00	78300	3	116	0	1049	3	116	0	1049
21:50:00	78600	2	109	0	942	2	109	0	942
21:55:00	78900	4	122	0	824	4	122	0	824
22:00:00	79200	1	82	0	743	1	82	0	743
22:05:00	79500	2	89	0	656	2	89	0	656
22:10:00	79800	0	81	0	575	0	81	0	575
22:15:00	80100	0	76	0	499	0	76	0	499
22:20:00	80400	1	72	0	428	1	72	0	428
22:25:00	80700	0	72	0	356	0	72	0	356
22:30:00	81000	0	75	0	281	0	75	0	281
22:35:00	81300	1	69	0	213	1	69	0	213
22:40:00	81600	0	77	0	136	0	77	0	136
22:45:00	81900	0	72	0	64	0	72	0	64
22:50:00	82200	0	58	0	6	0	58	0	6
22:55:00	82500	0	6	0	0	0	6	0	0
23:00:00	82800	0	0	0	0	0	0	0	0
23:05:00	83100	0	0	0	0	0	0	0	0
23:10:00	83400	0	0	0	0	0	0	0	0
23:15:00	83700	0	0	0	0	0	0	0	0
23:20:00	84000	0	0	0	0	0	0	0	0
23:25:00	84300	0	0	0	0	0	0	0	0
23:30:00	84600	0	0	0	0	0	0	0	0
23:35:00	84900	0	0	0	0	0	0	0	0
23:40:00	85200	0	0	0	0	0	0	0	0
23:45:00	85500	0	0	0	0	0	0	0	0
23:50:00	85800	0	0	0	0	0	0	0	0
23:55:00	86100	0	0	0	0	0	0	0	0
24:00:00	86400	0	0	0	0	0	0	0	0
24:05:00	86700	0	0	0	0	0	0	0	0
24:10:00	87000	0	0	0	0	0	0	0	0
24:15:00	87300	0	0	0	0	0	0	0	0
24:20:00	87600	0	0	0	0	0	0	0	0
24:25:00	87900	0	0	0	0	0	0	0	0
24:30:00	88200	0	0	0	0	0	0	0	0
24:35:00	88500	0	0	0	0	0	0	0	0
24:40:00	88800	0	0	0	0	0	0	0	0
24:45:00	89100	0	0	0	0	0	0	0	0
24:50:00	89400	0	0	0	0	0	0	0	0
24:55:00	89700	0	0	0	0	0	0	0	0
25:00:00	90000	0	0	0	0	0	0	0	0
25:05:00	90300	0	0	0	0	0	0	0	0
25:10:00	90600	0	0	0	0	0	0	0	0
25:15:00	90900	0	0	0	0	0	0	0	0
25:20:00	91200	0	0	0	0	0	0	0	0
25:25:00	91500	0	0	0	0	0	0	0	0
25:30:00	91800	0	0	0	0	0	0	0	0
25:35:00	92100	0	0	0	0	0	0	0	0
25:40:00	92400	0	0	0	0	0	0	0	0
25:45:00	92700	0	0	0	0	0	0	0	0
25:50:00	93000	0	0	0	0	0	0	0	0
25:55:00	93300	0	0	0	0	0	0	0	0
26:00:00	93600	0	0	0	0	0	0	0	0
26:05:00	93900	0	0	0	0	0	0	0	0
26:10:00	94200	0	0	0	0	0	0	0	0
26:15:00	94500	0	0	0	0	0	0	0	0
26:20:00	94800	0	0	0	0	0	0	0	0
26:25:00	95100	0	0	0	0	0	0	0	0
26:30:00	95400	0	0	0	0	0	0	0	0
26:35:00	95700	0	0	0	0	0	0	0	0
26:40:00	96000	0	0	0	0	0	0	0	0
26:45:00	96300	0	0	0	0	0	0	0	0
26:50:00	96600	0	0	0	0	0	0	0	0
26:55:00	96900	0	0	0	0	0	0	0	0
27:00:00	97200	0	0	0	0	0	0	0	0
27:05:00	97500	0	0	0	0	0	0	0	0
27:10:00	97800	0	0	0	0	0	0	0	0
27:15:00	98100	0	0	0	0	0	0	0	0
27:20:00	98400	0	0	0	0	0	0	0	0
27:25:00	98700	0	0	0	0	0	0	0	0
27:30:00	99000	0	0	0	0	0	0	0	0
27:35:00	99300	0	0	0	0	0	0	0	0
27:40:00	99600	0	0	0	0	0	0	0	0
27:45:00	99900	0	0	0	0	0	0	0	0
27:50:00	100200	0	0	0	0	0	0	0	0
27:55:00	100500	0	0	0	0	0	0	0	0
28:00:00	100800	0	0	0	0	0	0	0	0
28:05:00	101100	0	0	0	0	0	0	0	0
28:10:00	101400	0	0	0	0	0	0	0	0
28:15:00	101700	0	0	0	0	0	0	0	0
28:20:00	102000	0	0	0	0	0	0	0	0
28:25:00	102300	0	0	0	0	0	0	0	0
28:30:00	102600	0	0	0	0	0	0	0	0
28:35:00	102900	0	0	0	0	0	0	0	0
28:40:00	103200	0	0	0	0	0	0	0	0
28:45:00	103500	0	0	0	0	0	0	0	0
28:50:00	103800	0	0	0	0	0	0	0	0
28:55:00	104100	0	0	0	0	0	0	0	0
29:00:00	104400	0	0	0	0	0	0	0	0
29:05:00	104700	0	0	0	0	0	0	0	0
29:10:00	105000	0	0	0	0	0	0	0	0
29:15:00	105300	0	0	0	0	0	0	0	0
29:20:00	105600	0	0	0	0	0	0	0	0
29:25:00	105900	0	0	0	0	0	0	0	0
29:30:00	106200	0	0	0	0	0	0	0	0
29:35:00	106500	0	0	0	0	0	0	0	0
29:40:00	106800	0	0	0	0	0	0	0	0
29:45:00	107100	0	0	0	0	0	0	0	0
29:50:00	107400	0	0	0	0	0	0	0	0
29:55:00	107700	0	0	0	0	0	0	0	0
30:00:00	108000	0	0	0	0	0	0	0	0
30:05:00	108300	0	0	0	0	0	0	0	0
