time	time	departures_all	arrivals_all	stuck_all	en-route_all	departures_car	arrivals_car	stuck_car	en-route_car
00:00:00	0	0	0	0	0	0	0	0	0
00:05:00	300	0	0	0	0	0	0	0	0
00:10:00	600	0	0	0	0	0	0	0	0
00:15:00	900	0	0	0	0	0	0	0	0
00:20:00	1200	0	0	0	0	0	0	0	0
00:25:00	1500	0	0	0	0	0	0	0	0
00:30:00	1800	0	0	0	0	0	0	0	0
00:35:00	2100	0	0	0	0	0	0	0	0
00:40:00	2400	0	0	0	0	0	0	0	0
00:45:00	2700	0	0	0	0	0	0	0	0
00:50:00	3000	0	0	0	0	0	0	0	0
00:55:00	3300	0	0	0	0	0	0	0	0
01:00:00	3600	0	0	0	0	0	0	0	0
01:05:00	3900	0	0	0	0	0	0	0	0
01:10:00	4200	0	0	0	0	0	0	0	0
01:15:00	4500	0	0	0	0	0	0	0	0
01:20:00	4800	0	0	0	0	0	0	0	0
01:25:00	5100	0	0	0	0	0	0	0	0
01:30:00	5400	0	0	0	0	0	0	0	0
01:35:00	5700	0	0	0	0	0	0	0	0
01:40:00	6000	0	0	0	0	0	0	0	0
01:45:00	6300	0	0	0	0	0	0	0	0
01:50:00	6600	0	0	0	0	0	0	0	0
01:55:00	6900	0	0	0	0	0	0	0	0
02:00:00	7200	0	0	0	0	0	0	0	0
02:05:00	7500	0	0	0	0	0	0	0	0
02:10:00	7800	0	0	0	0	0	0	0	0
02:15:00	8100	0	0	0	0	0	0	0	0
02:20:00	8400	0	0	0	0	0	0	0	0
02:25:00	8700	0	0	0	0	0	0	0	0
02:30:00	9000	0	0	0	0	0	0	0	0
02:35:00	9300	0	0	0	0	0	0	0	0
02:40:00	9600	0	0	0	0	0	0	0	0
02:45:00	9900	0	0	0	0	0	0	0	0
02:50:00	10200	1	1	0	0	1	1	0	0
02:55:00	10500	0	0	0	0	0	0	0	0
03:00:00	10800	0	0	0	0	0	0	0	0
03:05:00	11100	0	0	0	0	0	0	0	0
03:10:00	11400	0	0	0	0	0	0	0	0
03:15:00	11700	1	0	0	1	1	0	0	1
03:20:00	12000	0	1	0	0	0	1	0	0
03:25:00	12300	0	0	0	0	0	0	0	0
03:30:00	12600	0	0	0	0	0	0	0	0
03:35:00	12900	0	0	0	0	0	0	0	0
03:40:00	13200	0	0	0	0	0	0	0	0
03:45:00	13500	2	1	0	1	2	1	0	1
03:50:00	13800	1	2	0	0	1	2	0	0
03:55:00	14100	0	0	0	0	0	0	0	0
04:00:00	14400	2	0	0	2	2	0	0	2
04:05:00	14700	3	4	0	1	3	4	0	1
04:10:00	15000	1	1	0	1	1	1	0	1
04:15:00	15300	3	1	0	3	3	1	0	3
04:20:00	15600	4	3	0	4	4	3	0	4
04:25:00	15900	6	6	0	4	6	6	0	4
04:30:00	16200	9	11	0	2	9	11	0	2
04:35:00	16500	10	7	0	5	10	7	0	5
04:40:00	16800	8	8	0	5	8	8	0	5
04:45:00	17100	6	9	0	2	6	9	0	2
04:50:00	17400	6	4	0	4	6	4	0	4
04:55:00	17700	13	10	0	7	13	10	0	7
05:00:00	18000	20	17	0	10	20	17	0	10
05:05:00	18300	22	19	0	13	22	19	0	13
05:10:00	18600	29	26	0	16	29	26	0	16
05:15:00	18900	24	24	0	16	24	24	0	16
05:20:00	19200	28	32	0	12	28	32	0	12
05:25:00	19500	31	21	0	22	31	21	0	22
05:30:00	19800	41	41	0	22	41	41	0	22
05:35:00	20100	52	42	0	32	52	42	0	32
05:40:00	20400	57	63	0	26	57	63	0	26
05:45:00	20700	58	52	0	32	58	52	0	32
05:50:00	21000	69	64	0	37	69	64	0	37
05:55:00	21300	83	74	0	46	83	74	0	46
06:00:00	21600	87	84	0	49	87	84	0	49
06:05:00	21900	110	101	0	58	110	101	0	58
06:10:00	22200	121	113	0	66	121	113	0	66
06:15:00	22500	120	128	0	58	120	128	0	58
06:20:00	22800	142	121	0	79	142	121	0	79
06:25:00	23100	146	149	0	76	146	149	0	76
06:30:00	23400	161	152	0	85	161	152	0	85
06:35:00	23700	204	182	0	107	204	182	0	107
06:40:00	24000	242	213	0	136	242	213	0	136
06:45:00	24300	293	259	0	170	293	259	0	170
06:50:00	24600	323	299	0	194	323	299	0	194
06:55:00	24900	408	336	0	266	408	336	0	266
07:00:00	25200	387	410	0	243	387	410	0	243
07:05:00	25500	453	417	0	279	453	417	0	279
07:10:00	25800	449	443	0	285	449	443	0	285
07:15:00	26100	462	461	0	286	462	461	0	286
07:20:00	26400	480	460	0	306	480	460	0	306
07:25:00	26700	546	470	0	382	546	470	0	382
07:30:00	27000	558	525	0	415	558	525	0	415
07:35:00	27300	606	542	0	479	606	542	0	479
07:40:00	27600	612	565	0	526	612	565	0	526
07:45:00	27900	606	540	0	592	606	540	0	592
07:50:00	28200	663	550	0	705	663	550	0	705
07:55:00	28500	685	563	0	827	685	563	0	827
08:00:00	28800	706	630	0	903	706	630	0	903
08:05:00	29100	780	630	0	1053	780	630	0	1053
08:10:00	29400	798	659	0	1192	798	659	0	1192
08:15:00	29700	731	626	0	1297	731	626	0	1297
08:20:00	30000	804	611	0	1490	804	611	0	1490
08:25:00	30300	842	650	0	1682	842	650	0	1682
08:30:00	30600	864	683	0	1863	864	683	0	1863
08:35:00	30900	871	667	0	2067	871	667	0	2067
08:40:00	31200	934	701	0	2300	934	701	0	2300
08:45:00	31500	862	668	0	2494	862	668	0	2494
08:50:00	31800	843	669	0	2668	843	669	0	2668
08:55:00	32100	823	686	0	2805	823	686	0	2805
09:00:00	32400	906	654	0	3057	906	654	0	3057
09:05:00	32700	891	650	0	3298	891	650	0	3298
09:10:00	33000	849	716	0	3431	849	716	0	3431
09:15:00	33300	867	616	0	3682	867	616	0	3682
09:20:00	33600	869	647	0	3904	869	647	0	3904
09:25:00	33900	831	657	0	4078	831	657	0	4078
09:30:00	34200	827	673	0	4232	827	673	0	4232
09:35:00	34500	790	593	0	4429	790	593	0	4429
09:40:00	34800	771	659	0	4541	771	659	0	4541
09:45:00	35100	765	690	0	4616	765	690	0	4616
09:50:00	35400	717	620	0	4713	717	620	0	4713
09:55:00	35700	686	636	0	4763	686	636	0	4763
10:00:00	36000	659	577	0	4845	659	577	0	4845
10:05:00	36300	612	602	0	4855	612	602	0	4855
10:10:00	36600	619	600	0	4874	619	600	0	4874
10:15:00	36900	610	558	0	4926	610	558	0	4926
10:20:00	37200	538	532	0	4932	538	532	0	4932
10:25:00	37500	518	566	0	4884	518	566	0	4884
10:30:00	37800	484	476	0	4892	484	476	0	4892
10:35:00	38100	406	514	0	4784	406	514	0	4784
10:40:00	38400	443	457	0	4770	443	457	0	4770
10:45:00	38700	399	549	0	4620	399	549	0	4620
10:50:00	39000	417	504	0	4533	417	504	0	4533
10:55:00	39300	388	601	0	4320	388	601	0	4320
11:00:00	39600	334	503	0	4151	334	503	0	4151
11:05:00	39900	264	446	0	3969	264	446	0	3969
11:10:00	40200	252	353	0	3868	252	353	0	3868
11:15:00	40500	218	352	0	3734	218	352	0	3734
11:20:00	40800	204	383	0	3555	204	383	0	3555
11:25:00	41100	184	346	0	3393	184	346	0	3393
11:30:00	41400	175	322	0	3246	175	322	0	3246
11:35:00	41700	129	319	0	3056	129	319	0	3056
11:40:00	42000	140	234	0	2962	140	234	0	2962
11:45:00	42300	94	219	0	2837	94	219	0	2837
11:50:00	42600	122	209	0	2750	122	209	0	2750
11:55:00	42900	70	209	0	2611	70	209	0	2611
12:00:00	43200	90	196	0	2505	90	196	0	2505
12:05:00	43500	47	191	0	2361	47	191	0	2361
12:10:00	43800	65	182	0	2244	65	182	0	2244
12:15:00	44100	47	199	0	2092	47	199	0	2092
12:20:00	44400	56	176	0	1972	56	176	0	1972
12:25:00	44700	45	192	0	1825	45	192	0	1825
12:30:00	45000	36	184	0	1677	36	184	0	1677
12:35:00	45300	46	175	0	1548	46	175	0	1548
12:40:00	45600	36	111	0	1473	36	111	0	1473
12:45:00	45900	30	101	0	1402	30	101	0	1402
12:50:00	46200	22	97	0	1327	22	97	0	1327
12:55:00	46500	35	324	0	1038	35	324	0	1038
13:00:00	46800	41	374	0	705	41	374	0	705
13:05:00	47100	27	209	0	523	27	209	0	523
13:10:00	47400	32	49	0	506	32	49	0	506
13:15:00	47700	33	57	0	482	33	57	0	482
13:20:00	48000	37	61	0	458	37	61	0	458
13:25:00	48300	39	58	0	439	39	58	0	439
13:30:00	48600	43	67	0	415	43	67	0	415
13:35:00	48900	39	67	0	387	39	67	0	387
13:40:00	49200	59	75	0	371	59	75	0	371
13:45:00	49500	60	83	0	348	60	83	0	348
13:50:00	49800	85	89	0	344	85	89	0	344
13:55:00	50100	81	126	0	299	81	126	0	299
14:00:00	50400	96	100	0	295	96	100	0	295
14:05:00	50700	109	120	0	284	109	120	0	284
14:10:00	51000	120	148	0	256	120	148	0	256
14:15:00	51300	142	149	0	249	142	149	0	249
14:20:00	51600	142	158	0	233	142	158	0	233
14:25:00	51900	166	168	0	231	166	168	0	231
14:30:00	52200	188	199	0	220	188	199	0	220
14:35:00	52500	188	201	0	207	188	201	0	207
14:40:00	52800	215	230	0	192	215	230	0	192
14:45:00	53100	255	240	0	207	255	240	0	207
14:50:00	53400	292	296	0	203	292	296	0	203
14:55:00	53700	289	298	0	194	289	298	0	194
15:00:00	54000	341	318	0	217	341	318	0	217
15:05:00	54300	363	362	0	218	363	362	0	218
15:10:00	54600	407	366	0	259	407	366	0	259
15:15:00	54900	431	397	0	293	431	397	0	293
15:20:00	55200	467	413	0	347	467	413	0	347
15:25:00	55500	466	432	0	381	466	432	0	381
15:30:00	55800	535	464	0	452	535	464	0	452
15:35:00	56100	570	516	0	506	570	516	0	506
15:40:00	56400	579	516	0	569	579	516	0	569
15:45:00	56700	652	536	0	685	652	536	0	685
15:50:00	57000	648	552	0	781	648	552	0	781
15:55:00	57300	736	553	0	964	736	553	0	964
16:00:00	57600	781	595	0	1150	781	595	0	1150
16:05:00	57900	794	566	0	1378	794	566	0	1378
16:10:00	58200	769	565	0	1582	769	565	0	1582
16:15:00	58500	854	567	0	1869	854	567	0	1869
16:20:00	58800	860	591	0	2138	860	591	0	2138
16:25:00	59100	887	571	0	2454	887	571	0	2454
16:30:00	59400	899	549	0	2804	899	549	0	2804
16:35:00	59700	873	575	0	3102	873	575	0	3102
16:40:00	60000	921	548	0	3475	921	548	0	3475
16:45:00	60300	796	580	0	3691	796	580	0	3691
16:50:00	60600	903	581	0	4013	903	581	0	4013
16:55:00	60900	893	529	0	4377	893	529	0	4377
17:00:00	61200	866	546	0	4697	866	546	0	4697
17:05:00	61500	879	561	0	5015	879	561	0	5015
17:10:00	61800	857	522	0	5350	857	522	0	5350
17:15:00	62100	890	525	0	5715	890	525	0	5715
17:20:00	62400	787	490	0	6012	787	490	0	6012
17:25:00	62700	787	561	0	6238	787	561	0	6238
17:30:00	63000	845	519	0	6564	845	519	0	6564
17:35:00	63300	816	504	0	6876	816	504	0	6876
17:40:00	63600	771	511	0	7136	771	511	0	7136
17:45:00	63900	714	506	0	7344	714	506	0	7344
17:50:00	64200	711	571	0	7484	711	571	0	7484
17:55:00	64500	642	495	0	7631	642	495	0	7631
18:00:00	64800	669	533	0	7767	669	533	0	7767
18:05:00	65100	620	537	0	7850	620	537	0	7850
18:10:00	65400	582	511	0	7921	582	511	0	7921
18:15:00	65700	608	503	0	8026	608	503	0	8026
18:20:00	66000	575	496	0	8105	575	496	0	8105
18:25:00	66300	506	464	0	8147	506	464	0	8147
18:30:00	66600	490	441	0	8196	490	441	0	8196
18:35:00	66900	459	422	0	8233	459	422	0	8233
18:40:00	67200	416	424	0	8225	416	424	0	8225
18:45:00	67500	414	412	0	8227	414	412	0	8227
18:50:00	67800	394	445	0	8176	394	445	0	8176
18:55:00	68100	386	430	0	8132	386	430	0	8132
19:00:00	68400	369	439	0	8062	369	439	0	8062
19:05:00	68700	292	435	0	7919	292	435	0	7919
19:10:00	69000	275	399	0	7795	275	399	0	7795
19:15:00	69300	240	429	0	7606	240	429	0	7606
19:20:00	69600	215	389	0	7432	215	389	0	7432
19:25:00	69900	172	418	0	7186	172	418	0	7186
19:30:00	70200	189	388	0	6987	189	388	0	6987
19:35:00	70500	158	382	0	6763	158	382	0	6763
19:40:00	70800	149	388	0	6524	149	388	0	6524
19:45:00	71100	104	405	0	6223	104	405	0	6223
19:50:00	71400	120	390	0	5953	120	390	0	5953
19:55:00	71700	98	379	0	5672	98	379	0	5672
20:00:00	72000	87	410	0	5349	87	410	0	5349
20:05:00	72300	76	325	0	5100	76	325	0	5100
20:10:00	72600	67	351	0	4816	67	351	0	4816
20:15:00	72900	58	352	0	4522	58	352	0	4522
20:20:00	73200	55	301	0	4276	55	301	0	4276
20:25:00	73500	42	321	0	3997	42	321	0	3997
20:30:00	73800	37	239	0	3795	37	239	0	3795
20:35:00	74100	38	241	0	3592	38	241	0	3592
20:40:00	74400	28	259	0	3361	28	259	0	3361
20:45:00	74700	16	267	0	3110	16	267	0	3110
20:50:00	75000	24	259	0	2875	24	259	0	2875
20:55:00	75300	17	247	0	2645	17	247	0	2645
21:00:00	75600	18	247	0	2416	18	247	0	2416
21:05:00	75900	8	219	0	2205	8	219	0	2205
21:10:00	76200	7	184	0	2028	7	184	0	2028
21:15:00	76500	6	146	0	1888	6	146	0	1888
21:20:00	76800	11	136	0	1763	11	136	0	1763
21:25:00	77100	4	109	0	1658	4	109	0	1658
21:30:00	77400	3	119	0	1542	3	119	0	1542
21:35:00	77700	3	117	0	1428	3	117	0	1428
21:40:00	78000	1	133	0	1296	1	133	0	1296
21:45:00	78300	0	118	0	1178	0	118	0	1178
21:50:00	78600	1	112	0	1067	1	112	0	1067
21:55:00	78900	1	116	0	952	1	116	0	952
22:00:00	79200	0	96	0	856	0	96	0	856
22:05:00	79500	3	71	0	788	3	71	0	788
22:10:00	79800	3	84	0	707	3	84	0	707
22:15:00	80100	2	75	0	634	2	75	0	634
22:20:00	80400	0	73	0	561	0	73	0	561
22:25:00	80700	1	69	0	493	1	69	0	493
22:30:00	81000	0	75	0	418	0	75	0	418
22:35:00	81300	0	74	0	344	0	74	0	344
22:40:00	81600	0	74	0	270	0	74	0	270
22:45:00	81900	0	74	0	196	0	74	0	196
22:50:00	82200	0	63	0	133	0	63	0	133
22:55:00	82500	0	52	0	81	0	52	0	81
23:00:00	82800	0	50	0	31	0	50	0	31
23:05:00	83100	0	31	0	0	0	31	0	0
23:10:00	83400	0	0	0	0	0	0	0	0
23:15:00	83700	0	0	0	0	0	0	0	0
23:20:00	84000	0	0	0	0	0	0	0	0
23:25:00	84300	0	0	0	0	0	0	0	0
23:30:00	84600	0	0	0	0	0	0	0	0
23:35:00	84900	0	0	0	0	0	0	0	0
23:40:00	85200	0	0	0	0	0	0	0	0
23:45:00	85500	0	0	0	0	0	0	0	0
23:50:00	85800	0	0	0	0	0	0	0	0
23:55:00	86100	0	0	0	0	0	0	0	0
24:00:00	86400	0	0	0	0	0	0	0	0
24:05:00	86700	0	0	0	0	0	0	0	0
24:10:00	87000	0	0	0	0	0	0	0	0
24:15:00	87300	0	0	0	0	0	0	0	0
24:20:00	87600	0	0	0	0	0	0	0	0
24:25:00	87900	0	0	0	0	0	0	0	0
24:30:00	88200	0	0	0	0	0	0	0	0
24:35:00	88500	0	0	0	0	0	0	0	0
24:40:00	88800	0	0	0	0	0	0	0	0
24:45:00	89100	0	0	0	0	0	0	0	0
24:50:00	89400	0	0	0	0	0	0	0	0
24:55:00	89700	0	0	0	0	0	0	0	0
25:00:00	90000	0	0	0	0	0	0	0	0
25:05:00	90300	0	0	0	0	0	0	0	0
25:10:00	90600	0	0	0	0	0	0	0	0
25:15:00	90900	0	0	0	0	0	0	0	0
25:20:00	91200	0	0	0	0	0	0	0	0
25:25:00	91500	0	0	0	0	0	0	0	0
25:30:00	91800	0	0	0	0	0	0	0	0
25:35:00	92100	0	0	0	0	0	0	0	0
25:40:00	92400	0	0	0	0	0	0	0	0
25:45:00	92700	0	0	0	0	0	0	0	0
25:50:00	93000	0	0	0	0	0	0	0	0
25:55:00	93300	0	0	0	0	0	0	0	0
26:00:00	93600	0	0	0	0	0	0	0	0
26:05:00	93900	0	0	0	0	0	0	0	0
26:10:00	94200	0	0	0	0	0	0	0	0
26:15:00	94500	0	0	0	0	0	0	0	0
26:20:00	94800	0	0	0	0	0	0	0	0
26:25:00	95100	0	0	0	0	0	0	0	0
26:30:00	95400	0	0	0	0	0	0	0	0
26:35:00	95700	0	0	0	0	0	0	0	0
26:40:00	96000	0	0	0	0	0	0	0	0
26:45:00	96300	0	0	0	0	0	0	0	0
26:50:00	96600	0	0	0	0	0	0	0	0
26:55:00	96900	0	0	0	0	0	0	0	0
27:00:00	97200	0	0	0	0	0	0	0	0
27:05:00	97500	0	0	0	0	0	0	0	0
27:10:00	97800	0	0	0	0	0	0	0	0
27:15:00	98100	0	0	0	0	0	0	0	0
27:20:00	98400	0	0	0	0	0	0	0	0
27:25:00	98700	0	0	0	0	0	0	0	0
27:30:00	99000	0	0	0	0	0	0	0	0
27:35:00	99300	0	0	0	0	0	0	0	0
27:40:00	99600	0	0	0	0	0	0	0	0
27:45:00	99900	0	0	0	0	0	0	0	0
27:50:00	100200	0	0	0	0	0	0	0	0
27:55:00	100500	0	0	0	0	0	0	0	0
28:00:00	100800	0	0	0	0	0	0	0	0
28:05:00	101100	0	0	0	0	0	0	0	0
28:10:00	101400	0	0	0	0	0	0	0	0
28:15:00	101700	0	0	0	0	0	0	0	0
28:20:00	102000	0	0	0	0	0	0	0	0
28:25:00	102300	0	0	0	0	0	0	0	0
28:30:00	102600	0	0	0	0	0	0	0	0
28:35:00	102900	0	0	0	0	0	0	0	0
28:40:00	103200	0	0	0	0	0	0	0	0
28:45:00	103500	0	0	0	0	0	0	0	0
28:50:00	103800	0	0	0	0	0	0	0	0
28:55:00	104100	0	0	0	0	0	0	0	0
29:00:00	104400	0	0	0	0	0	0	0	0
29:05:00	104700	0	0	0	0	0	0	0	0
29:10:00	105000	0	0	0	0	0	0	0	0
29:15:00	105300	0	0	0	0	0	0	0	0
29:20:00	105600	0	0	0	0	0	0	0	0
29:25:00	105900	0	0	0	0	0	0	0	0
29:30:00	106200	0	0	0	0	0	0	0	0
29:35:00	106500	0	0	0	0	0	0	0	0
29:40:00	106800	0	0	0	0	0	0	0	0
29:45:00	107100	0	0	0	0	0	0	0	0
29:50:00	107400	0	0	0	0	0	0	0	0
29:55:00	107700	0	0	0	0	0	0	0	0
30:00:00	108000	0	0	0	0	0	0	0	0
30:05:00	108300	0	0	0	0	0	0	0	0
