time	time	departures_all	arrivals_all	stuck_all	en-route_all	departures_car	arrivals_car	stuck_car	en-route_car
00:00:00	0	0	0	0	0	0	0	0	0
00:05:00	300	0	0	0	0	0	0	0	0
00:10:00	600	0	0	0	0	0	0	0	0
00:15:00	900	0	0	0	0	0	0	0	0
00:20:00	1200	0	0	0	0	0	0	0	0
00:25:00	1500	0	0	0	0	0	0	0	0
00:30:00	1800	0	0	0	0	0	0	0	0
00:35:00	2100	0	0	0	0	0	0	0	0
00:40:00	2400	0	0	0	0	0	0	0	0
00:45:00	2700	0	0	0	0	0	0	0	0
00:50:00	3000	0	0	0	0	0	0	0	0
00:55:00	3300	0	0	0	0	0	0	0	0
01:00:00	3600	0	0	0	0	0	0	0	0
01:05:00	3900	0	0	0	0	0	0	0	0
01:10:00	4200	0	0	0	0	0	0	0	0
01:15:00	4500	0	0	0	0	0	0	0	0
01:20:00	4800	0	0	0	0	0	0	0	0
01:25:00	5100	0	0	0	0	0	0	0	0
01:30:00	5400	0	0	0	0	0	0	0	0
01:35:00	5700	0	0	0	0	0	0	0	0
01:40:00	6000	0	0	0	0	0	0	0	0
01:45:00	6300	0	0	0	0	0	0	0	0
01:50:00	6600	0	0	0	0	0	0	0	0
01:55:00	6900	0	0	0	0	0	0	0	0
02:00:00	7200	0	0	0	0	0	0	0	0
02:05:00	7500	0	0	0	0	0	0	0	0
02:10:00	7800	0	0	0	0	0	0	0	0
02:15:00	8100	0	0	0	0	0	0	0	0
02:20:00	8400	0	0	0	0	0	0	0	0
02:25:00	8700	0	0	0	0	0	0	0	0
02:30:00	9000	0	0	0	0	0	0	0	0
02:35:00	9300	0	0	0	0	0	0	0	0
02:40:00	9600	0	0	0	0	0	0	0	0
02:45:00	9900	0	0	0	0	0	0	0	0
02:50:00	10200	0	0	0	0	0	0	0	0
02:55:00	10500	0	0	0	0	0	0	0	0
03:00:00	10800	0	0	0	0	0	0	0	0
03:05:00	11100	0	0	0	0	0	0	0	0
03:10:00	11400	1	1	0	0	1	1	0	0
03:15:00	11700	1	0	0	1	1	0	0	1
03:20:00	12000	0	1	0	0	0	1	0	0
03:25:00	12300	0	0	0	0	0	0	0	0
03:30:00	12600	0	0	0	0	0	0	0	0
03:35:00	12900	0	0	0	0	0	0	0	0
03:40:00	13200	0	0	0	0	0	0	0	0
03:45:00	13500	4	2	0	2	4	2	0	2
03:50:00	13800	0	2	0	0	0	2	0	0
03:55:00	14100	1	1	0	0	1	1	0	0
04:00:00	14400	1	0	0	1	1	0	0	1
04:05:00	14700	1	1	0	1	1	1	0	1
04:10:00	15000	3	2	0	2	3	2	0	2
04:15:00	15300	1	3	0	0	1	3	0	0
04:20:00	15600	4	1	0	3	4	1	0	3
04:25:00	15900	8	6	0	5	8	6	0	5
04:30:00	16200	9	10	0	4	9	10	0	4
04:35:00	16500	11	9	0	6	11	9	0	6
04:40:00	16800	10	15	0	1	10	15	0	1
04:45:00	17100	9	5	0	5	9	5	0	5
04:50:00	17400	9	9	0	5	9	9	0	5
04:55:00	17700	13	11	0	7	13	11	0	7
05:00:00	18000	22	19	0	10	22	19	0	10
05:05:00	18300	21	18	0	13	21	18	0	13
05:10:00	18600	24	23	0	14	24	23	0	14
05:15:00	18900	21	23	0	12	21	23	0	12
05:20:00	19200	40	27	0	25	40	27	0	25
05:25:00	19500	24	35	0	14	24	35	0	14
05:30:00	19800	50	41	0	23	50	41	0	23
05:35:00	20100	34	43	0	14	34	43	0	14
05:40:00	20400	65	51	0	28	65	51	0	28
05:45:00	20700	79	55	0	52	79	55	0	52
05:50:00	21000	87	96	0	43	87	96	0	43
05:55:00	21300	75	78	0	40	75	78	0	40
06:00:00	21600	87	86	0	41	87	86	0	41
06:05:00	21900	115	90	0	66	115	90	0	66
06:10:00	22200	113	109	0	70	113	109	0	70
06:15:00	22500	150	147	0	73	150	147	0	73
06:20:00	22800	141	140	0	74	141	140	0	74
06:25:00	23100	169	148	0	95	169	148	0	95
06:30:00	23400	177	180	0	92	177	180	0	92
06:35:00	23700	231	185	0	138	231	185	0	138
06:40:00	24000	244	258	0	124	244	258	0	124
06:45:00	24300	258	229	0	153	258	229	0	153
06:50:00	24600	284	277	0	160	284	277	0	160
06:55:00	24900	355	309	0	206	355	309	0	206
07:00:00	25200	381	354	0	233	381	354	0	233
07:05:00	25500	400	393	0	240	400	393	0	240
07:10:00	25800	434	395	0	279	434	395	0	279
07:15:00	26100	440	441	0	278	440	441	0	278
07:20:00	26400	483	456	0	305	483	456	0	305
07:25:00	26700	521	484	0	342	521	484	0	342
07:30:00	27000	542	511	0	373	542	511	0	373
07:35:00	27300	554	539	0	388	554	539	0	388
07:40:00	27600	598	509	0	477	598	509	0	477
07:45:00	27900	580	547	0	510	580	547	0	510
07:50:00	28200	653	514	0	649	653	514	0	649
07:55:00	28500	699	590	0	758	699	590	0	758
08:00:00	28800	674	562	0	870	674	562	0	870
08:05:00	29100	724	607	0	987	724	607	0	987
08:10:00	29400	767	620	0	1134	767	620	0	1134
08:15:00	29700	787	602	0	1319	787	602	0	1319
08:20:00	30000	813	620	0	1512	813	620	0	1512
08:25:00	30300	869	653	0	1728	869	653	0	1728
08:30:00	30600	861	661	0	1928	861	661	0	1928
08:35:00	30900	841	667	0	2102	841	667	0	2102
08:40:00	31200	946	622	0	2426	946	622	0	2426
08:45:00	31500	866	672	0	2620	866	672	0	2620
08:50:00	31800	902	686	0	2836	902	686	0	2836
08:55:00	32100	851	636	0	3051	851	636	0	3051
09:00:00	32400	906	715	0	3242	906	715	0	3242
09:05:00	32700	856	662	0	3436	856	662	0	3436
09:10:00	33000	870	627	0	3679	870	627	0	3679
09:15:00	33300	847	607	0	3919	847	607	0	3919
09:20:00	33600	886	637	0	4168	886	637	0	4168
09:25:00	33900	853	618	0	4403	853	618	0	4403
09:30:00	34200	814	632	0	4585	814	632	0	4585
09:35:00	34500	783	654	0	4714	783	654	0	4714
09:40:00	34800	757	628	0	4843	757	628	0	4843
09:45:00	35100	764	656	0	4951	764	656	0	4951
09:50:00	35400	723	617	0	5057	723	617	0	5057
09:55:00	35700	695	598	0	5154	695	598	0	5154
10:00:00	36000	646	587	0	5213	646	587	0	5213
10:05:00	36300	664	548	0	5329	664	548	0	5329
10:10:00	36600	593	593	0	5329	593	593	0	5329
10:15:00	36900	629	566	0	5392	629	566	0	5392
10:20:00	37200	581	574	0	5399	581	574	0	5399
10:25:00	37500	529	538	0	5390	529	538	0	5390
10:30:00	37800	518	533	0	5375	518	533	0	5375
10:35:00	38100	396	517	0	5254	396	517	0	5254
10:40:00	38400	444	469	0	5229	444	469	0	5229
10:45:00	38700	410	467	0	5172	410	467	0	5172
10:50:00	39000	388	453	0	5107	388	453	0	5107
10:55:00	39300	374	447	0	5034	374	447	0	5034
11:00:00	39600	317	444	0	4907	317	444	0	4907
11:05:00	39900	272	409	0	4770	272	409	0	4770
11:10:00	40200	269	390	0	4649	269	390	0	4649
11:15:00	40500	225	366	0	4508	225	366	0	4508
11:20:00	40800	196	363	0	4341	196	363	0	4341
11:25:00	41100	201	395	0	4147	201	395	0	4147
11:30:00	41400	166	404	0	3909	166	404	0	3909
11:35:00	41700	145	378	0	3676	145	378	0	3676
11:40:00	42000	141	337	0	3480	141	337	0	3480
11:45:00	42300	127	324	0	3283	127	324	0	3283
11:50:00	42600	126	281	0	3128	126	281	0	3128
11:55:00	42900	89	229	0	2988	89	229	0	2988
12:00:00	43200	78	222	0	2844	78	222	0	2844
12:05:00	43500	56	200	0	2700	56	200	0	2700
12:10:00	43800	64	185	0	2579	64	185	0	2579
12:15:00	44100	58	190	0	2447	58	190	0	2447
12:20:00	44400	52	176	0	2323	52	176	0	2323
12:25:00	44700	38	172	0	2189	38	172	0	2189
12:30:00	45000	40	176	0	2053	40	176	0	2053
12:35:00	45300	44	179	0	1918	44	179	0	1918
12:40:00	45600	41	153	0	1806	41	153	0	1806
12:45:00	45900	33	106	0	1733	33	106	0	1733
12:50:00	46200	39	107	0	1665	39	107	0	1665
12:55:00	46500	31	91	0	1605	31	91	0	1605
13:00:00	46800	32	109	0	1528	32	109	0	1528
13:05:00	47100	32	118	0	1442	32	118	0	1442
13:10:00	47400	40	239	0	1243	40	239	0	1243
13:15:00	47700	36	165	0	1114	36	165	0	1114
13:20:00	48000	38	184	0	968	38	184	0	968
13:25:00	48300	42	207	0	803	42	207	0	803
13:30:00	48600	60	224	0	639	60	224	0	639
13:35:00	48900	40	239	0	440	40	239	0	440
13:40:00	49200	55	118	0	377	55	118	0	377
13:45:00	49500	59	78	0	358	59	78	0	358
13:50:00	49800	71	84	0	345	71	84	0	345
13:55:00	50100	90	106	0	329	90	106	0	329
14:00:00	50400	105	110	0	324	105	110	0	324
14:05:00	50700	109	151	0	282	109	151	0	282
14:10:00	51000	137	139	0	280	137	139	0	280
14:15:00	51300	139	163	0	256	139	163	0	256
14:20:00	51600	149	153	0	252	149	153	0	252
14:25:00	51900	161	165	0	248	161	165	0	248
14:30:00	52200	202	217	0	233	202	217	0	233
14:35:00	52500	211	218	0	226	211	218	0	226
14:40:00	52800	222	232	0	216	222	232	0	216
14:45:00	53100	260	253	0	223	260	253	0	223
14:50:00	53400	304	287	0	240	304	287	0	240
14:55:00	53700	273	319	0	194	273	319	0	194
15:00:00	54000	333	306	0	221	333	306	0	221
15:05:00	54300	371	355	0	237	371	355	0	237
15:10:00	54600	407	390	0	254	407	390	0	254
15:15:00	54900	431	404	0	281	431	404	0	281
15:20:00	55200	468	415	0	334	468	415	0	334
15:25:00	55500	506	438	0	402	506	438	0	402
15:30:00	55800	548	498	0	452	548	498	0	452
15:35:00	56100	536	499	0	489	536	499	0	489
15:40:00	56400	564	493	0	560	564	493	0	560
15:45:00	56700	639	502	0	697	639	502	0	697
15:50:00	57000	608	536	0	769	608	536	0	769
15:55:00	57300	682	540	0	911	682	540	0	911
16:00:00	57600	714	532	0	1093	714	532	0	1093
16:05:00	57900	766	579	0	1280	766	579	0	1280
16:10:00	58200	742	560	0	1462	742	560	0	1462
16:15:00	58500	812	503	0	1771	812	503	0	1771
16:20:00	58800	840	540	0	2071	840	540	0	2071
16:25:00	59100	841	547	0	2365	841	547	0	2365
16:30:00	59400	850	586	0	2629	850	586	0	2629
16:35:00	59700	864	572	0	2921	864	572	0	2921
16:40:00	60000	890	556	0	3255	890	556	0	3255
16:45:00	60300	882	535	0	3602	882	535	0	3602
16:50:00	60600	894	535	0	3961	894	535	0	3961
16:55:00	60900	864	528	0	4297	864	528	0	4297
17:00:00	61200	944	514	0	4727	944	514	0	4727
17:05:00	61500	929	500	0	5156	929	500	0	5156
17:10:00	61800	851	455	0	5552	851	455	0	5552
17:15:00	62100	863	505	0	5910	863	505	0	5910
17:20:00	62400	828	498	0	6240	828	498	0	6240
17:25:00	62700	840	504	0	6576	840	504	0	6576
17:30:00	63000	901	529	0	6948	901	529	0	6948
17:35:00	63300	792	509	0	7231	792	509	0	7231
17:40:00	63600	744	503	0	7472	744	503	0	7472
17:45:00	63900	739	500	0	7711	739	500	0	7711
17:50:00	64200	677	446	0	7942	677	446	0	7942
17:55:00	64500	687	510	0	8119	687	510	0	8119
18:00:00	64800	693	492	0	8320	693	492	0	8320
18:05:00	65100	669	455	0	8534	669	455	0	8534
18:10:00	65400	628	494	0	8668	628	494	0	8668
18:15:00	65700	609	510	0	8767	609	510	0	8767
18:20:00	66000	569	470	0	8866	569	470	0	8866
18:25:00	66300	512	499	0	8879	512	499	0	8879
18:30:00	66600	471	472	0	8878	471	472	0	8878
18:35:00	66900	449	460	0	8867	449	460	0	8867
18:40:00	67200	401	460	0	8808	401	460	0	8808
18:45:00	67500	390	450	0	8748	390	450	0	8748
18:50:00	67800	376	471	0	8653	376	471	0	8653
18:55:00	68100	380	466	0	8567	380	466	0	8567
19:00:00	68400	351	458	0	8460	351	458	0	8460
19:05:00	68700	310	457	0	8313	310	457	0	8313
19:10:00	69000	288	442	0	8159	288	442	0	8159
19:15:00	69300	232	426	0	7965	232	426	0	7965
19:20:00	69600	219	435	0	7749	219	435	0	7749
19:25:00	69900	196	415	0	7530	196	415	0	7530
19:30:00	70200	170	453	0	7247	170	453	0	7247
19:35:00	70500	173	353	0	7067	173	353	0	7067
19:40:00	70800	145	397	0	6815	145	397	0	6815
19:45:00	71100	115	398	0	6532	115	398	0	6532
19:50:00	71400	94	402	0	6224	94	402	0	6224
19:55:00	71700	111	379	0	5956	111	379	0	5956
20:00:00	72000	91	429	0	5618	91	429	0	5618
20:05:00	72300	74	398	0	5294	74	398	0	5294
20:10:00	72600	71	343	0	5022	71	343	0	5022
20:15:00	72900	62	313	0	4771	62	313	0	4771
20:20:00	73200	47	298	0	4520	47	298	0	4520
20:25:00	73500	47	270	0	4297	47	270	0	4297
20:30:00	73800	28	304	0	4021	28	304	0	4021
20:35:00	74100	35	280	0	3776	35	280	0	3776
20:40:00	74400	30	256	0	3550	30	256	0	3550
20:45:00	74700	16	303	0	3263	16	303	0	3263
20:50:00	75000	28	256	0	3035	28	256	0	3035
20:55:00	75300	17	219	0	2833	17	219	0	2833
21:00:00	75600	13	218	0	2628	13	218	0	2628
21:05:00	75900	11	230	0	2409	11	230	0	2409
21:10:00	76200	12	192	0	2229	12	192	0	2229
21:15:00	76500	7	167	0	2069	7	167	0	2069
21:20:00	76800	7	147	0	1929	7	147	0	1929
21:25:00	77100	6	169	0	1766	6	169	0	1766
21:30:00	77400	4	192	0	1578	4	192	0	1578
21:35:00	77700	2	139	0	1441	2	139	0	1441
21:40:00	78000	5	122	0	1324	5	122	0	1324
21:45:00	78300	1	83	0	1242	1	83	0	1242
21:50:00	78600	1	73	0	1170	1	73	0	1170
21:55:00	78900	3	75	0	1098	3	75	0	1098
22:00:00	79200	0	79	0	1019	0	79	0	1019
22:05:00	79500	1	74	0	946	1	74	0	946
22:10:00	79800	1	79	0	868	1	79	0	868
22:15:00	80100	0	69	0	799	0	69	0	799
22:20:00	80400	2	77	0	724	2	77	0	724
22:25:00	80700	1	69	0	656	1	69	0	656
22:30:00	81000	0	81	0	575	0	81	0	575
22:35:00	81300	0	65	0	510	0	65	0	510
22:40:00	81600	0	78	0	432	0	78	0	432
22:45:00	81900	0	74	0	358	0	74	0	358
22:50:00	82200	0	58	0	300	0	58	0	300
22:55:00	82500	0	49	0	251	0	49	0	251
23:00:00	82800	0	51	0	200	0	51	0	200
23:05:00	83100	0	52	0	148	0	52	0	148
23:10:00	83400	0	53	0	95	0	53	0	95
23:15:00	83700	0	50	0	45	0	50	0	45
23:20:00	84000	0	45	0	0	0	45	0	0
23:25:00	84300	0	0	0	0	0	0	0	0
23:30:00	84600	0	0	0	0	0	0	0	0
23:35:00	84900	0	0	0	0	0	0	0	0
23:40:00	85200	0	0	0	0	0	0	0	0
23:45:00	85500	0	0	0	0	0	0	0	0
23:50:00	85800	0	0	0	0	0	0	0	0
23:55:00	86100	0	0	0	0	0	0	0	0
24:00:00	86400	0	0	0	0	0	0	0	0
24:05:00	86700	0	0	0	0	0	0	0	0
24:10:00	87000	0	0	0	0	0	0	0	0
24:15:00	87300	0	0	0	0	0	0	0	0
24:20:00	87600	0	0	0	0	0	0	0	0
24:25:00	87900	0	0	0	0	0	0	0	0
24:30:00	88200	0	0	0	0	0	0	0	0
24:35:00	88500	0	0	0	0	0	0	0	0
24:40:00	88800	0	0	0	0	0	0	0	0
24:45:00	89100	0	0	0	0	0	0	0	0
24:50:00	89400	0	0	0	0	0	0	0	0
24:55:00	89700	0	0	0	0	0	0	0	0
25:00:00	90000	0	0	0	0	0	0	0	0
25:05:00	90300	0	0	0	0	0	0	0	0
25:10:00	90600	0	0	0	0	0	0	0	0
25:15:00	90900	0	0	0	0	0	0	0	0
25:20:00	91200	0	0	0	0	0	0	0	0
25:25:00	91500	0	0	0	0	0	0	0	0
25:30:00	91800	0	0	0	0	0	0	0	0
25:35:00	92100	0	0	0	0	0	0	0	0
25:40:00	92400	0	0	0	0	0	0	0	0
25:45:00	92700	0	0	0	0	0	0	0	0
25:50:00	93000	0	0	0	0	0	0	0	0
25:55:00	93300	0	0	0	0	0	0	0	0
26:00:00	93600	0	0	0	0	0	0	0	0
26:05:00	93900	0	0	0	0	0	0	0	0
26:10:00	94200	0	0	0	0	0	0	0	0
26:15:00	94500	0	0	0	0	0	0	0	0
26:20:00	94800	0	0	0	0	0	0	0	0
26:25:00	95100	0	0	0	0	0	0	0	0
26:30:00	95400	0	0	0	0	0	0	0	0
26:35:00	95700	0	0	0	0	0	0	0	0
26:40:00	96000	0	0	0	0	0	0	0	0
26:45:00	96300	0	0	0	0	0	0	0	0
26:50:00	96600	0	0	0	0	0	0	0	0
26:55:00	96900	0	0	0	0	0	0	0	0
27:00:00	97200	0	0	0	0	0	0	0	0
27:05:00	97500	0	0	0	0	0	0	0	0
27:10:00	97800	0	0	0	0	0	0	0	0
27:15:00	98100	0	0	0	0	0	0	0	0
27:20:00	98400	0	0	0	0	0	0	0	0
27:25:00	98700	0	0	0	0	0	0	0	0
27:30:00	99000	0	0	0	0	0	0	0	0
27:35:00	99300	0	0	0	0	0	0	0	0
27:40:00	99600	0	0	0	0	0	0	0	0
27:45:00	99900	0	0	0	0	0	0	0	0
27:50:00	100200	0	0	0	0	0	0	0	0
27:55:00	100500	0	0	0	0	0	0	0	0
28:00:00	100800	0	0	0	0	0	0	0	0
28:05:00	101100	0	0	0	0	0	0	0	0
28:10:00	101400	0	0	0	0	0	0	0	0
28:15:00	101700	0	0	0	0	0	0	0	0
28:20:00	102000	0	0	0	0	0	0	0	0
28:25:00	102300	0	0	0	0	0	0	0	0
28:30:00	102600	0	0	0	0	0	0	0	0
28:35:00	102900	0	0	0	0	0	0	0	0
28:40:00	103200	0	0	0	0	0	0	0	0
28:45:00	103500	0	0	0	0	0	0	0	0
28:50:00	103800	0	0	0	0	0	0	0	0
28:55:00	104100	0	0	0	0	0	0	0	0
29:00:00	104400	0	0	0	0	0	0	0	0
29:05:00	104700	0	0	0	0	0	0	0	0
29:10:00	105000	0	0	0	0	0	0	0	0
29:15:00	105300	0	0	0	0	0	0	0	0
29:20:00	105600	0	0	0	0	0	0	0	0
29:25:00	105900	0	0	0	0	0	0	0	0
29:30:00	106200	0	0	0	0	0	0	0	0
29:35:00	106500	0	0	0	0	0	0	0	0
29:40:00	106800	0	0	0	0	0	0	0	0
29:45:00	107100	0	0	0	0	0	0	0	0
29:50:00	107400	0	0	0	0	0	0	0	0
29:55:00	107700	0	0	0	0	0	0	0	0
30:00:00	108000	0	0	0	0	0	0	0	0
30:05:00	108300	0	0	0	0	0	0	0	0
